%!PS-Adobe-3.0 EPSF-3.0
%%Creator: (MATLAB, The Mathworks, Inc. Version 9.6.0.1072779 \(R2019a\). Operating System: Windows 10)
%%Title: (D:/YUTAO ZHENG/1_Course in Cambridge/Lab work/07_reconstruction/code/1DNS/alpha_comp.eps)
%%CreationDate: 2020-10-21T16:02:18
%%Pages: (atend)
%%BoundingBox: 0 0 420 315
%%LanguageLevel: 3
%%EndComments
%%BeginProlog
%%BeginResource: procset (Apache XML Graphics Std ProcSet) 1.2 0
%%Version: 1.2 0
%%Copyright: (Copyright 2001-2003,2010 The Apache Software Foundation. License terms: http://www.apache.org/licenses/LICENSE-2.0)
/bd{bind def}bind def
/ld{load def}bd
/GR/grestore ld
/GS/gsave ld
/RM/rmoveto ld
/C/curveto ld
/t/show ld
/L/lineto ld
/ML/setmiterlimit ld
/CT/concat ld
/f/fill ld
/N/newpath ld
/S/stroke ld
/CC/setcmykcolor ld
/A/ashow ld
/cp/closepath ld
/RC/setrgbcolor ld
/LJ/setlinejoin ld
/GC/setgray ld
/LW/setlinewidth ld
/M/moveto ld
/re {4 2 roll M
1 index 0 rlineto
0 exch rlineto
neg 0 rlineto
cp } bd
/_ctm matrix def
/_tm matrix def
/BT { _ctm currentmatrix pop matrix _tm copy pop 0 0 moveto } bd
/ET { _ctm setmatrix } bd
/iTm { _ctm setmatrix _tm concat } bd
/Tm { _tm astore pop iTm 0 0 moveto } bd
/ux 0.0 def
/uy 0.0 def
/F {
  /Tp exch def
  /Tf exch def
  Tf findfont Tp scalefont setfont
  /cf Tf def  /cs Tp def
} bd
/ULS {currentpoint /uy exch def /ux exch def} bd
/ULE {
  /Tcx currentpoint pop def
  gsave
  newpath
  cf findfont cs scalefont dup
  /FontMatrix get 0 get /Ts exch def /FontInfo get dup
  /UnderlinePosition get Ts mul /To exch def
  /UnderlineThickness get Ts mul /Tt exch def
  ux uy To add moveto  Tcx uy To add lineto
  Tt setlinewidth stroke
  grestore
} bd
/OLE {
  /Tcx currentpoint pop def
  gsave
  newpath
  cf findfont cs scalefont dup
  /FontMatrix get 0 get /Ts exch def /FontInfo get dup
  /UnderlinePosition get Ts mul /To exch def
  /UnderlineThickness get Ts mul /Tt exch def
  ux uy To add cs add moveto Tcx uy To add cs add lineto
  Tt setlinewidth stroke
  grestore
} bd
/SOE {
  /Tcx currentpoint pop def
  gsave
  newpath
  cf findfont cs scalefont dup
  /FontMatrix get 0 get /Ts exch def /FontInfo get dup
  /UnderlinePosition get Ts mul /To exch def
  /UnderlineThickness get Ts mul /Tt exch def
  ux uy To add cs 10 mul 26 idiv add moveto Tcx uy To add cs 10 mul 26 idiv add lineto
  Tt setlinewidth stroke
  grestore
} bd
/QT {
/Y22 exch store
/X22 exch store
/Y21 exch store
/X21 exch store
currentpoint
/Y21 load 2 mul add 3 div exch
/X21 load 2 mul add 3 div exch
/X21 load 2 mul /X22 load add 3 div
/Y21 load 2 mul /Y22 load add 3 div
/X22 load /Y22 load curveto
} bd
/SSPD {
dup length /d exch dict def
{
/v exch def
/k exch def
currentpagedevice k known {
/cpdv currentpagedevice k get def
v cpdv ne {
/upd false def
/nullv v type /nulltype eq def
/nullcpdv cpdv type /nulltype eq def
nullv nullcpdv or
{
/upd true def
} {
/sametype v type cpdv type eq def
sametype {
v type /arraytype eq {
/vlen v length def
/cpdvlen cpdv length def
vlen cpdvlen eq {
0 1 vlen 1 sub {
/i exch def
/obj v i get def
/cpdobj cpdv i get def
obj cpdobj ne {
/upd true def
exit
} if
} for
} {
/upd true def
} ifelse
} {
v type /dicttype eq {
v {
/dv exch def
/dk exch def
/cpddv cpdv dk get def
dv cpddv ne {
/upd true def
exit
} if
} forall
} {
/upd true def
} ifelse
} ifelse
} if
} ifelse
upd true eq {
d k v put
} if
} if
} if
} forall
d length 0 gt {
d setpagedevice
} if
} bd
/RE { % /NewFontName [NewEncodingArray] /FontName RE -
  findfont dup length dict begin
  {
    1 index /FID ne
    {def} {pop pop} ifelse
  } forall
  /Encoding exch def
  /FontName 1 index def
  currentdict definefont pop
  end
} bind def
%%EndResource
%%BeginResource: procset (Apache XML Graphics EPS ProcSet) 1.0 0
%%Version: 1.0 0
%%Copyright: (Copyright 2002-2003 The Apache Software Foundation. License terms: http://www.apache.org/licenses/LICENSE-2.0)
/BeginEPSF { %def
/b4_Inc_state save def         % Save state for cleanup
/dict_count countdictstack def % Count objects on dict stack
/op_count count 1 sub def      % Count objects on operand stack
userdict begin                 % Push userdict on dict stack
/showpage { } def              % Redefine showpage, { } = null proc
0 setgray 0 setlinecap         % Prepare graphics state
1 setlinewidth 0 setlinejoin
10 setmiterlimit [ ] 0 setdash newpath
/languagelevel where           % If level not equal to 1 then
{pop languagelevel             % set strokeadjust and
1 ne                           % overprint to their defaults.
{false setstrokeadjust false setoverprint
} if
} if
} bd
/EndEPSF { %def
count op_count sub {pop} repeat            % Clean up stacks
countdictstack dict_count sub {end} repeat
b4_Inc_state restore
} bd
%%EndResource
%FOPBeginFontDict
%%IncludeResource: font Courier-Oblique
%%IncludeResource: font Courier-BoldOblique
%%IncludeResource: font Courier-Bold
%%IncludeResource: font ZapfDingbats
%%IncludeResource: font Symbol
%%IncludeResource: font Helvetica
%%IncludeResource: font Helvetica-Oblique
%%IncludeResource: font Helvetica-Bold
%%IncludeResource: font Helvetica-BoldOblique
%%IncludeResource: font Times-Roman
%%IncludeResource: font Times-Italic
%%IncludeResource: font Times-Bold
%%IncludeResource: font Times-BoldItalic
%%IncludeResource: font Courier
%FOPEndFontDict
%%BeginResource: encoding WinAnsiEncoding
/WinAnsiEncoding [
/.notdef /.notdef /.notdef /.notdef /.notdef
/.notdef /.notdef /.notdef /.notdef /.notdef
/.notdef /.notdef /.notdef /.notdef /.notdef
/.notdef /.notdef /.notdef /.notdef /.notdef
/.notdef /.notdef /.notdef /.notdef /.notdef
/.notdef /.notdef /.notdef /.notdef /.notdef
/.notdef /.notdef /space /exclam /quotedbl
/numbersign /dollar /percent /ampersand /quotesingle
/parenleft /parenright /asterisk /plus /comma
/hyphen /period /slash /zero /one
/two /three /four /five /six
/seven /eight /nine /colon /semicolon
/less /equal /greater /question /at
/A /B /C /D /E
/F /G /H /I /J
/K /L /M /N /O
/P /Q /R /S /T
/U /V /W /X /Y
/Z /bracketleft /backslash /bracketright /asciicircum
/underscore /quoteleft /a /b /c
/d /e /f /g /h
/i /j /k /l /m
/n /o /p /q /r
/s /t /u /v /w
/x /y /z /braceleft /bar
/braceright /asciitilde /bullet /Euro /bullet
/quotesinglbase /florin /quotedblbase /ellipsis /dagger
/daggerdbl /circumflex /perthousand /Scaron /guilsinglleft
/OE /bullet /Zcaron /bullet /bullet
/quoteleft /quoteright /quotedblleft /quotedblright /bullet
/endash /emdash /asciitilde /trademark /scaron
/guilsinglright /oe /bullet /zcaron /Ydieresis
/space /exclamdown /cent /sterling /currency
/yen /brokenbar /section /dieresis /copyright
/ordfeminine /guillemotleft /logicalnot /sfthyphen /registered
/macron /degree /plusminus /twosuperior /threesuperior
/acute /mu /paragraph /middot /cedilla
/onesuperior /ordmasculine /guillemotright /onequarter /onehalf
/threequarters /questiondown /Agrave /Aacute /Acircumflex
/Atilde /Adieresis /Aring /AE /Ccedilla
/Egrave /Eacute /Ecircumflex /Edieresis /Igrave
/Iacute /Icircumflex /Idieresis /Eth /Ntilde
/Ograve /Oacute /Ocircumflex /Otilde /Odieresis
/multiply /Oslash /Ugrave /Uacute /Ucircumflex
/Udieresis /Yacute /Thorn /germandbls /agrave
/aacute /acircumflex /atilde /adieresis /aring
/ae /ccedilla /egrave /eacute /ecircumflex
/edieresis /igrave /iacute /icircumflex /idieresis
/eth /ntilde /ograve /oacute /ocircumflex
/otilde /odieresis /divide /oslash /ugrave
/uacute /ucircumflex /udieresis /yacute /thorn
/ydieresis
] def
%%EndResource
%FOPBeginFontReencode
/Courier-Oblique findfont
dup length dict begin
  {1 index /FID ne {def} {pop pop} ifelse} forall
  /Encoding WinAnsiEncoding def
  currentdict
end
/Courier-Oblique exch definefont pop
/Courier-BoldOblique findfont
dup length dict begin
  {1 index /FID ne {def} {pop pop} ifelse} forall
  /Encoding WinAnsiEncoding def
  currentdict
end
/Courier-BoldOblique exch definefont pop
/Courier-Bold findfont
dup length dict begin
  {1 index /FID ne {def} {pop pop} ifelse} forall
  /Encoding WinAnsiEncoding def
  currentdict
end
/Courier-Bold exch definefont pop
/Helvetica findfont
dup length dict begin
  {1 index /FID ne {def} {pop pop} ifelse} forall
  /Encoding WinAnsiEncoding def
  currentdict
end
/Helvetica exch definefont pop
/Helvetica-Oblique findfont
dup length dict begin
  {1 index /FID ne {def} {pop pop} ifelse} forall
  /Encoding WinAnsiEncoding def
  currentdict
end
/Helvetica-Oblique exch definefont pop
/Helvetica-Bold findfont
dup length dict begin
  {1 index /FID ne {def} {pop pop} ifelse} forall
  /Encoding WinAnsiEncoding def
  currentdict
end
/Helvetica-Bold exch definefont pop
/Helvetica-BoldOblique findfont
dup length dict begin
  {1 index /FID ne {def} {pop pop} ifelse} forall
  /Encoding WinAnsiEncoding def
  currentdict
end
/Helvetica-BoldOblique exch definefont pop
/Times-Roman findfont
dup length dict begin
  {1 index /FID ne {def} {pop pop} ifelse} forall
  /Encoding WinAnsiEncoding def
  currentdict
end
/Times-Roman exch definefont pop
/Times-Italic findfont
dup length dict begin
  {1 index /FID ne {def} {pop pop} ifelse} forall
  /Encoding WinAnsiEncoding def
  currentdict
end
/Times-Italic exch definefont pop
/Times-Bold findfont
dup length dict begin
  {1 index /FID ne {def} {pop pop} ifelse} forall
  /Encoding WinAnsiEncoding def
  currentdict
end
/Times-Bold exch definefont pop
/Times-BoldItalic findfont
dup length dict begin
  {1 index /FID ne {def} {pop pop} ifelse} forall
  /Encoding WinAnsiEncoding def
  currentdict
end
/Times-BoldItalic exch definefont pop
/Courier findfont
dup length dict begin
  {1 index /FID ne {def} {pop pop} ifelse} forall
  /Encoding WinAnsiEncoding def
  currentdict
end
/Courier exch definefont pop
%FOPEndFontReencode
%%EndProlog
%%Page: 1 1
%%PageBoundingBox: 0 0 420 315
%%BeginPageSetup
[1 0 0 -1 0 315] CT
%%EndPageSetup
GS
[0.75 0 0 0.75 0 0] CT
1 GC
N
0 0 560 420 re
f
GR
GS
[0.75 0 0 0.75 0 0] CT
1 GC
N
0 0 560 420 re
f
GR
GS
[0.75 0 0 0.75 0 0] CT
1 GC
N
84 358 M
507 358 L
507 31 L
84 31 L
cp
f
GR
GS
[0.75 0 0 0.75 0 0] CT
0.149 GC
2 setlinecap
1 LJ
0.667 LW
N
84 358 M
507 358 L
S
GR
GS
[0.75 0 0 0.75 0 0] CT
0.149 GC
2 setlinecap
1 LJ
0.667 LW
N
84 31 M
507 31 L
S
GR
GS
[0.75 0 0 0.75 0 0] CT
0.149 GC
2 setlinecap
1 LJ
0.667 LW
N
84 358 M
84 353.771 L
S
GR
GS
[0.75 0 0 0.75 0 0] CT
0.149 GC
2 setlinecap
1 LJ
0.667 LW
N
154.5 358 M
154.5 353.771 L
S
GR
GS
[0.75 0 0 0.75 0 0] CT
0.149 GC
2 setlinecap
1 LJ
0.667 LW
N
225 358 M
225 353.771 L
S
GR
GS
[0.75 0 0 0.75 0 0] CT
0.149 GC
2 setlinecap
1 LJ
0.667 LW
N
295.5 358 M
295.5 353.771 L
S
GR
GS
[0.75 0 0 0.75 0 0] CT
0.149 GC
2 setlinecap
1 LJ
0.667 LW
N
366 358 M
366 353.771 L
S
GR
GS
[0.75 0 0 0.75 0 0] CT
0.149 GC
2 setlinecap
1 LJ
0.667 LW
N
436.5 358 M
436.5 353.771 L
S
GR
GS
[0.75 0 0 0.75 0 0] CT
0.149 GC
2 setlinecap
1 LJ
0.667 LW
N
507 358 M
507 353.771 L
S
GR
GS
[0.75 0 0 0.75 0 0] CT
0.149 GC
2 setlinecap
1 LJ
0.667 LW
N
84 31 M
84 35.229 L
S
GR
GS
[0.75 0 0 0.75 0 0] CT
0.149 GC
2 setlinecap
1 LJ
0.667 LW
N
154.5 31 M
154.5 35.229 L
S
GR
GS
[0.75 0 0 0.75 0 0] CT
0.149 GC
2 setlinecap
1 LJ
0.667 LW
N
225 31 M
225 35.229 L
S
GR
GS
[0.75 0 0 0.75 0 0] CT
0.149 GC
2 setlinecap
1 LJ
0.667 LW
N
295.5 31 M
295.5 35.229 L
S
GR
GS
[0.75 0 0 0.75 0 0] CT
0.149 GC
2 setlinecap
1 LJ
0.667 LW
N
366 31 M
366 35.229 L
S
GR
GS
[0.75 0 0 0.75 0 0] CT
0.149 GC
2 setlinecap
1 LJ
0.667 LW
N
436.5 31 M
436.5 35.229 L
S
GR
GS
[0.75 0 0 0.75 0 0] CT
0.149 GC
2 setlinecap
1 LJ
0.667 LW
N
507 31 M
507 35.229 L
S
GR
GS
[0.75 0 0 0.75 63 273.69999] CT
0.149 GC
/Times-Roman 21.333 F
GS
[1 0 0 1 0 0] CT
-5.5 20 moveto 
1 -1 scale
(0) t 
GR
GR
GS
[0.75 0 0 0.75 115.875 273.69999] CT
0.149 GC
/Times-Roman 21.333 F
GS
[1 0 0 1 0 0] CT
-5.5 20 moveto 
1 -1 scale
(5) t 
GR
GR
GS
[0.75 0 0 0.75 168.75 273.69999] CT
0.149 GC
/Times-Roman 21.333 F
GS
[1 0 0 1 0 0] CT
-11 20 moveto 
1 -1 scale
(10) t 
GR
GR
GS
[0.75 0 0 0.75 221.625 273.69999] CT
0.149 GC
/Times-Roman 21.333 F
GS
[1 0 0 1 0 0] CT
-11 20 moveto 
1 -1 scale
(15) t 
GR
GR
GS
[0.75 0 0 0.75 274.5 273.69999] CT
0.149 GC
/Times-Roman 21.333 F
GS
[1 0 0 1 0 0] CT
-11 20 moveto 
1 -1 scale
(20) t 
GR
GR
GS
[0.75 0 0 0.75 327.375 273.69999] CT
0.149 GC
/Times-Roman 21.333 F
GS
[1 0 0 1 0 0] CT
-11 20 moveto 
1 -1 scale
(25) t 
GR
GR
GS
[0.75 0 0 0.75 380.25 273.69999] CT
0.149 GC
/Times-Roman 21.333 F
GS
[1 0 0 1 0 0] CT
-11 20 moveto 
1 -1 scale
(30) t 
GR
GR
GS
[0.75 0 0 0.75 221.62516 293.88] CT
0.149 GC
N
-82.462 16.946 M
-82.462 10.603 L
-84.369 10.603 L
-84.369 10.009 L
-82.869 10.009 -82.158 8.603 QT
-81.447 7.196 -81.447 5.556 QT
-80.79 5.556 L
-80.79 9.79 L
-77.54 9.79 L
-77.54 10.603 L
-80.79 10.603 L
-80.79 16.899 L
-80.79 17.853 -80.47 18.571 QT
-80.15 19.29 -79.322 19.29 QT
-78.525 19.29 -78.181 18.532 QT
-77.837 17.774 -77.837 16.899 QT
-77.837 15.54 L
-77.165 15.54 L
-77.165 16.946 L
-77.165 17.665 -77.431 18.368 QT
-77.697 19.071 -78.212 19.524 QT
-78.728 19.978 -79.478 19.978 QT
-80.853 19.978 -81.658 19.149 QT
-82.462 18.321 -82.462 16.946 QT
cp
f
GR
GS
[0.75 0 0 0.75 221.62516 293.88] CT
0.149 GC
N
-74.977 19.712 M
-74.977 18.899 L
-74.18 18.899 -73.68 18.774 QT
-73.18 18.649 -73.18 18.181 QT
-73.18 11.899 L
-73.18 11.009 -73.524 10.806 QT
-73.868 10.603 -74.868 10.603 QT
-74.868 9.79 L
-71.555 9.556 L
-71.555 18.181 L
-71.555 18.649 -71.118 18.774 QT
-70.68 18.899 -69.946 18.899 QT
-69.946 19.712 L
-74.977 19.712 L
cp
-73.993 5.603 M
-73.993 5.087 -73.61 4.704 QT
-73.227 4.321 -72.743 4.321 QT
-72.414 4.321 -72.11 4.493 QT
-71.805 4.665 -71.633 4.97 QT
-71.461 5.274 -71.461 5.603 QT
-71.461 6.087 -71.844 6.47 QT
-72.227 6.853 -72.743 6.853 QT
-73.227 6.853 -73.61 6.47 QT
-73.993 6.087 -73.993 5.603 QT
cp
f
GR
GS
[0.75 0 0 0.75 221.62516 293.88] CT
0.149 GC
N
-68.474 19.712 M
-68.474 18.899 L
-67.693 18.899 -67.185 18.774 QT
-66.677 18.649 -66.677 18.181 QT
-66.677 11.899 L
-66.677 11.274 -66.865 11.001 QT
-67.052 10.728 -67.396 10.665 QT
-67.74 10.603 -68.474 10.603 QT
-68.474 9.79 L
-65.146 9.556 L
-65.146 11.79 L
-64.677 10.806 -63.771 10.181 QT
-62.865 9.556 -61.802 9.556 QT
-59.162 9.556 -58.693 11.712 QT
-58.24 10.743 -57.349 10.149 QT
-56.458 9.556 -55.412 9.556 QT
-54.365 9.556 -53.646 9.892 QT
-52.927 10.228 -52.568 10.915 QT
-52.208 11.603 -52.208 12.649 QT
-52.208 18.181 L
-52.208 18.649 -51.701 18.774 QT
-51.193 18.899 -50.412 18.899 QT
-50.412 19.712 L
-55.677 19.712 L
-55.677 18.899 L
-54.896 18.899 -54.388 18.774 QT
-53.88 18.649 -53.88 18.181 QT
-53.88 12.712 L
-53.88 11.556 -54.208 10.853 QT
-54.537 10.149 -55.552 10.149 QT
-56.88 10.149 -57.74 11.212 QT
-58.599 12.274 -58.599 13.634 QT
-58.599 18.181 L
-58.599 18.649 -58.099 18.774 QT
-57.599 18.899 -56.802 18.899 QT
-56.802 19.712 L
-62.068 19.712 L
-62.068 18.899 L
-61.287 18.899 -60.779 18.774 QT
-60.271 18.649 -60.271 18.181 QT
-60.271 12.712 L
-60.271 11.587 -60.599 10.868 QT
-60.927 10.149 -61.943 10.149 QT
-63.271 10.149 -64.13 11.212 QT
-64.99 12.274 -64.99 13.634 QT
-64.99 18.181 L
-64.99 18.649 -64.49 18.774 QT
-63.99 18.899 -63.208 18.899 QT
-63.208 19.712 L
-68.474 19.712 L
cp
f
GR
GS
[0.75 0 0 0.75 221.62516 293.88] CT
0.149 GC
N
-43.872 19.978 M
-45.278 19.978 -46.45 19.235 QT
-47.622 18.493 -48.293 17.267 QT
-48.965 16.04 -48.965 14.665 QT
-48.965 13.321 -48.356 12.11 QT
-47.747 10.899 -46.653 10.149 QT
-45.559 9.399 -44.2 9.399 QT
-43.153 9.399 -42.372 9.751 QT
-41.59 10.103 -41.083 10.735 QT
-40.575 11.368 -40.317 12.22 QT
-40.059 13.071 -40.059 14.103 QT
-40.059 14.399 -40.293 14.399 QT
-46.95 14.399 L
-46.95 14.649 L
-46.95 16.556 -46.184 17.923 QT
-45.418 19.29 -43.668 19.29 QT
-42.965 19.29 -42.364 18.978 QT
-41.762 18.665 -41.325 18.103 QT
-40.887 17.54 -40.715 16.899 QT
-40.7 16.821 -40.637 16.759 QT
-40.575 16.696 -40.497 16.696 QT
-40.293 16.696 L
-40.059 16.696 -40.059 16.993 QT
-40.387 18.29 -41.465 19.134 QT
-42.543 19.978 -43.872 19.978 QT
cp
-46.934 13.821 M
-41.684 13.821 L
-41.684 12.962 -41.926 12.071 QT
-42.168 11.181 -42.731 10.595 QT
-43.293 10.009 -44.2 10.009 QT
-45.512 10.009 -46.223 11.228 QT
-46.934 12.446 -46.934 13.821 QT
cp
f
GR
GS
[0.75 0 0 0.75 221.62516 293.88] CT
0.149 GC
N
-30.588 19.774 M
-30.588 16.024 L
-30.588 15.853 -30.385 15.853 QT
-30.104 15.853 L
-29.979 15.853 -29.932 16.024 QT
-29.292 19.368 -26.823 19.368 QT
-25.745 19.368 -25.003 18.868 QT
-24.26 18.368 -24.26 17.337 QT
-24.26 16.603 -24.838 16.079 QT
-25.417 15.556 -26.198 15.368 QT
-27.745 15.056 L
-28.51 14.899 -29.143 14.548 QT
-29.776 14.196 -30.182 13.618 QT
-30.588 13.04 -30.588 12.274 QT
-30.588 11.259 -30.057 10.618 QT
-29.526 9.978 -28.674 9.688 QT
-27.823 9.399 -26.823 9.399 QT
-25.651 9.399 -24.776 10.024 QT
-24.104 9.462 L
-24.104 9.399 -23.995 9.399 QT
-23.823 9.399 L
-23.76 9.399 -23.706 9.462 QT
-23.651 9.524 -23.651 9.587 QT
-23.651 12.603 L
-23.651 12.821 -23.823 12.821 QT
-24.104 12.821 L
-24.307 12.821 -24.307 12.603 QT
-24.307 11.399 -24.979 10.673 QT
-25.651 9.946 -26.854 9.946 QT
-27.885 9.946 -28.643 10.329 QT
-29.401 10.712 -29.401 11.634 QT
-29.401 12.274 -28.854 12.688 QT
-28.307 13.103 -27.573 13.274 QT
-26.026 13.571 L
-25.229 13.743 -24.549 14.173 QT
-23.87 14.603 -23.471 15.251 QT
-23.073 15.899 -23.073 16.728 QT
-23.073 17.556 -23.362 18.165 QT
-23.651 18.774 -24.159 19.181 QT
-24.667 19.587 -25.362 19.782 QT
-26.057 19.978 -26.823 19.978 QT
-28.26 19.978 -29.292 19.009 QT
-30.135 19.915 L
-30.135 19.978 -30.26 19.978 QT
-30.385 19.978 L
-30.588 19.978 -30.588 19.774 QT
cp
f
GR
GS
[0.75 0 0 0.75 221.62516 293.88] CT
0.149 GC
N
-19.754 16.946 M
-19.754 10.603 L
-21.66 10.603 L
-21.66 10.009 L
-20.16 10.009 -19.449 8.603 QT
-18.738 7.196 -18.738 5.556 QT
-18.082 5.556 L
-18.082 9.79 L
-14.832 9.79 L
-14.832 10.603 L
-18.082 10.603 L
-18.082 16.899 L
-18.082 17.853 -17.762 18.571 QT
-17.442 19.29 -16.613 19.29 QT
-15.817 19.29 -15.473 18.532 QT
-15.129 17.774 -15.129 16.899 QT
-15.129 15.54 L
-14.457 15.54 L
-14.457 16.946 L
-14.457 17.665 -14.723 18.368 QT
-14.988 19.071 -15.504 19.524 QT
-16.02 19.978 -16.77 19.978 QT
-18.145 19.978 -18.949 19.149 QT
-19.754 18.321 -19.754 16.946 QT
cp
f
GR
GS
[0.75 0 0 0.75 221.62516 293.88] CT
0.149 GC
N
-7.237 19.978 M
-8.644 19.978 -9.816 19.235 QT
-10.987 18.493 -11.659 17.267 QT
-12.331 16.04 -12.331 14.665 QT
-12.331 13.321 -11.722 12.11 QT
-11.112 10.899 -10.019 10.149 QT
-8.925 9.399 -7.566 9.399 QT
-6.519 9.399 -5.737 9.751 QT
-4.956 10.103 -4.448 10.735 QT
-3.941 11.368 -3.683 12.22 QT
-3.425 13.071 -3.425 14.103 QT
-3.425 14.399 -3.659 14.399 QT
-10.316 14.399 L
-10.316 14.649 L
-10.316 16.556 -9.55 17.923 QT
-8.784 19.29 -7.034 19.29 QT
-6.331 19.29 -5.73 18.978 QT
-5.128 18.665 -4.691 18.103 QT
-4.253 17.54 -4.081 16.899 QT
-4.066 16.821 -4.003 16.759 QT
-3.941 16.696 -3.862 16.696 QT
-3.659 16.696 L
-3.425 16.696 -3.425 16.993 QT
-3.753 18.29 -4.831 19.134 QT
-5.909 19.978 -7.237 19.978 QT
cp
-10.3 13.821 M
-5.05 13.821 L
-5.05 12.962 -5.292 12.071 QT
-5.534 11.181 -6.097 10.595 QT
-6.659 10.009 -7.566 10.009 QT
-8.878 10.009 -9.589 11.228 QT
-10.3 12.446 -10.3 13.821 QT
cp
f
GR
GS
[0.75 0 0 0.75 221.62516 293.88] CT
0.149 GC
N
-1.948 24.165 M
-1.948 23.368 L
-1.167 23.368 -0.659 23.235 QT
-0.152 23.103 -0.152 22.634 QT
-0.152 11.54 L
-0.152 10.915 -0.597 10.759 QT
-1.042 10.603 -1.948 10.603 QT
-1.948 9.79 L
1.458 9.556 L
1.458 10.978 L
2.083 10.274 2.919 9.915 QT
3.755 9.556 4.708 9.556 QT
6.067 9.556 7.153 10.29 QT
8.239 11.024 8.848 12.22 QT
9.458 13.415 9.458 14.743 QT
9.458 16.134 8.778 17.337 QT
8.098 18.54 6.927 19.259 QT
5.755 19.978 4.348 19.978 QT
2.677 19.978 1.52 18.618 QT
1.52 22.634 L
1.52 23.103 2.036 23.235 QT
2.552 23.368 3.317 23.368 QT
3.317 24.165 L
-1.948 24.165 L
cp
1.52 17.478 M
1.927 18.29 2.645 18.829 QT
3.364 19.368 4.223 19.368 QT
5.02 19.368 5.63 18.938 QT
6.239 18.509 6.653 17.79 QT
7.067 17.071 7.262 16.282 QT
7.458 15.493 7.458 14.743 QT
7.458 13.821 7.13 12.751 QT
6.802 11.681 6.122 10.946 QT
5.442 10.212 4.473 10.212 QT
3.552 10.212 2.77 10.688 QT
1.989 11.165 1.52 11.978 QT
1.52 17.478 L
cp
f
GR
GS
[0.75 0 0 0.75 221.62516 293.88] CT
0.149 GC
N
25.442 25.415 M
24.161 24.399 23.239 23.095 QT
22.317 21.79 21.723 20.306 QT
21.13 18.821 20.84 17.204 QT
20.551 15.587 20.551 13.962 QT
20.551 12.306 20.84 10.688 QT
21.13 9.071 21.731 7.579 QT
22.333 6.087 23.27 4.782 QT
24.208 3.478 25.442 2.509 QT
25.442 2.462 25.567 2.462 QT
25.77 2.462 L
25.848 2.462 25.903 2.524 QT
25.958 2.587 25.958 2.665 QT
25.958 2.759 25.911 2.806 QT
24.786 3.915 24.036 5.173 QT
23.286 6.431 22.833 7.853 QT
22.38 9.274 22.176 10.79 QT
21.973 12.306 21.973 13.962 QT
21.973 21.274 25.88 25.071 QT
25.958 25.134 25.958 25.259 QT
25.958 25.321 25.895 25.392 QT
25.833 25.462 25.77 25.462 QT
25.567 25.462 L
25.442 25.462 25.442 25.415 QT
cp
f
GR
GS
[0.75 0 0 0.75 221.62516 293.88] CT
0.149 GC
N
28.865 17.853 M
28.865 17.509 28.943 17.212 QT
30.599 10.603 L
28.177 10.603 L
27.943 10.603 27.943 10.306 QT
28.037 9.79 28.255 9.79 QT
30.802 9.79 L
31.724 6.04 L
31.818 5.743 32.084 5.532 QT
32.349 5.321 32.693 5.321 QT
32.974 5.321 33.177 5.493 QT
33.38 5.665 33.38 5.962 QT
33.38 6.024 33.373 6.063 QT
33.365 6.103 33.349 6.149 QT
32.427 9.79 L
34.802 9.79 L
35.037 9.79 35.037 10.103 QT
35.021 10.149 34.99 10.29 QT
34.959 10.431 34.904 10.517 QT
34.849 10.603 34.724 10.603 QT
32.224 10.603 L
30.584 17.259 L
30.412 17.899 30.412 18.368 QT
30.412 19.368 31.084 19.368 QT
32.099 19.368 32.873 18.415 QT
33.646 17.462 34.068 16.337 QT
34.162 16.196 34.255 16.196 QT
34.537 16.196 L
34.615 16.196 34.67 16.259 QT
34.724 16.321 34.724 16.399 QT
34.724 16.446 34.709 16.462 QT
34.209 17.853 33.24 18.915 QT
32.271 19.978 31.021 19.978 QT
30.115 19.978 29.49 19.376 QT
28.865 18.774 28.865 17.853 QT
cp
f
GR
GS
[0.75 0 0 0.75 221.62516 293.88] CT
0.149 GC
N
37.214 25.009 M
37.214 24.931 37.23 24.915 QT
45.23 2.743 L
45.276 2.603 45.386 2.532 QT
45.495 2.462 45.636 2.462 QT
45.839 2.462 45.972 2.587 QT
46.105 2.712 46.105 2.915 QT
46.105 3.009 L
38.105 25.181 L
37.98 25.462 37.667 25.462 QT
37.48 25.462 37.347 25.329 QT
37.214 25.196 37.214 25.009 QT
cp
f
GR
GS
[0.75 0 0 0.75 221.62516 293.88] CT
0.149 GC
N
48.9 19.712 M
48.713 19.712 48.713 19.524 QT
48.713 19.509 48.721 19.501 QT
48.729 19.493 48.729 19.446 QT
56.65 3.493 L
56.744 3.243 57.057 3.243 QT
57.369 3.243 L
57.697 3.243 57.791 3.493 QT
65.713 19.446 L
65.713 19.478 65.721 19.493 QT
65.729 19.509 65.729 19.524 QT
65.729 19.712 65.541 19.712 QT
48.9 19.712 L
cp
50.416 17.868 M
62.525 17.868 L
56.479 5.665 L
50.416 17.868 L
cp
f
GR
GS
[0.75 0 0 0.75 221.62516 293.88] CT
0.149 GC
N
68.628 17.853 M
68.628 17.509 68.706 17.212 QT
70.362 10.603 L
67.94 10.603 L
67.706 10.603 67.706 10.306 QT
67.8 9.79 68.019 9.79 QT
70.565 9.79 L
71.487 6.04 L
71.581 5.743 71.847 5.532 QT
72.112 5.321 72.456 5.321 QT
72.737 5.321 72.94 5.493 QT
73.144 5.665 73.144 5.962 QT
73.144 6.024 73.136 6.063 QT
73.128 6.103 73.112 6.149 QT
72.19 9.79 L
74.565 9.79 L
74.8 9.79 74.8 10.103 QT
74.784 10.149 74.753 10.29 QT
74.722 10.431 74.667 10.517 QT
74.612 10.603 74.487 10.603 QT
71.987 10.603 L
70.347 17.259 L
70.175 17.899 70.175 18.368 QT
70.175 19.368 70.847 19.368 QT
71.862 19.368 72.636 18.415 QT
73.409 17.462 73.831 16.337 QT
73.925 16.196 74.019 16.196 QT
74.3 16.196 L
74.378 16.196 74.433 16.259 QT
74.487 16.321 74.487 16.399 QT
74.487 16.446 74.472 16.462 QT
73.972 17.853 73.003 18.915 QT
72.034 19.978 70.784 19.978 QT
69.878 19.978 69.253 19.376 QT
68.628 18.774 68.628 17.853 QT
cp
f
GR
GS
[0.75 0 0 0.75 221.62516 293.88] CT
0.149 GC
N
77.18 25.462 M
76.977 25.462 76.977 25.259 QT
76.977 25.165 77.024 25.118 QT
80.946 21.274 80.946 13.962 QT
80.946 6.649 77.055 2.853 QT
76.977 2.806 76.977 2.665 QT
76.977 2.587 77.04 2.524 QT
77.102 2.462 77.18 2.462 QT
77.383 2.462 L
77.461 2.462 77.493 2.509 QT
79.149 3.806 80.25 5.673 QT
81.352 7.54 81.86 9.649 QT
82.368 11.759 82.368 13.962 QT
82.368 15.587 82.094 17.165 QT
81.821 18.743 81.219 20.274 QT
80.618 21.806 79.696 23.103 QT
78.774 24.399 77.493 25.415 QT
77.461 25.462 77.383 25.462 QT
77.18 25.462 L
cp
f
GR
GS
[0.75 0 0 0.75 0 0] CT
0.149 GC
2 setlinecap
1 LJ
0.667 LW
N
84 358 M
84 31 L
S
GR
GS
[0.75 0 0 0.75 0 0] CT
0.149 GC
2 setlinecap
1 LJ
0.667 LW
N
507 358 M
507 31 L
S
GR
GS
[0.75 0 0 0.75 0 0] CT
0.149 GC
2 setlinecap
1 LJ
0.667 LW
N
84 358 M
88.229 358 L
S
GR
GS
[0.75 0 0 0.75 0 0] CT
0.149 GC
2 setlinecap
1 LJ
0.667 LW
N
84 311.286 M
88.229 311.286 L
S
GR
GS
[0.75 0 0 0.75 0 0] CT
0.149 GC
2 setlinecap
1 LJ
0.667 LW
N
84 264.571 M
88.229 264.571 L
S
GR
GS
[0.75 0 0 0.75 0 0] CT
0.149 GC
2 setlinecap
1 LJ
0.667 LW
N
84 217.857 M
88.229 217.857 L
S
GR
GS
[0.75 0 0 0.75 0 0] CT
0.149 GC
2 setlinecap
1 LJ
0.667 LW
N
84 171.143 M
88.229 171.143 L
S
GR
GS
[0.75 0 0 0.75 0 0] CT
0.149 GC
2 setlinecap
1 LJ
0.667 LW
N
84 124.429 M
88.229 124.429 L
S
GR
GS
[0.75 0 0 0.75 0 0] CT
0.149 GC
2 setlinecap
1 LJ
0.667 LW
N
84 77.714 M
88.229 77.714 L
S
GR
GS
[0.75 0 0 0.75 0 0] CT
0.149 GC
2 setlinecap
1 LJ
0.667 LW
N
84 31 M
88.229 31 L
S
GR
GS
[0.75 0 0 0.75 0 0] CT
0.149 GC
2 setlinecap
1 LJ
0.667 LW
N
507 358 M
502.771 358 L
S
GR
GS
[0.75 0 0 0.75 0 0] CT
0.149 GC
2 setlinecap
1 LJ
0.667 LW
N
507 311.286 M
502.771 311.286 L
S
GR
GS
[0.75 0 0 0.75 0 0] CT
0.149 GC
2 setlinecap
1 LJ
0.667 LW
N
507 264.571 M
502.771 264.571 L
S
GR
GS
[0.75 0 0 0.75 0 0] CT
0.149 GC
2 setlinecap
1 LJ
0.667 LW
N
507 217.857 M
502.771 217.857 L
S
GR
GS
[0.75 0 0 0.75 0 0] CT
0.149 GC
2 setlinecap
1 LJ
0.667 LW
N
507 171.143 M
502.771 171.143 L
S
GR
GS
[0.75 0 0 0.75 0 0] CT
0.149 GC
2 setlinecap
1 LJ
0.667 LW
N
507 124.429 M
502.771 124.429 L
S
GR
GS
[0.75 0 0 0.75 0 0] CT
0.149 GC
2 setlinecap
1 LJ
0.667 LW
N
507 77.714 M
502.771 77.714 L
S
GR
GS
[0.75 0 0 0.75 0 0] CT
0.149 GC
2 setlinecap
1 LJ
0.667 LW
N
507 31 M
502.771 31 L
S
GR
GS
[0.75 0 0 0.75 57.8 268.5] CT
0.149 GC
/Times-Roman 21.333 F
GS
[1 0 0 1 0 0] CT
-45 7.5 moveto 
1 -1 scale
(-0.35) t 
GR
GR
GS
[0.75 0 0 0.75 57.8 233.4643] CT
0.149 GC
/Times-Roman 21.333 F
GS
[1 0 0 1 0 0] CT
-34 7.5 moveto 
1 -1 scale
(-0.3) t 
GR
GR
GS
[0.75 0 0 0.75 57.8 198.42858] CT
0.149 GC
/Times-Roman 21.333 F
GS
[1 0 0 1 0 0] CT
-45 7.5 moveto 
1 -1 scale
(-0.25) t 
GR
GR
GS
[0.75 0 0 0.75 57.8 163.39286] CT
0.149 GC
/Times-Roman 21.333 F
GS
[1 0 0 1 0 0] CT
-34 7.5 moveto 
1 -1 scale
(-0.2) t 
GR
GR
GS
[0.75 0 0 0.75 57.8 128.35715] CT
0.149 GC
/Times-Roman 21.333 F
GS
[1 0 0 1 0 0] CT
-45 7.5 moveto 
1 -1 scale
(-0.15) t 
GR
GR
GS
[0.75 0 0 0.75 57.8 93.32143] CT
0.149 GC
/Times-Roman 21.333 F
GS
[1 0 0 1 0 0] CT
-34 7.5 moveto 
1 -1 scale
(-0.1) t 
GR
GR
GS
[0.75 0 0 0.75 57.8 58.28572] CT
0.149 GC
/Times-Roman 21.333 F
GS
[1 0 0 1 0 0] CT
-45 7.5 moveto 
1 -1 scale
(-0.05) t 
GR
GR
GS
[0.75 0 0 0.75 57.8 23.25] CT
0.149 GC
/Times-Roman 21.333 F
GS
[1 0 0 1 0 0] CT
-11 7.5 moveto 
1 -1 scale
(0) t 
GR
GR
GS
[0 -0.75 0.75 0 21.12 145.87489] CT
0.149 GC
N
-31.893 -8.182 M
-32.987 -8.182 -33.831 -8.706 QT
-34.675 -9.229 -35.136 -10.104 QT
-35.597 -10.979 -35.597 -12.089 QT
-35.597 -13.651 -34.729 -15.175 QT
-33.862 -16.698 -32.417 -17.651 QT
-30.972 -18.604 -29.393 -18.604 QT
-28.222 -18.604 -27.331 -17.995 QT
-26.44 -17.386 -25.979 -16.37 QT
-25.518 -15.354 -25.518 -14.198 QT
-25.503 -12.667 L
-24.722 -13.745 -24.175 -14.917 QT
-23.628 -16.089 -23.331 -17.354 QT
-23.284 -17.495 -23.159 -17.495 QT
-22.878 -17.495 L
-22.675 -17.495 -22.675 -17.276 QT
-22.675 -17.261 -22.69 -17.214 QT
-22.956 -16.151 -23.362 -15.182 QT
-23.768 -14.214 -24.315 -13.3 QT
-24.862 -12.386 -25.503 -11.651 QT
-25.503 -8.792 -24.831 -8.792 QT
-24.409 -8.792 -24.136 -9.05 QT
-23.862 -9.307 -23.651 -9.675 QT
-23.44 -10.042 -23.393 -10.057 QT
-23.112 -10.057 L
-22.925 -10.057 -22.925 -9.823 QT
-22.925 -9.261 -23.581 -8.722 QT
-24.237 -8.182 -24.878 -8.182 QT
-25.722 -8.182 -26.268 -8.722 QT
-26.815 -9.261 -27.018 -10.136 QT
-28.097 -9.214 -29.354 -8.698 QT
-30.612 -8.182 -31.893 -8.182 QT
cp
-31.847 -8.792 M
-29.393 -8.792 -27.128 -10.823 QT
-27.143 -10.948 -27.167 -11.143 QT
-27.19 -11.339 -27.19 -11.37 QT
-27.19 -13.854 L
-27.19 -18.011 -29.425 -18.011 QT
-30.784 -18.011 -31.792 -16.862 QT
-32.8 -15.714 -33.307 -14.112 QT
-33.815 -12.511 -33.815 -11.182 QT
-33.815 -10.182 -33.307 -9.487 QT
-32.8 -8.792 -31.847 -8.792 QT
cp
f
GR
GS
[0 -0.75 0.75 0 21.12 145.87489] CT
0.149 GC
N
-20.757 -4.928 M
-20.913 -4.928 -20.913 -5.147 QT
-20.897 -5.178 -20.874 -5.28 QT
-20.851 -5.381 -20.811 -5.436 QT
-20.772 -5.491 -20.71 -5.491 QT
-19.179 -5.491 -18.929 -6.475 QT
-16.757 -15.225 L
-17.194 -15.303 -18.163 -15.303 QT
-18.319 -15.303 -18.319 -15.506 QT
-18.304 -15.553 -18.28 -15.647 QT
-18.257 -15.741 -18.218 -15.803 QT
-18.179 -15.866 -18.116 -15.866 QT
-15.351 -15.866 L
-15.226 -15.866 -15.194 -15.756 QT
-11.647 -7.303 L
-9.866 -14.381 L
-9.835 -14.553 -9.835 -14.631 QT
-9.835 -15.303 -11.069 -15.303 QT
-11.226 -15.303 -11.226 -15.506 QT
-11.179 -15.709 -11.147 -15.787 QT
-11.116 -15.866 -10.96 -15.866 QT
-7.538 -15.866 L
-7.382 -15.866 -7.382 -15.647 QT
-7.382 -15.616 -7.405 -15.514 QT
-7.429 -15.412 -7.476 -15.358 QT
-7.522 -15.303 -7.585 -15.303 QT
-9.116 -15.303 -9.366 -14.319 QT
-11.663 -5.069 L
-11.71 -4.928 -11.819 -4.928 QT
-12.022 -4.928 L
-12.132 -4.928 -12.163 -5.037 QT
-16.241 -14.725 L
-16.272 -14.819 L
-16.304 -14.85 -16.304 -14.866 QT
-18.413 -6.397 L
-18.429 -6.366 -18.436 -6.303 QT
-18.444 -6.241 -18.46 -6.162 QT
-18.46 -5.756 -18.101 -5.623 QT
-17.741 -5.491 -17.21 -5.491 QT
-17.054 -5.491 -17.054 -5.287 QT
-17.116 -5.069 -17.155 -4.998 QT
-17.194 -4.928 -17.319 -4.928 QT
-20.757 -4.928 L
cp
f
GR
GS
[0 -0.75 0.75 0 21.12 145.87489] CT
0.149 GC
N
-4.047 -3.151 M
-4.047 -3.229 -4.032 -3.245 QT
3.968 -25.417 L
4.015 -25.557 4.125 -25.628 QT
4.234 -25.698 4.375 -25.698 QT
4.578 -25.698 4.711 -25.573 QT
4.843 -25.448 4.843 -25.245 QT
4.843 -25.151 L
-3.157 -2.979 L
-3.282 -2.698 -3.594 -2.698 QT
-3.782 -2.698 -3.914 -2.831 QT
-4.047 -2.964 -4.047 -3.151 QT
cp
f
GR
GS
[0 -0.75 0.75 0 21.12 145.87489] CT
0.149 GC
N
8.827 -10.948 M
8.827 -11.698 9.03 -12.495 QT
9.233 -13.292 9.6 -14.261 QT
9.967 -15.229 10.233 -15.948 QT
10.53 -16.792 10.53 -17.339 QT
10.53 -18.011 10.03 -18.011 QT
9.124 -18.011 8.53 -17.073 QT
7.936 -16.136 7.655 -14.979 QT
7.608 -14.839 7.467 -14.839 QT
7.202 -14.839 L
7.014 -14.839 7.014 -15.057 QT
7.014 -15.12 L
7.374 -16.495 8.139 -17.55 QT
8.905 -18.604 10.077 -18.604 QT
10.889 -18.604 11.46 -18.065 QT
12.03 -17.526 12.03 -16.698 QT
12.03 -16.276 11.842 -15.807 QT
11.733 -15.526 11.374 -14.581 QT
11.014 -13.636 10.827 -13.018 QT
10.639 -12.401 10.514 -11.807 QT
10.389 -11.214 10.389 -10.62 QT
10.389 -9.854 10.717 -9.323 QT
11.045 -8.792 11.764 -8.792 QT
13.233 -8.792 14.358 -10.62 QT
14.374 -10.698 14.389 -10.784 QT
14.405 -10.87 14.42 -10.948 QT
16.077 -17.62 L
16.155 -17.932 16.436 -18.151 QT
16.717 -18.37 17.03 -18.37 QT
17.311 -18.37 17.522 -18.19 QT
17.733 -18.011 17.733 -17.714 QT
17.733 -17.573 17.717 -17.526 QT
16.045 -10.901 L
15.889 -10.229 15.889 -9.792 QT
15.889 -8.792 16.545 -8.792 QT
17.295 -8.792 17.663 -9.706 QT
18.03 -10.62 18.28 -11.823 QT
18.327 -11.964 18.467 -11.964 QT
18.749 -11.964 L
18.827 -11.964 18.889 -11.886 QT
18.952 -11.807 18.952 -11.745 QT
18.702 -10.745 18.467 -10.042 QT
18.233 -9.339 17.741 -8.761 QT
17.249 -8.182 16.514 -8.182 QT
15.78 -8.182 15.202 -8.589 QT
14.624 -8.995 14.42 -9.667 QT
13.889 -8.995 13.194 -8.589 QT
12.499 -8.182 11.717 -8.182 QT
10.405 -8.182 9.616 -8.909 QT
8.827 -9.636 8.827 -10.948 QT
cp
f
GR
GS
[0 -0.75 0.75 0 21.12 145.87489] CT
0.149 GC
N
21.214 -5.912 M
21.651 -5.178 22.948 -5.178 QT
23.51 -5.178 24.018 -5.366 QT
24.526 -5.553 24.854 -5.936 QT
25.182 -6.319 25.182 -6.866 QT
25.182 -7.287 24.885 -7.553 QT
24.589 -7.819 24.167 -7.912 QT
23.292 -8.084 L
22.698 -8.225 22.315 -8.631 QT
21.932 -9.037 21.932 -9.616 QT
21.932 -10.334 22.323 -10.881 QT
22.714 -11.428 23.346 -11.717 QT
23.979 -12.006 24.651 -12.006 QT
25.385 -12.006 25.956 -11.655 QT
26.526 -11.303 26.526 -10.631 QT
26.526 -10.256 26.323 -9.975 QT
26.12 -9.694 25.745 -9.694 QT
25.542 -9.694 25.385 -9.834 QT
25.229 -9.975 25.229 -10.178 QT
25.229 -10.366 25.339 -10.545 QT
25.448 -10.725 25.62 -10.827 QT
25.792 -10.928 25.979 -10.928 QT
25.839 -11.272 25.456 -11.428 QT
25.073 -11.584 24.62 -11.584 QT
24.214 -11.584 23.807 -11.42 QT
23.401 -11.256 23.159 -10.944 QT
22.917 -10.631 22.917 -10.194 QT
22.917 -9.912 23.12 -9.694 QT
23.323 -9.475 23.62 -9.381 QT
24.542 -9.194 L
24.995 -9.1 25.362 -8.858 QT
25.729 -8.616 25.948 -8.256 QT
26.167 -7.897 26.167 -7.428 QT
26.167 -6.834 25.831 -6.256 QT
25.495 -5.678 25.01 -5.334 QT
24.167 -4.741 22.932 -4.741 QT
22.073 -4.741 21.362 -5.139 QT
20.651 -5.537 20.651 -6.303 QT
20.651 -6.741 20.909 -7.069 QT
21.167 -7.397 21.604 -7.397 QT
21.854 -7.397 22.034 -7.241 QT
22.214 -7.084 22.214 -6.819 QT
22.214 -6.459 21.94 -6.186 QT
21.667 -5.912 21.292 -5.912 QT
21.214 -5.912 L
cp
f
GR
GS
[0.75 0 0 0.75 0 0] CT
0 0.447 0.741 RC
1 LJ
2.667 LW
N
84 242.892 M
98.1 224.672 L
112.2 207.304 L
126.3 191.599 L
140.4 178.294 L
154.5 168.008 L
168.6 161.225 L
182.7 158.26 L
196.8 159.252 L
210.9 164.155 L
225 172.74 L
239.1 184.605 L
253.2 199.195 L
267.3 215.829 L
281.4 233.728 L
295.5 252.056 L
309.6 269.955 L
323.7 286.589 L
337.8 301.179 L
351.9 313.044 L
366 321.629 L
380.1 326.532 L
394.2 327.525 L
408.3 324.56 L
422.4 317.776 L
436.5 307.491 L
450.6 294.185 L
464.7 278.481 L
478.8 261.112 L
492.9 242.892 L
S
GR
GS
[0.75 0 0 0.75 0 0] CT
0.851 0.325 0.098 RC
1 LJ
2.667 LW
N
84 249.78 M
98.1 202.376 L
112.2 194.233 L
126.3 186.915 L
140.4 180.688 L
154.5 175.807 L
168.6 172.518 L
182.7 171.057 L
196.8 171.644 L
210.9 174.474 L
225 179.71 L
239.1 187.46 L
253.2 197.76 L
267.3 210.543 L
281.4 225.607 L
295.5 242.575 L
309.6 260.862 L
323.7 279.641 L
337.8 297.825 L
351.9 314.093 L
366 326.95 L
380.1 334.879 L
394.2 336.581 L
408.3 331.322 L
422.4 319.362 L
436.5 302.405 L
450.6 284.02 L
464.7 268.842 L
478.8 256.465 L
492.9 271.141 L
S
GR
GS
[0.75 0 0 0.75 0 0] CT
1 GC
N
496 92 M
496 42 L
333 42 L
333 92 L
cp
f
GR
GS
[0.75 0 0 0.75 284.95111 41.52373] CT
N
4.375 2.577 M
5.063 3.405 6.047 3.881 QT
7.031 4.358 8.109 4.358 QT
9.172 4.358 10.031 3.819 QT
10.891 3.28 10.891 2.295 QT
10.891 0.686 L
10.891 0.092 8.516 0.092 QT
8.516 -0.58 L
13.969 -0.58 L
13.969 0.092 L
13.359 0.092 13.008 0.194 QT
12.656 0.295 12.656 0.686 QT
12.656 4.436 L
12.656 4.499 12.602 4.553 QT
12.547 4.608 12.484 4.608 QT
12.313 4.608 11.898 4.194 QT
11.484 3.78 11.25 3.452 QT
10.781 4.249 9.789 4.639 QT
8.797 5.03 7.703 5.03 QT
5.859 5.03 4.344 4.077 QT
2.828 3.124 1.945 1.53 QT
1.063 -0.064 1.063 -1.892 QT
1.063 -3.236 1.578 -4.501 QT
2.094 -5.767 3.008 -6.736 QT
3.922 -7.705 5.133 -8.244 QT
6.344 -8.783 7.703 -8.783 QT
8.688 -8.783 9.57 -8.361 QT
10.453 -7.939 11.141 -7.173 QT
12.234 -8.736 L
12.344 -8.783 12.359 -8.783 QT
12.5 -8.783 L
12.563 -8.783 12.609 -8.736 QT
12.656 -8.689 12.656 -8.626 QT
12.656 -3.501 L
12.656 -3.33 12.5 -3.33 QT
12.156 -3.33 L
11.984 -3.33 11.984 -3.501 QT
11.984 -4.048 11.766 -4.728 QT
11.547 -5.408 11.211 -6.009 QT
10.875 -6.611 10.422 -7.08 QT
9.359 -8.126 7.984 -8.126 QT
6.922 -8.126 5.953 -7.65 QT
4.984 -7.173 4.328 -6.345 QT
3.641 -5.455 3.367 -4.314 QT
3.094 -3.173 3.094 -1.892 QT
3.094 1.03 4.375 2.577 QT
cp
f
GR
GS
[0.75 0 0 0.75 284.95111 41.52373] CT
N
15.645 4.608 M
15.645 3.936 L
16.301 3.936 16.715 3.834 QT
17.129 3.733 17.129 3.342 QT
17.129 -1.845 L
17.129 -2.58 16.848 -2.751 QT
16.567 -2.923 15.739 -2.923 QT
15.739 -3.58 L
18.473 -3.783 L
18.473 3.342 L
18.473 3.733 18.832 3.834 QT
19.192 3.936 19.801 3.936 QT
19.801 4.608 L
15.645 4.608 L
cp
16.457 -7.048 M
16.457 -7.47 16.77 -7.783 QT
17.082 -8.095 17.504 -8.095 QT
17.77 -8.095 18.02 -7.962 QT
18.27 -7.83 18.41 -7.58 QT
18.551 -7.33 18.551 -7.048 QT
18.551 -6.642 18.231 -6.33 QT
17.91 -6.017 17.504 -6.017 QT
17.082 -6.017 16.77 -6.33 QT
16.457 -6.642 16.457 -7.048 QT
cp
f
GR
GS
[0.75 0 0 0.75 284.95111 41.52373] CT
N
25.041 4.608 M
22.259 -2.376 L
22.088 -2.72 21.72 -2.822 QT
21.353 -2.923 20.759 -2.923 QT
20.759 -3.58 L
24.744 -3.58 L
24.744 -2.923 L
23.681 -2.923 23.681 -2.455 QT
23.681 -2.392 23.697 -2.345 QT
25.838 3.014 L
27.759 -1.83 L
27.806 -1.986 27.806 -2.142 QT
27.806 -2.501 27.533 -2.712 QT
27.259 -2.923 26.9 -2.923 QT
26.9 -3.58 L
30.056 -3.58 L
30.056 -2.923 L
29.463 -2.923 29.025 -2.65 QT
28.588 -2.376 28.338 -1.845 QT
25.775 4.608 L
25.713 4.827 25.478 4.827 QT
25.338 4.827 L
25.103 4.827 25.041 4.608 QT
cp
f
GR
GS
[0.75 0 0 0.75 284.95111 41.52373] CT
N
34.734 4.827 M
33.578 4.827 32.609 4.217 QT
31.641 3.608 31.086 2.592 QT
30.531 1.577 30.531 0.436 QT
30.531 -0.673 31.039 -1.673 QT
31.547 -2.673 32.445 -3.291 QT
33.344 -3.908 34.469 -3.908 QT
35.328 -3.908 35.977 -3.619 QT
36.625 -3.33 37.039 -2.806 QT
37.453 -2.283 37.672 -1.58 QT
37.891 -0.876 37.891 -0.033 QT
37.891 0.217 37.688 0.217 QT
32.188 0.217 L
32.188 0.42 L
32.188 1.999 32.82 3.131 QT
33.453 4.264 34.906 4.264 QT
35.484 4.264 35.977 4.006 QT
36.469 3.749 36.836 3.28 QT
37.203 2.811 37.344 2.295 QT
37.359 2.217 37.406 2.17 QT
37.453 2.124 37.531 2.124 QT
37.688 2.124 L
37.891 2.124 37.891 2.358 QT
37.609 3.436 36.719 4.131 QT
35.828 4.827 34.734 4.827 QT
cp
32.203 -0.251 M
36.547 -0.251 L
36.547 -0.97 36.344 -1.705 QT
36.141 -2.439 35.68 -2.923 QT
35.219 -3.408 34.469 -3.408 QT
33.391 -3.408 32.797 -2.4 QT
32.203 -1.392 32.203 -0.251 QT
cp
f
GR
GS
[0.75 0 0 0.75 284.95111 41.52373] CT
N
39.096 4.608 M
39.096 3.936 L
39.752 3.936 40.166 3.834 QT
40.58 3.733 40.58 3.342 QT
40.58 -1.845 L
40.58 -2.361 40.432 -2.587 QT
40.283 -2.814 39.994 -2.869 QT
39.705 -2.923 39.096 -2.923 QT
39.096 -3.58 L
41.862 -3.783 L
41.862 -1.939 L
42.237 -2.751 42.987 -3.267 QT
43.737 -3.783 44.612 -3.783 QT
45.924 -3.783 46.588 -3.158 QT
47.252 -2.533 47.252 -1.22 QT
47.252 3.342 L
47.252 3.733 47.674 3.834 QT
48.096 3.936 48.737 3.936 QT
48.737 4.608 L
44.393 4.608 L
44.393 3.936 L
45.033 3.936 45.455 3.834 QT
45.877 3.733 45.877 3.342 QT
45.877 -1.173 L
45.877 -2.095 45.604 -2.697 QT
45.33 -3.298 44.502 -3.298 QT
43.393 -3.298 42.682 -2.416 QT
41.971 -1.533 41.971 -0.408 QT
41.971 3.342 L
41.971 3.733 42.393 3.834 QT
42.815 3.936 43.455 3.936 QT
43.455 4.608 L
39.096 4.608 L
cp
f
GR
GS
[0.75 0 0 0.75 284.95111 41.52373] CT
N
59.428 4.827 M
58.522 4.827 57.819 4.397 QT
57.116 3.967 56.741 3.241 QT
56.366 2.514 56.366 1.608 QT
56.366 0.311 57.084 -0.947 QT
57.803 -2.205 58.991 -2.994 QT
60.178 -3.783 61.491 -3.783 QT
62.459 -3.783 63.194 -3.283 QT
63.928 -2.783 64.303 -1.939 QT
64.678 -1.095 64.678 -0.142 QT
64.694 1.124 L
65.35 0.233 65.803 -0.736 QT
66.256 -1.705 66.491 -2.751 QT
66.522 -2.861 66.647 -2.861 QT
66.866 -2.861 L
67.038 -2.861 67.038 -2.689 QT
67.038 -2.673 67.022 -2.626 QT
66.803 -1.751 66.467 -0.955 QT
66.131 -0.158 65.678 0.6 QT
65.225 1.358 64.694 1.967 QT
64.694 4.327 65.256 4.327 QT
65.6 4.327 65.827 4.116 QT
66.053 3.905 66.225 3.6 QT
66.397 3.295 66.444 3.28 QT
66.678 3.28 L
66.819 3.28 66.819 3.467 QT
66.819 3.936 66.28 4.381 QT
65.741 4.827 65.209 4.827 QT
64.522 4.827 64.069 4.381 QT
63.616 3.936 63.444 3.217 QT
62.553 3.983 61.514 4.405 QT
60.475 4.827 59.428 4.827 QT
cp
59.459 4.327 M
61.491 4.327 63.35 2.655 QT
63.35 2.545 63.327 2.381 QT
63.303 2.217 63.303 2.202 QT
63.303 0.139 L
63.303 -3.298 61.459 -3.298 QT
60.334 -3.298 59.506 -2.345 QT
58.678 -1.392 58.256 -0.072 QT
57.834 1.249 57.834 2.342 QT
57.834 3.17 58.256 3.749 QT
58.678 4.327 59.459 4.327 QT
cp
f
GR
GS
[0.75 0 0 0.75 284.95111 41.52373] CT
N
68.492 7.488 M
68.367 7.488 68.367 7.316 QT
68.367 7.285 68.39 7.207 QT
68.414 7.129 68.445 7.082 QT
68.476 7.035 68.523 7.035 QT
69.773 7.035 69.976 6.238 QT
71.742 -0.871 L
71.382 -0.934 70.601 -0.934 QT
70.476 -0.934 70.476 -1.106 QT
70.476 -1.137 70.5 -1.215 QT
70.523 -1.293 70.554 -1.34 QT
70.585 -1.387 70.632 -1.387 QT
72.882 -1.387 L
72.976 -1.387 73.007 -1.309 QT
75.898 5.566 L
77.335 -0.2 L
77.367 -0.34 77.367 -0.387 QT
77.367 -0.934 76.351 -0.934 QT
76.226 -0.934 76.226 -1.106 QT
76.273 -1.278 76.296 -1.332 QT
76.32 -1.387 76.445 -1.387 QT
79.226 -1.387 L
79.367 -1.387 79.367 -1.215 QT
79.351 -1.184 79.335 -1.106 QT
79.32 -1.028 79.281 -0.981 QT
79.242 -0.934 79.195 -0.934 QT
77.945 -0.934 77.742 -0.137 QT
75.882 7.379 L
75.835 7.488 75.742 7.488 QT
75.585 7.488 L
75.507 7.488 75.476 7.394 QT
72.164 -0.465 L
72.132 -0.543 L
72.117 -0.575 72.117 -0.59 QT
70.382 6.3 L
70.382 6.332 70.375 6.379 QT
70.367 6.425 70.351 6.488 QT
70.351 6.816 70.64 6.925 QT
70.929 7.035 71.367 7.035 QT
71.492 7.035 71.492 7.207 QT
71.445 7.379 71.414 7.433 QT
71.382 7.488 71.273 7.488 QT
68.492 7.488 L
cp
f
GR
GS
[0.75 0 0 0.75 0 0] CT
0 0.447 0.741 RC
1 LJ
2.667 LW
N
336.994 55.365 M
376.939 55.365 L
S
GR
GS
[0.75 0 0 0.75 284.95111 58.97627] CT
N
0.625 4.608 M
0.625 3.936 L
2.594 3.936 2.594 3.342 QT
2.594 -7.095 L
2.594 -7.705 0.625 -7.705 QT
0.625 -8.376 L
7.391 -8.376 L
8.438 -8.376 9.477 -7.947 QT
10.516 -7.517 11.188 -6.705 QT
11.859 -5.892 11.859 -4.798 QT
11.859 -3.736 11.18 -2.939 QT
10.5 -2.142 9.469 -1.728 QT
8.438 -1.314 7.391 -1.314 QT
4.344 -1.314 L
4.344 3.342 L
4.344 3.936 6.313 3.936 QT
6.313 4.608 L
0.625 4.608 L
cp
4.297 -1.892 M
6.875 -1.892 L
7.922 -1.892 8.57 -2.189 QT
9.219 -2.486 9.523 -3.126 QT
9.828 -3.767 9.828 -4.798 QT
9.828 -6.345 9.148 -7.025 QT
8.469 -7.705 6.875 -7.705 QT
5.266 -7.705 L
4.922 -7.705 4.727 -7.673 QT
4.531 -7.642 4.414 -7.509 QT
4.297 -7.376 4.297 -7.095 QT
4.297 -1.892 L
cp
f
GR
GS
[0.75 0 0 0.75 284.95111 58.97627] CT
N
13.551 4.608 M
13.551 3.936 L
14.207 3.936 14.621 3.834 QT
15.035 3.733 15.035 3.342 QT
15.035 -1.845 L
15.035 -2.361 14.887 -2.587 QT
14.739 -2.814 14.45 -2.869 QT
14.16 -2.923 13.551 -2.923 QT
13.551 -3.58 L
16.27 -3.783 L
16.27 -1.939 L
16.582 -2.751 17.145 -3.267 QT
17.707 -3.783 18.52 -3.783 QT
19.082 -3.783 19.528 -3.455 QT
19.973 -3.126 19.973 -2.58 QT
19.973 -2.236 19.731 -1.978 QT
19.489 -1.72 19.129 -1.72 QT
18.77 -1.72 18.52 -1.97 QT
18.27 -2.22 18.27 -2.58 QT
18.27 -3.08 18.629 -3.298 QT
18.52 -3.298 L
17.754 -3.298 17.27 -2.744 QT
16.785 -2.189 16.575 -1.361 QT
16.364 -0.533 16.364 0.217 QT
16.364 3.342 L
16.364 3.936 18.223 3.936 QT
18.223 4.608 L
13.551 4.608 L
cp
f
GR
GS
[0.75 0 0 0.75 284.95111 58.97627] CT
N
25.321 4.827 M
24.165 4.827 23.196 4.217 QT
22.227 3.608 21.673 2.592 QT
21.118 1.577 21.118 0.436 QT
21.118 -0.673 21.626 -1.673 QT
22.134 -2.673 23.032 -3.291 QT
23.93 -3.908 25.055 -3.908 QT
25.915 -3.908 26.563 -3.619 QT
27.212 -3.33 27.626 -2.806 QT
28.04 -2.283 28.259 -1.58 QT
28.477 -0.876 28.477 -0.033 QT
28.477 0.217 28.274 0.217 QT
22.774 0.217 L
22.774 0.42 L
22.774 1.999 23.407 3.131 QT
24.04 4.264 25.493 4.264 QT
26.071 4.264 26.563 4.006 QT
27.055 3.749 27.423 3.28 QT
27.79 2.811 27.93 2.295 QT
27.946 2.217 27.993 2.17 QT
28.04 2.124 28.118 2.124 QT
28.274 2.124 L
28.477 2.124 28.477 2.358 QT
28.196 3.436 27.305 4.131 QT
26.415 4.827 25.321 4.827 QT
cp
22.79 -0.251 M
27.134 -0.251 L
27.134 -0.97 26.93 -1.705 QT
26.727 -2.439 26.266 -2.923 QT
25.805 -3.408 25.055 -3.408 QT
23.977 -3.408 23.384 -2.4 QT
22.79 -1.392 22.79 -0.251 QT
cp
f
GR
GS
[0.75 0 0 0.75 284.95111 58.97627] CT
N
33.761 4.827 M
32.636 4.827 31.706 4.217 QT
30.776 3.608 30.261 2.616 QT
29.745 1.624 29.745 0.514 QT
29.745 -0.642 30.308 -1.634 QT
30.87 -2.626 31.839 -3.205 QT
32.808 -3.783 33.964 -3.783 QT
34.651 -3.783 35.276 -3.494 QT
35.901 -3.205 36.354 -2.689 QT
36.354 -6.642 L
36.354 -7.142 36.206 -7.369 QT
36.058 -7.595 35.768 -7.65 QT
35.479 -7.705 34.886 -7.705 QT
34.886 -8.376 L
37.698 -8.58 L
37.698 2.889 L
37.698 3.389 37.847 3.616 QT
37.995 3.842 38.276 3.889 QT
38.558 3.936 39.167 3.936 QT
39.167 4.608 L
36.308 4.827 L
36.308 3.624 L
35.808 4.186 35.128 4.506 QT
34.448 4.827 33.761 4.827 QT
cp
31.823 2.952 M
32.151 3.577 32.69 3.952 QT
33.229 4.327 33.87 4.327 QT
34.651 4.327 35.315 3.866 QT
35.979 3.405 36.308 2.686 QT
36.308 -1.861 L
36.073 -2.283 35.737 -2.611 QT
35.401 -2.939 34.979 -3.119 QT
34.558 -3.298 34.089 -3.298 QT
33.089 -3.298 32.487 -2.736 QT
31.886 -2.173 31.643 -1.298 QT
31.401 -0.423 31.401 0.53 QT
31.401 1.28 31.479 1.85 QT
31.558 2.42 31.823 2.952 QT
cp
f
GR
GS
[0.75 0 0 0.75 284.95111 58.97627] CT
N
40.365 4.608 M
40.365 3.936 L
41.021 3.936 41.435 3.834 QT
41.849 3.733 41.849 3.342 QT
41.849 -1.845 L
41.849 -2.58 41.568 -2.751 QT
41.287 -2.923 40.459 -2.923 QT
40.459 -3.58 L
43.193 -3.783 L
43.193 3.342 L
43.193 3.733 43.552 3.834 QT
43.912 3.936 44.521 3.936 QT
44.521 4.608 L
40.365 4.608 L
cp
41.177 -7.048 M
41.177 -7.47 41.49 -7.783 QT
41.802 -8.095 42.224 -8.095 QT
42.49 -8.095 42.74 -7.962 QT
42.99 -7.83 43.13 -7.58 QT
43.271 -7.33 43.271 -7.048 QT
43.271 -6.642 42.951 -6.33 QT
42.63 -6.017 42.224 -6.017 QT
41.802 -6.017 41.49 -6.33 QT
41.177 -6.642 41.177 -7.048 QT
cp
f
GR
GS
[0.75 0 0 0.75 284.95111 58.97627] CT
N
49.854 4.827 M
48.698 4.827 47.761 4.225 QT
46.823 3.624 46.284 2.624 QT
45.745 1.624 45.745 0.514 QT
45.745 -0.611 46.284 -1.642 QT
46.823 -2.673 47.761 -3.291 QT
48.698 -3.908 49.854 -3.908 QT
50.964 -3.908 51.878 -3.47 QT
52.792 -3.033 52.792 -2.048 QT
52.792 -1.673 52.526 -1.4 QT
52.261 -1.126 51.886 -1.126 QT
51.511 -1.126 51.245 -1.4 QT
50.979 -1.673 50.979 -2.048 QT
50.979 -2.376 51.19 -2.626 QT
51.401 -2.876 51.714 -2.939 QT
51.058 -3.345 49.87 -3.345 QT
48.964 -3.345 48.409 -2.744 QT
47.854 -2.142 47.628 -1.251 QT
47.401 -0.361 47.401 0.514 QT
47.401 1.42 47.675 2.28 QT
47.948 3.139 48.558 3.702 QT
49.167 4.264 50.089 4.264 QT
50.979 4.264 51.612 3.709 QT
52.245 3.155 52.479 2.264 QT
52.479 2.155 52.62 2.155 QT
52.854 2.155 L
52.917 2.155 52.964 2.209 QT
53.011 2.264 53.011 2.327 QT
53.011 2.374 L
52.714 3.499 51.862 4.163 QT
51.011 4.827 49.854 4.827 QT
cp
f
GR
GS
[0.75 0 0 0.75 284.95111 58.97627] CT
N
55.591 2.327 M
55.591 -2.923 L
54.013 -2.923 L
54.013 -3.408 L
55.263 -3.408 55.849 -4.564 QT
56.435 -5.72 56.435 -7.08 QT
56.982 -7.08 L
56.982 -3.58 L
59.653 -3.58 L
59.653 -2.923 L
56.982 -2.923 L
56.982 2.295 L
56.982 3.077 57.239 3.67 QT
57.497 4.264 58.185 4.264 QT
58.841 4.264 59.13 3.639 QT
59.419 3.014 59.419 2.295 QT
59.419 1.17 L
59.966 1.17 L
59.966 2.327 L
59.966 2.92 59.747 3.499 QT
59.528 4.077 59.099 4.452 QT
58.669 4.827 58.06 4.827 QT
56.919 4.827 56.255 4.139 QT
55.591 3.452 55.591 2.327 QT
cp
f
GR
GS
[0.75 0 0 0.75 284.95111 58.97627] CT
N
65.854 4.827 M
64.698 4.827 63.729 4.217 QT
62.761 3.608 62.206 2.592 QT
61.651 1.577 61.651 0.436 QT
61.651 -0.673 62.159 -1.673 QT
62.667 -2.673 63.565 -3.291 QT
64.464 -3.908 65.589 -3.908 QT
66.448 -3.908 67.097 -3.619 QT
67.745 -3.33 68.159 -2.806 QT
68.573 -2.283 68.792 -1.58 QT
69.011 -0.876 69.011 -0.033 QT
69.011 0.217 68.808 0.217 QT
63.308 0.217 L
63.308 0.42 L
63.308 1.999 63.94 3.131 QT
64.573 4.264 66.026 4.264 QT
66.604 4.264 67.097 4.006 QT
67.589 3.749 67.956 3.28 QT
68.323 2.811 68.464 2.295 QT
68.479 2.217 68.526 2.17 QT
68.573 2.124 68.651 2.124 QT
68.808 2.124 L
69.011 2.124 69.011 2.358 QT
68.729 3.436 67.839 4.131 QT
66.948 4.827 65.854 4.827 QT
cp
63.323 -0.251 M
67.667 -0.251 L
67.667 -0.97 67.464 -1.705 QT
67.261 -2.439 66.8 -2.923 QT
66.339 -3.408 65.589 -3.408 QT
64.511 -3.408 63.917 -2.4 QT
63.323 -1.392 63.323 -0.251 QT
cp
f
GR
GS
[0.75 0 0 0.75 284.95111 58.97627] CT
N
74.294 4.827 M
73.169 4.827 72.239 4.217 QT
71.31 3.608 70.794 2.616 QT
70.278 1.624 70.278 0.514 QT
70.278 -0.642 70.841 -1.634 QT
71.403 -2.626 72.372 -3.205 QT
73.341 -3.783 74.497 -3.783 QT
75.185 -3.783 75.81 -3.494 QT
76.435 -3.205 76.888 -2.689 QT
76.888 -6.642 L
76.888 -7.142 76.739 -7.369 QT
76.591 -7.595 76.302 -7.65 QT
76.013 -7.705 75.419 -7.705 QT
75.419 -8.376 L
78.232 -8.58 L
78.232 2.889 L
78.232 3.389 78.38 3.616 QT
78.528 3.842 78.81 3.889 QT
79.091 3.936 79.7 3.936 QT
79.7 4.608 L
76.841 4.827 L
76.841 3.624 L
76.341 4.186 75.661 4.506 QT
74.982 4.827 74.294 4.827 QT
cp
72.357 2.952 M
72.685 3.577 73.224 3.952 QT
73.763 4.327 74.403 4.327 QT
75.185 4.327 75.849 3.866 QT
76.513 3.405 76.841 2.686 QT
76.841 -1.861 L
76.607 -2.283 76.271 -2.611 QT
75.935 -2.939 75.513 -3.119 QT
75.091 -3.298 74.622 -3.298 QT
73.622 -3.298 73.021 -2.736 QT
72.419 -2.173 72.177 -1.298 QT
71.935 -0.423 71.935 0.53 QT
71.935 1.28 72.013 1.85 QT
72.091 2.42 72.357 2.952 QT
cp
f
GR
GS
[0.75 0 0 0.75 284.95111 58.97627] CT
N
90.548 4.827 M
89.642 4.827 88.939 4.397 QT
88.236 3.967 87.861 3.241 QT
87.486 2.514 87.486 1.608 QT
87.486 0.311 88.204 -0.947 QT
88.923 -2.205 90.111 -2.994 QT
91.298 -3.783 92.611 -3.783 QT
93.579 -3.783 94.314 -3.283 QT
95.048 -2.783 95.423 -1.939 QT
95.798 -1.095 95.798 -0.142 QT
95.814 1.124 L
96.47 0.233 96.923 -0.736 QT
97.376 -1.705 97.611 -2.751 QT
97.642 -2.861 97.767 -2.861 QT
97.986 -2.861 L
98.158 -2.861 98.158 -2.689 QT
98.158 -2.673 98.142 -2.626 QT
97.923 -1.751 97.587 -0.955 QT
97.251 -0.158 96.798 0.6 QT
96.345 1.358 95.814 1.967 QT
95.814 4.327 96.376 4.327 QT
96.72 4.327 96.947 4.116 QT
97.173 3.905 97.345 3.6 QT
97.517 3.295 97.564 3.28 QT
97.798 3.28 L
97.939 3.28 97.939 3.467 QT
97.939 3.936 97.4 4.381 QT
96.861 4.827 96.329 4.827 QT
95.642 4.827 95.189 4.381 QT
94.736 3.936 94.564 3.217 QT
93.673 3.983 92.634 4.405 QT
91.595 4.827 90.548 4.827 QT
cp
90.579 4.327 M
92.611 4.327 94.47 2.655 QT
94.47 2.545 94.447 2.381 QT
94.423 2.217 94.423 2.202 QT
94.423 0.139 L
94.423 -3.298 92.579 -3.298 QT
91.454 -3.298 90.626 -2.345 QT
89.798 -1.392 89.376 -0.072 QT
88.954 1.249 88.954 2.342 QT
88.954 3.17 89.376 3.749 QT
89.798 4.327 90.579 4.327 QT
cp
f
GR
GS
[0.75 0 0 0.75 284.95111 58.97627] CT
N
99.612 7.488 M
99.487 7.488 99.487 7.316 QT
99.487 7.285 99.51 7.207 QT
99.534 7.129 99.565 7.082 QT
99.596 7.035 99.643 7.035 QT
100.893 7.035 101.096 6.238 QT
102.862 -0.871 L
102.502 -0.934 101.721 -0.934 QT
101.596 -0.934 101.596 -1.106 QT
101.596 -1.137 101.62 -1.215 QT
101.643 -1.293 101.674 -1.34 QT
101.706 -1.387 101.752 -1.387 QT
104.002 -1.387 L
104.096 -1.387 104.127 -1.309 QT
107.018 5.566 L
108.456 -0.2 L
108.487 -0.34 108.487 -0.387 QT
108.487 -0.934 107.471 -0.934 QT
107.346 -0.934 107.346 -1.106 QT
107.393 -1.278 107.416 -1.332 QT
107.44 -1.387 107.565 -1.387 QT
110.346 -1.387 L
110.487 -1.387 110.487 -1.215 QT
110.471 -1.184 110.456 -1.106 QT
110.44 -1.028 110.401 -0.981 QT
110.362 -0.934 110.315 -0.934 QT
109.065 -0.934 108.862 -0.137 QT
107.002 7.379 L
106.956 7.488 106.862 7.488 QT
106.706 7.488 L
106.627 7.488 106.596 7.394 QT
103.284 -0.465 L
103.252 -0.543 L
103.237 -0.575 103.237 -0.59 QT
101.502 6.3 L
101.502 6.332 101.495 6.379 QT
101.487 6.425 101.471 6.488 QT
101.471 6.816 101.76 6.925 QT
102.049 7.035 102.487 7.035 QT
102.612 7.035 102.612 7.207 QT
102.565 7.379 102.534 7.433 QT
102.502 7.488 102.393 7.488 QT
99.612 7.488 L
cp
f
GR
GS
[0.75 0 0 0.75 0 0] CT
0.851 0.325 0.098 RC
1 LJ
2.667 LW
N
336.994 78.635 M
376.939 78.635 L
S
GR
GS
[0.75 0 0 0.75 0 0] CT
0.149 GC
10.0 ML
0.667 LW
N
333 92 M
333 42 L
496 42 L
496 92 L
cp
S
GR
%%Trailer
%%Pages: 1
%%EOF
