%!PS-Adobe-3.0 EPSF-3.0
%%Creator: (MATLAB, The Mathworks, Inc. Version 9.6.0.1072779 \(R2019a\). Operating System: Windows 10)
%%Title: (D:/YUTAO ZHENG/1_Course in Cambridge/Lab work/07_reconstruction/code/1DNS/grad_alpha.eps)
%%CreationDate: 2020-10-21T16:08:01
%%Pages: (atend)
%%BoundingBox: 0 0 420 315
%%LanguageLevel: 3
%%EndComments
%%BeginProlog
%%BeginResource: procset (Apache XML Graphics Std ProcSet) 1.2 0
%%Version: 1.2 0
%%Copyright: (Copyright 2001-2003,2010 The Apache Software Foundation. License terms: http://www.apache.org/licenses/LICENSE-2.0)
/bd{bind def}bind def
/ld{load def}bd
/GR/grestore ld
/GS/gsave ld
/RM/rmoveto ld
/C/curveto ld
/t/show ld
/L/lineto ld
/ML/setmiterlimit ld
/CT/concat ld
/f/fill ld
/N/newpath ld
/S/stroke ld
/CC/setcmykcolor ld
/A/ashow ld
/cp/closepath ld
/RC/setrgbcolor ld
/LJ/setlinejoin ld
/GC/setgray ld
/LW/setlinewidth ld
/M/moveto ld
/re {4 2 roll M
1 index 0 rlineto
0 exch rlineto
neg 0 rlineto
cp } bd
/_ctm matrix def
/_tm matrix def
/BT { _ctm currentmatrix pop matrix _tm copy pop 0 0 moveto } bd
/ET { _ctm setmatrix } bd
/iTm { _ctm setmatrix _tm concat } bd
/Tm { _tm astore pop iTm 0 0 moveto } bd
/ux 0.0 def
/uy 0.0 def
/F {
  /Tp exch def
  /Tf exch def
  Tf findfont Tp scalefont setfont
  /cf Tf def  /cs Tp def
} bd
/ULS {currentpoint /uy exch def /ux exch def} bd
/ULE {
  /Tcx currentpoint pop def
  gsave
  newpath
  cf findfont cs scalefont dup
  /FontMatrix get 0 get /Ts exch def /FontInfo get dup
  /UnderlinePosition get Ts mul /To exch def
  /UnderlineThickness get Ts mul /Tt exch def
  ux uy To add moveto  Tcx uy To add lineto
  Tt setlinewidth stroke
  grestore
} bd
/OLE {
  /Tcx currentpoint pop def
  gsave
  newpath
  cf findfont cs scalefont dup
  /FontMatrix get 0 get /Ts exch def /FontInfo get dup
  /UnderlinePosition get Ts mul /To exch def
  /UnderlineThickness get Ts mul /Tt exch def
  ux uy To add cs add moveto Tcx uy To add cs add lineto
  Tt setlinewidth stroke
  grestore
} bd
/SOE {
  /Tcx currentpoint pop def
  gsave
  newpath
  cf findfont cs scalefont dup
  /FontMatrix get 0 get /Ts exch def /FontInfo get dup
  /UnderlinePosition get Ts mul /To exch def
  /UnderlineThickness get Ts mul /Tt exch def
  ux uy To add cs 10 mul 26 idiv add moveto Tcx uy To add cs 10 mul 26 idiv add lineto
  Tt setlinewidth stroke
  grestore
} bd
/QT {
/Y22 exch store
/X22 exch store
/Y21 exch store
/X21 exch store
currentpoint
/Y21 load 2 mul add 3 div exch
/X21 load 2 mul add 3 div exch
/X21 load 2 mul /X22 load add 3 div
/Y21 load 2 mul /Y22 load add 3 div
/X22 load /Y22 load curveto
} bd
/SSPD {
dup length /d exch dict def
{
/v exch def
/k exch def
currentpagedevice k known {
/cpdv currentpagedevice k get def
v cpdv ne {
/upd false def
/nullv v type /nulltype eq def
/nullcpdv cpdv type /nulltype eq def
nullv nullcpdv or
{
/upd true def
} {
/sametype v type cpdv type eq def
sametype {
v type /arraytype eq {
/vlen v length def
/cpdvlen cpdv length def
vlen cpdvlen eq {
0 1 vlen 1 sub {
/i exch def
/obj v i get def
/cpdobj cpdv i get def
obj cpdobj ne {
/upd true def
exit
} if
} for
} {
/upd true def
} ifelse
} {
v type /dicttype eq {
v {
/dv exch def
/dk exch def
/cpddv cpdv dk get def
dv cpddv ne {
/upd true def
exit
} if
} forall
} {
/upd true def
} ifelse
} ifelse
} if
} ifelse
upd true eq {
d k v put
} if
} if
} if
} forall
d length 0 gt {
d setpagedevice
} if
} bd
/RE { % /NewFontName [NewEncodingArray] /FontName RE -
  findfont dup length dict begin
  {
    1 index /FID ne
    {def} {pop pop} ifelse
  } forall
  /Encoding exch def
  /FontName 1 index def
  currentdict definefont pop
  end
} bind def
%%EndResource
%%BeginResource: procset (Apache XML Graphics EPS ProcSet) 1.0 0
%%Version: 1.0 0
%%Copyright: (Copyright 2002-2003 The Apache Software Foundation. License terms: http://www.apache.org/licenses/LICENSE-2.0)
/BeginEPSF { %def
/b4_Inc_state save def         % Save state for cleanup
/dict_count countdictstack def % Count objects on dict stack
/op_count count 1 sub def      % Count objects on operand stack
userdict begin                 % Push userdict on dict stack
/showpage { } def              % Redefine showpage, { } = null proc
0 setgray 0 setlinecap         % Prepare graphics state
1 setlinewidth 0 setlinejoin
10 setmiterlimit [ ] 0 setdash newpath
/languagelevel where           % If level not equal to 1 then
{pop languagelevel             % set strokeadjust and
1 ne                           % overprint to their defaults.
{false setstrokeadjust false setoverprint
} if
} if
} bd
/EndEPSF { %def
count op_count sub {pop} repeat            % Clean up stacks
countdictstack dict_count sub {end} repeat
b4_Inc_state restore
} bd
%%EndResource
%FOPBeginFontDict
%%IncludeResource: font Courier-Oblique
%%IncludeResource: font Courier-BoldOblique
%%IncludeResource: font Courier-Bold
%%IncludeResource: font ZapfDingbats
%%IncludeResource: font Symbol
%%IncludeResource: font Helvetica
%%IncludeResource: font Helvetica-Oblique
%%IncludeResource: font Helvetica-Bold
%%IncludeResource: font Helvetica-BoldOblique
%%IncludeResource: font Times-Roman
%%IncludeResource: font Times-Italic
%%IncludeResource: font Times-Bold
%%IncludeResource: font Times-BoldItalic
%%IncludeResource: font Courier
%FOPEndFontDict
%%BeginResource: encoding WinAnsiEncoding
/WinAnsiEncoding [
/.notdef /.notdef /.notdef /.notdef /.notdef
/.notdef /.notdef /.notdef /.notdef /.notdef
/.notdef /.notdef /.notdef /.notdef /.notdef
/.notdef /.notdef /.notdef /.notdef /.notdef
/.notdef /.notdef /.notdef /.notdef /.notdef
/.notdef /.notdef /.notdef /.notdef /.notdef
/.notdef /.notdef /space /exclam /quotedbl
/numbersign /dollar /percent /ampersand /quotesingle
/parenleft /parenright /asterisk /plus /comma
/hyphen /period /slash /zero /one
/two /three /four /five /six
/seven /eight /nine /colon /semicolon
/less /equal /greater /question /at
/A /B /C /D /E
/F /G /H /I /J
/K /L /M /N /O
/P /Q /R /S /T
/U /V /W /X /Y
/Z /bracketleft /backslash /bracketright /asciicircum
/underscore /quoteleft /a /b /c
/d /e /f /g /h
/i /j /k /l /m
/n /o /p /q /r
/s /t /u /v /w
/x /y /z /braceleft /bar
/braceright /asciitilde /bullet /Euro /bullet
/quotesinglbase /florin /quotedblbase /ellipsis /dagger
/daggerdbl /circumflex /perthousand /Scaron /guilsinglleft
/OE /bullet /Zcaron /bullet /bullet
/quoteleft /quoteright /quotedblleft /quotedblright /bullet
/endash /emdash /asciitilde /trademark /scaron
/guilsinglright /oe /bullet /zcaron /Ydieresis
/space /exclamdown /cent /sterling /currency
/yen /brokenbar /section /dieresis /copyright
/ordfeminine /guillemotleft /logicalnot /sfthyphen /registered
/macron /degree /plusminus /twosuperior /threesuperior
/acute /mu /paragraph /middot /cedilla
/onesuperior /ordmasculine /guillemotright /onequarter /onehalf
/threequarters /questiondown /Agrave /Aacute /Acircumflex
/Atilde /Adieresis /Aring /AE /Ccedilla
/Egrave /Eacute /Ecircumflex /Edieresis /Igrave
/Iacute /Icircumflex /Idieresis /Eth /Ntilde
/Ograve /Oacute /Ocircumflex /Otilde /Odieresis
/multiply /Oslash /Ugrave /Uacute /Ucircumflex
/Udieresis /Yacute /Thorn /germandbls /agrave
/aacute /acircumflex /atilde /adieresis /aring
/ae /ccedilla /egrave /eacute /ecircumflex
/edieresis /igrave /iacute /icircumflex /idieresis
/eth /ntilde /ograve /oacute /ocircumflex
/otilde /odieresis /divide /oslash /ugrave
/uacute /ucircumflex /udieresis /yacute /thorn
/ydieresis
] def
%%EndResource
%FOPBeginFontReencode
/Courier-Oblique findfont
dup length dict begin
  {1 index /FID ne {def} {pop pop} ifelse} forall
  /Encoding WinAnsiEncoding def
  currentdict
end
/Courier-Oblique exch definefont pop
/Courier-BoldOblique findfont
dup length dict begin
  {1 index /FID ne {def} {pop pop} ifelse} forall
  /Encoding WinAnsiEncoding def
  currentdict
end
/Courier-BoldOblique exch definefont pop
/Courier-Bold findfont
dup length dict begin
  {1 index /FID ne {def} {pop pop} ifelse} forall
  /Encoding WinAnsiEncoding def
  currentdict
end
/Courier-Bold exch definefont pop
/Helvetica findfont
dup length dict begin
  {1 index /FID ne {def} {pop pop} ifelse} forall
  /Encoding WinAnsiEncoding def
  currentdict
end
/Helvetica exch definefont pop
/Helvetica-Oblique findfont
dup length dict begin
  {1 index /FID ne {def} {pop pop} ifelse} forall
  /Encoding WinAnsiEncoding def
  currentdict
end
/Helvetica-Oblique exch definefont pop
/Helvetica-Bold findfont
dup length dict begin
  {1 index /FID ne {def} {pop pop} ifelse} forall
  /Encoding WinAnsiEncoding def
  currentdict
end
/Helvetica-Bold exch definefont pop
/Helvetica-BoldOblique findfont
dup length dict begin
  {1 index /FID ne {def} {pop pop} ifelse} forall
  /Encoding WinAnsiEncoding def
  currentdict
end
/Helvetica-BoldOblique exch definefont pop
/Times-Roman findfont
dup length dict begin
  {1 index /FID ne {def} {pop pop} ifelse} forall
  /Encoding WinAnsiEncoding def
  currentdict
end
/Times-Roman exch definefont pop
/Times-Italic findfont
dup length dict begin
  {1 index /FID ne {def} {pop pop} ifelse} forall
  /Encoding WinAnsiEncoding def
  currentdict
end
/Times-Italic exch definefont pop
/Times-Bold findfont
dup length dict begin
  {1 index /FID ne {def} {pop pop} ifelse} forall
  /Encoding WinAnsiEncoding def
  currentdict
end
/Times-Bold exch definefont pop
/Times-BoldItalic findfont
dup length dict begin
  {1 index /FID ne {def} {pop pop} ifelse} forall
  /Encoding WinAnsiEncoding def
  currentdict
end
/Times-BoldItalic exch definefont pop
/Courier findfont
dup length dict begin
  {1 index /FID ne {def} {pop pop} ifelse} forall
  /Encoding WinAnsiEncoding def
  currentdict
end
/Courier exch definefont pop
%FOPEndFontReencode
%%EndProlog
%%Page: 1 1
%%PageBoundingBox: 0 0 420 315
%%BeginPageSetup
[1 0 0 -1 0 315] CT
%%EndPageSetup
GS
[0.75 0 0 0.75 0 0] CT
1 GC
N
0 0 560 420 re
f
GR
GS
[0.75 0 0 0.75 0 0] CT
1 GC
N
0 0 560 420 re
f
GR
GS
[0.75 0 0 0.75 0 0] CT
1 GC
N
74 358 M
507 358 L
507 31 L
74 31 L
cp
f
GR
GS
[0.75 0 0 0.75 0 0] CT
0.149 GC
2 setlinecap
1 LJ
0.667 LW
N
74 358 M
507 358 L
S
GR
GS
[0.75 0 0 0.75 0 0] CT
0.149 GC
2 setlinecap
1 LJ
0.667 LW
N
74 31 M
507 31 L
S
GR
GS
[0.75 0 0 0.75 0 0] CT
0.149 GC
2 setlinecap
1 LJ
0.667 LW
N
74 358 M
74 353.67 L
S
GR
GS
[0.75 0 0 0.75 0 0] CT
0.149 GC
2 setlinecap
1 LJ
0.667 LW
N
146.167 358 M
146.167 353.67 L
S
GR
GS
[0.75 0 0 0.75 0 0] CT
0.149 GC
2 setlinecap
1 LJ
0.667 LW
N
218.333 358 M
218.333 353.67 L
S
GR
GS
[0.75 0 0 0.75 0 0] CT
0.149 GC
2 setlinecap
1 LJ
0.667 LW
N
290.5 358 M
290.5 353.67 L
S
GR
GS
[0.75 0 0 0.75 0 0] CT
0.149 GC
2 setlinecap
1 LJ
0.667 LW
N
362.667 358 M
362.667 353.67 L
S
GR
GS
[0.75 0 0 0.75 0 0] CT
0.149 GC
2 setlinecap
1 LJ
0.667 LW
N
434.833 358 M
434.833 353.67 L
S
GR
GS
[0.75 0 0 0.75 0 0] CT
0.149 GC
2 setlinecap
1 LJ
0.667 LW
N
507 358 M
507 353.67 L
S
GR
GS
[0.75 0 0 0.75 0 0] CT
0.149 GC
2 setlinecap
1 LJ
0.667 LW
N
74 31 M
74 35.33 L
S
GR
GS
[0.75 0 0 0.75 0 0] CT
0.149 GC
2 setlinecap
1 LJ
0.667 LW
N
146.167 31 M
146.167 35.33 L
S
GR
GS
[0.75 0 0 0.75 0 0] CT
0.149 GC
2 setlinecap
1 LJ
0.667 LW
N
218.333 31 M
218.333 35.33 L
S
GR
GS
[0.75 0 0 0.75 0 0] CT
0.149 GC
2 setlinecap
1 LJ
0.667 LW
N
290.5 31 M
290.5 35.33 L
S
GR
GS
[0.75 0 0 0.75 0 0] CT
0.149 GC
2 setlinecap
1 LJ
0.667 LW
N
362.667 31 M
362.667 35.33 L
S
GR
GS
[0.75 0 0 0.75 0 0] CT
0.149 GC
2 setlinecap
1 LJ
0.667 LW
N
434.833 31 M
434.833 35.33 L
S
GR
GS
[0.75 0 0 0.75 0 0] CT
0.149 GC
2 setlinecap
1 LJ
0.667 LW
N
507 31 M
507 35.33 L
S
GR
GS
[0.75 0 0 0.75 55.5 273.69999] CT
0.149 GC
/Times-Roman 21.333 F
GS
[1 0 0 1 0 0] CT
-5.5 20 moveto 
1 -1 scale
(0) t 
GR
GR
GS
[0.75 0 0 0.75 109.625 273.69999] CT
0.149 GC
/Times-Roman 21.333 F
GS
[1 0 0 1 0 0] CT
-5.5 20 moveto 
1 -1 scale
(5) t 
GR
GR
GS
[0.75 0 0 0.75 163.75 273.69999] CT
0.149 GC
/Times-Roman 21.333 F
GS
[1 0 0 1 0 0] CT
-11 20 moveto 
1 -1 scale
(10) t 
GR
GR
GS
[0.75 0 0 0.75 217.875 273.69999] CT
0.149 GC
/Times-Roman 21.333 F
GS
[1 0 0 1 0 0] CT
-11 20 moveto 
1 -1 scale
(15) t 
GR
GR
GS
[0.75 0 0 0.75 271.99999 273.69999] CT
0.149 GC
/Times-Roman 21.333 F
GS
[1 0 0 1 0 0] CT
-11 20 moveto 
1 -1 scale
(20) t 
GR
GR
GS
[0.75 0 0 0.75 326.12501 273.69999] CT
0.149 GC
/Times-Roman 21.333 F
GS
[1 0 0 1 0 0] CT
-11 20 moveto 
1 -1 scale
(25) t 
GR
GR
GS
[0.75 0 0 0.75 380.25 273.69999] CT
0.149 GC
/Times-Roman 21.333 F
GS
[1 0 0 1 0 0] CT
-11 20 moveto 
1 -1 scale
(30) t 
GR
GR
GS
[0.75 0 0 0.75 217.87516 293.88] CT
0.149 GC
N
-82.462 16.946 M
-82.462 10.603 L
-84.369 10.603 L
-84.369 10.009 L
-82.869 10.009 -82.158 8.603 QT
-81.447 7.196 -81.447 5.556 QT
-80.79 5.556 L
-80.79 9.79 L
-77.54 9.79 L
-77.54 10.603 L
-80.79 10.603 L
-80.79 16.899 L
-80.79 17.853 -80.47 18.571 QT
-80.15 19.29 -79.322 19.29 QT
-78.525 19.29 -78.181 18.532 QT
-77.837 17.774 -77.837 16.899 QT
-77.837 15.54 L
-77.165 15.54 L
-77.165 16.946 L
-77.165 17.665 -77.431 18.368 QT
-77.697 19.071 -78.212 19.524 QT
-78.728 19.978 -79.478 19.978 QT
-80.853 19.978 -81.658 19.149 QT
-82.462 18.321 -82.462 16.946 QT
cp
f
GR
GS
[0.75 0 0 0.75 217.87516 293.88] CT
0.149 GC
N
-74.977 19.712 M
-74.977 18.899 L
-74.18 18.899 -73.68 18.774 QT
-73.18 18.649 -73.18 18.181 QT
-73.18 11.899 L
-73.18 11.009 -73.524 10.806 QT
-73.868 10.603 -74.868 10.603 QT
-74.868 9.79 L
-71.555 9.556 L
-71.555 18.181 L
-71.555 18.649 -71.118 18.774 QT
-70.68 18.899 -69.946 18.899 QT
-69.946 19.712 L
-74.977 19.712 L
cp
-73.993 5.603 M
-73.993 5.087 -73.61 4.704 QT
-73.227 4.321 -72.743 4.321 QT
-72.414 4.321 -72.11 4.493 QT
-71.805 4.665 -71.633 4.97 QT
-71.461 5.274 -71.461 5.603 QT
-71.461 6.087 -71.844 6.47 QT
-72.227 6.853 -72.743 6.853 QT
-73.227 6.853 -73.61 6.47 QT
-73.993 6.087 -73.993 5.603 QT
cp
f
GR
GS
[0.75 0 0 0.75 217.87516 293.88] CT
0.149 GC
N
-68.474 19.712 M
-68.474 18.899 L
-67.693 18.899 -67.185 18.774 QT
-66.677 18.649 -66.677 18.181 QT
-66.677 11.899 L
-66.677 11.274 -66.865 11.001 QT
-67.052 10.728 -67.396 10.665 QT
-67.74 10.603 -68.474 10.603 QT
-68.474 9.79 L
-65.146 9.556 L
-65.146 11.79 L
-64.677 10.806 -63.771 10.181 QT
-62.865 9.556 -61.802 9.556 QT
-59.162 9.556 -58.693 11.712 QT
-58.24 10.743 -57.349 10.149 QT
-56.458 9.556 -55.412 9.556 QT
-54.365 9.556 -53.646 9.892 QT
-52.927 10.228 -52.568 10.915 QT
-52.208 11.603 -52.208 12.649 QT
-52.208 18.181 L
-52.208 18.649 -51.701 18.774 QT
-51.193 18.899 -50.412 18.899 QT
-50.412 19.712 L
-55.677 19.712 L
-55.677 18.899 L
-54.896 18.899 -54.388 18.774 QT
-53.88 18.649 -53.88 18.181 QT
-53.88 12.712 L
-53.88 11.556 -54.208 10.853 QT
-54.537 10.149 -55.552 10.149 QT
-56.88 10.149 -57.74 11.212 QT
-58.599 12.274 -58.599 13.634 QT
-58.599 18.181 L
-58.599 18.649 -58.099 18.774 QT
-57.599 18.899 -56.802 18.899 QT
-56.802 19.712 L
-62.068 19.712 L
-62.068 18.899 L
-61.287 18.899 -60.779 18.774 QT
-60.271 18.649 -60.271 18.181 QT
-60.271 12.712 L
-60.271 11.587 -60.599 10.868 QT
-60.927 10.149 -61.943 10.149 QT
-63.271 10.149 -64.13 11.212 QT
-64.99 12.274 -64.99 13.634 QT
-64.99 18.181 L
-64.99 18.649 -64.49 18.774 QT
-63.99 18.899 -63.208 18.899 QT
-63.208 19.712 L
-68.474 19.712 L
cp
f
GR
GS
[0.75 0 0 0.75 217.87516 293.88] CT
0.149 GC
N
-43.872 19.978 M
-45.278 19.978 -46.45 19.235 QT
-47.622 18.493 -48.293 17.267 QT
-48.965 16.04 -48.965 14.665 QT
-48.965 13.321 -48.356 12.11 QT
-47.747 10.899 -46.653 10.149 QT
-45.559 9.399 -44.2 9.399 QT
-43.153 9.399 -42.372 9.751 QT
-41.59 10.103 -41.083 10.735 QT
-40.575 11.368 -40.317 12.22 QT
-40.059 13.071 -40.059 14.103 QT
-40.059 14.399 -40.293 14.399 QT
-46.95 14.399 L
-46.95 14.649 L
-46.95 16.556 -46.184 17.923 QT
-45.418 19.29 -43.668 19.29 QT
-42.965 19.29 -42.364 18.978 QT
-41.762 18.665 -41.325 18.103 QT
-40.887 17.54 -40.715 16.899 QT
-40.7 16.821 -40.637 16.759 QT
-40.575 16.696 -40.497 16.696 QT
-40.293 16.696 L
-40.059 16.696 -40.059 16.993 QT
-40.387 18.29 -41.465 19.134 QT
-42.543 19.978 -43.872 19.978 QT
cp
-46.934 13.821 M
-41.684 13.821 L
-41.684 12.962 -41.926 12.071 QT
-42.168 11.181 -42.731 10.595 QT
-43.293 10.009 -44.2 10.009 QT
-45.512 10.009 -46.223 11.228 QT
-46.934 12.446 -46.934 13.821 QT
cp
f
GR
GS
[0.75 0 0 0.75 217.87516 293.88] CT
0.149 GC
N
-30.588 19.774 M
-30.588 16.024 L
-30.588 15.853 -30.385 15.853 QT
-30.104 15.853 L
-29.979 15.853 -29.932 16.024 QT
-29.292 19.368 -26.823 19.368 QT
-25.745 19.368 -25.003 18.868 QT
-24.26 18.368 -24.26 17.337 QT
-24.26 16.603 -24.838 16.079 QT
-25.417 15.556 -26.198 15.368 QT
-27.745 15.056 L
-28.51 14.899 -29.143 14.548 QT
-29.776 14.196 -30.182 13.618 QT
-30.588 13.04 -30.588 12.274 QT
-30.588 11.259 -30.057 10.618 QT
-29.526 9.978 -28.674 9.688 QT
-27.823 9.399 -26.823 9.399 QT
-25.651 9.399 -24.776 10.024 QT
-24.104 9.462 L
-24.104 9.399 -23.995 9.399 QT
-23.823 9.399 L
-23.76 9.399 -23.706 9.462 QT
-23.651 9.524 -23.651 9.587 QT
-23.651 12.603 L
-23.651 12.821 -23.823 12.821 QT
-24.104 12.821 L
-24.307 12.821 -24.307 12.603 QT
-24.307 11.399 -24.979 10.673 QT
-25.651 9.946 -26.854 9.946 QT
-27.885 9.946 -28.643 10.329 QT
-29.401 10.712 -29.401 11.634 QT
-29.401 12.274 -28.854 12.688 QT
-28.307 13.103 -27.573 13.274 QT
-26.026 13.571 L
-25.229 13.743 -24.549 14.173 QT
-23.87 14.603 -23.471 15.251 QT
-23.073 15.899 -23.073 16.728 QT
-23.073 17.556 -23.362 18.165 QT
-23.651 18.774 -24.159 19.181 QT
-24.667 19.587 -25.362 19.782 QT
-26.057 19.978 -26.823 19.978 QT
-28.26 19.978 -29.292 19.009 QT
-30.135 19.915 L
-30.135 19.978 -30.26 19.978 QT
-30.385 19.978 L
-30.588 19.978 -30.588 19.774 QT
cp
f
GR
GS
[0.75 0 0 0.75 217.87516 293.88] CT
0.149 GC
N
-19.754 16.946 M
-19.754 10.603 L
-21.66 10.603 L
-21.66 10.009 L
-20.16 10.009 -19.449 8.603 QT
-18.738 7.196 -18.738 5.556 QT
-18.082 5.556 L
-18.082 9.79 L
-14.832 9.79 L
-14.832 10.603 L
-18.082 10.603 L
-18.082 16.899 L
-18.082 17.853 -17.762 18.571 QT
-17.442 19.29 -16.613 19.29 QT
-15.817 19.29 -15.473 18.532 QT
-15.129 17.774 -15.129 16.899 QT
-15.129 15.54 L
-14.457 15.54 L
-14.457 16.946 L
-14.457 17.665 -14.723 18.368 QT
-14.988 19.071 -15.504 19.524 QT
-16.02 19.978 -16.77 19.978 QT
-18.145 19.978 -18.949 19.149 QT
-19.754 18.321 -19.754 16.946 QT
cp
f
GR
GS
[0.75 0 0 0.75 217.87516 293.88] CT
0.149 GC
N
-7.237 19.978 M
-8.644 19.978 -9.816 19.235 QT
-10.987 18.493 -11.659 17.267 QT
-12.331 16.04 -12.331 14.665 QT
-12.331 13.321 -11.722 12.11 QT
-11.112 10.899 -10.019 10.149 QT
-8.925 9.399 -7.566 9.399 QT
-6.519 9.399 -5.737 9.751 QT
-4.956 10.103 -4.448 10.735 QT
-3.941 11.368 -3.683 12.22 QT
-3.425 13.071 -3.425 14.103 QT
-3.425 14.399 -3.659 14.399 QT
-10.316 14.399 L
-10.316 14.649 L
-10.316 16.556 -9.55 17.923 QT
-8.784 19.29 -7.034 19.29 QT
-6.331 19.29 -5.73 18.978 QT
-5.128 18.665 -4.691 18.103 QT
-4.253 17.54 -4.081 16.899 QT
-4.066 16.821 -4.003 16.759 QT
-3.941 16.696 -3.862 16.696 QT
-3.659 16.696 L
-3.425 16.696 -3.425 16.993 QT
-3.753 18.29 -4.831 19.134 QT
-5.909 19.978 -7.237 19.978 QT
cp
-10.3 13.821 M
-5.05 13.821 L
-5.05 12.962 -5.292 12.071 QT
-5.534 11.181 -6.097 10.595 QT
-6.659 10.009 -7.566 10.009 QT
-8.878 10.009 -9.589 11.228 QT
-10.3 12.446 -10.3 13.821 QT
cp
f
GR
GS
[0.75 0 0 0.75 217.87516 293.88] CT
0.149 GC
N
-1.948 24.165 M
-1.948 23.368 L
-1.167 23.368 -0.659 23.235 QT
-0.152 23.103 -0.152 22.634 QT
-0.152 11.54 L
-0.152 10.915 -0.597 10.759 QT
-1.042 10.603 -1.948 10.603 QT
-1.948 9.79 L
1.458 9.556 L
1.458 10.978 L
2.083 10.274 2.919 9.915 QT
3.755 9.556 4.708 9.556 QT
6.067 9.556 7.153 10.29 QT
8.239 11.024 8.848 12.22 QT
9.458 13.415 9.458 14.743 QT
9.458 16.134 8.778 17.337 QT
8.098 18.54 6.927 19.259 QT
5.755 19.978 4.348 19.978 QT
2.677 19.978 1.52 18.618 QT
1.52 22.634 L
1.52 23.103 2.036 23.235 QT
2.552 23.368 3.317 23.368 QT
3.317 24.165 L
-1.948 24.165 L
cp
1.52 17.478 M
1.927 18.29 2.645 18.829 QT
3.364 19.368 4.223 19.368 QT
5.02 19.368 5.63 18.938 QT
6.239 18.509 6.653 17.79 QT
7.067 17.071 7.262 16.282 QT
7.458 15.493 7.458 14.743 QT
7.458 13.821 7.13 12.751 QT
6.802 11.681 6.122 10.946 QT
5.442 10.212 4.473 10.212 QT
3.552 10.212 2.77 10.688 QT
1.989 11.165 1.52 11.978 QT
1.52 17.478 L
cp
f
GR
GS
[0.75 0 0 0.75 217.87516 293.88] CT
0.149 GC
N
25.442 25.415 M
24.161 24.399 23.239 23.095 QT
22.317 21.79 21.723 20.306 QT
21.13 18.821 20.84 17.204 QT
20.551 15.587 20.551 13.962 QT
20.551 12.306 20.84 10.688 QT
21.13 9.071 21.731 7.579 QT
22.333 6.087 23.27 4.782 QT
24.208 3.478 25.442 2.509 QT
25.442 2.462 25.567 2.462 QT
25.77 2.462 L
25.848 2.462 25.903 2.524 QT
25.958 2.587 25.958 2.665 QT
25.958 2.759 25.911 2.806 QT
24.786 3.915 24.036 5.173 QT
23.286 6.431 22.833 7.853 QT
22.38 9.274 22.176 10.79 QT
21.973 12.306 21.973 13.962 QT
21.973 21.274 25.88 25.071 QT
25.958 25.134 25.958 25.259 QT
25.958 25.321 25.895 25.392 QT
25.833 25.462 25.77 25.462 QT
25.567 25.462 L
25.442 25.462 25.442 25.415 QT
cp
f
GR
GS
[0.75 0 0 0.75 217.87516 293.88] CT
0.149 GC
N
28.865 17.853 M
28.865 17.509 28.943 17.212 QT
30.599 10.603 L
28.177 10.603 L
27.943 10.603 27.943 10.306 QT
28.037 9.79 28.255 9.79 QT
30.802 9.79 L
31.724 6.04 L
31.818 5.743 32.084 5.532 QT
32.349 5.321 32.693 5.321 QT
32.974 5.321 33.177 5.493 QT
33.38 5.665 33.38 5.962 QT
33.38 6.024 33.373 6.063 QT
33.365 6.103 33.349 6.149 QT
32.427 9.79 L
34.802 9.79 L
35.037 9.79 35.037 10.103 QT
35.021 10.149 34.99 10.29 QT
34.959 10.431 34.904 10.517 QT
34.849 10.603 34.724 10.603 QT
32.224 10.603 L
30.584 17.259 L
30.412 17.899 30.412 18.368 QT
30.412 19.368 31.084 19.368 QT
32.099 19.368 32.873 18.415 QT
33.646 17.462 34.068 16.337 QT
34.162 16.196 34.255 16.196 QT
34.537 16.196 L
34.615 16.196 34.67 16.259 QT
34.724 16.321 34.724 16.399 QT
34.724 16.446 34.709 16.462 QT
34.209 17.853 33.24 18.915 QT
32.271 19.978 31.021 19.978 QT
30.115 19.978 29.49 19.376 QT
28.865 18.774 28.865 17.853 QT
cp
f
GR
GS
[0.75 0 0 0.75 217.87516 293.88] CT
0.149 GC
N
37.214 25.009 M
37.214 24.931 37.23 24.915 QT
45.23 2.743 L
45.276 2.603 45.386 2.532 QT
45.495 2.462 45.636 2.462 QT
45.839 2.462 45.972 2.587 QT
46.105 2.712 46.105 2.915 QT
46.105 3.009 L
38.105 25.181 L
37.98 25.462 37.667 25.462 QT
37.48 25.462 37.347 25.329 QT
37.214 25.196 37.214 25.009 QT
cp
f
GR
GS
[0.75 0 0 0.75 217.87516 293.88] CT
0.149 GC
N
48.9 19.712 M
48.713 19.712 48.713 19.524 QT
48.713 19.509 48.721 19.501 QT
48.729 19.493 48.729 19.446 QT
56.65 3.493 L
56.744 3.243 57.057 3.243 QT
57.369 3.243 L
57.697 3.243 57.791 3.493 QT
65.713 19.446 L
65.713 19.478 65.721 19.493 QT
65.729 19.509 65.729 19.524 QT
65.729 19.712 65.541 19.712 QT
48.9 19.712 L
cp
50.416 17.868 M
62.525 17.868 L
56.479 5.665 L
50.416 17.868 L
cp
f
GR
GS
[0.75 0 0 0.75 217.87516 293.88] CT
0.149 GC
N
68.628 17.853 M
68.628 17.509 68.706 17.212 QT
70.362 10.603 L
67.94 10.603 L
67.706 10.603 67.706 10.306 QT
67.8 9.79 68.019 9.79 QT
70.565 9.79 L
71.487 6.04 L
71.581 5.743 71.847 5.532 QT
72.112 5.321 72.456 5.321 QT
72.737 5.321 72.94 5.493 QT
73.144 5.665 73.144 5.962 QT
73.144 6.024 73.136 6.063 QT
73.128 6.103 73.112 6.149 QT
72.19 9.79 L
74.565 9.79 L
74.8 9.79 74.8 10.103 QT
74.784 10.149 74.753 10.29 QT
74.722 10.431 74.667 10.517 QT
74.612 10.603 74.487 10.603 QT
71.987 10.603 L
70.347 17.259 L
70.175 17.899 70.175 18.368 QT
70.175 19.368 70.847 19.368 QT
71.862 19.368 72.636 18.415 QT
73.409 17.462 73.831 16.337 QT
73.925 16.196 74.019 16.196 QT
74.3 16.196 L
74.378 16.196 74.433 16.259 QT
74.487 16.321 74.487 16.399 QT
74.487 16.446 74.472 16.462 QT
73.972 17.853 73.003 18.915 QT
72.034 19.978 70.784 19.978 QT
69.878 19.978 69.253 19.376 QT
68.628 18.774 68.628 17.853 QT
cp
f
GR
GS
[0.75 0 0 0.75 217.87516 293.88] CT
0.149 GC
N
77.18 25.462 M
76.977 25.462 76.977 25.259 QT
76.977 25.165 77.024 25.118 QT
80.946 21.274 80.946 13.962 QT
80.946 6.649 77.055 2.853 QT
76.977 2.806 76.977 2.665 QT
76.977 2.587 77.04 2.524 QT
77.102 2.462 77.18 2.462 QT
77.383 2.462 L
77.461 2.462 77.493 2.509 QT
79.149 3.806 80.25 5.673 QT
81.352 7.54 81.86 9.649 QT
82.368 11.759 82.368 13.962 QT
82.368 15.587 82.094 17.165 QT
81.821 18.743 81.219 20.274 QT
80.618 21.806 79.696 23.103 QT
78.774 24.399 77.493 25.415 QT
77.461 25.462 77.383 25.462 QT
77.18 25.462 L
cp
f
GR
GS
[0.75 0 0 0.75 0 0] CT
0.149 GC
2 setlinecap
1 LJ
0.667 LW
N
74 358 M
74 31 L
S
GR
GS
[0.75 0 0 0.75 0 0] CT
0.149 GC
2 setlinecap
1 LJ
0.667 LW
N
507 358 M
507 31 L
S
GR
GS
[0.75 0 0 0.75 0 0] CT
0.149 GC
2 setlinecap
1 LJ
0.667 LW
N
74 358 M
78.33 358 L
S
GR
GS
[0.75 0 0 0.75 0 0] CT
0.149 GC
2 setlinecap
1 LJ
0.667 LW
N
74 311.286 M
78.33 311.286 L
S
GR
GS
[0.75 0 0 0.75 0 0] CT
0.149 GC
2 setlinecap
1 LJ
0.667 LW
N
74 264.571 M
78.33 264.571 L
S
GR
GS
[0.75 0 0 0.75 0 0] CT
0.149 GC
2 setlinecap
1 LJ
0.667 LW
N
74 217.857 M
78.33 217.857 L
S
GR
GS
[0.75 0 0 0.75 0 0] CT
0.149 GC
2 setlinecap
1 LJ
0.667 LW
N
74 171.143 M
78.33 171.143 L
S
GR
GS
[0.75 0 0 0.75 0 0] CT
0.149 GC
2 setlinecap
1 LJ
0.667 LW
N
74 124.429 M
78.33 124.429 L
S
GR
GS
[0.75 0 0 0.75 0 0] CT
0.149 GC
2 setlinecap
1 LJ
0.667 LW
N
74 77.714 M
78.33 77.714 L
S
GR
GS
[0.75 0 0 0.75 0 0] CT
0.149 GC
2 setlinecap
1 LJ
0.667 LW
N
74 31 M
78.33 31 L
S
GR
GS
[0.75 0 0 0.75 0 0] CT
0.149 GC
2 setlinecap
1 LJ
0.667 LW
N
507 358 M
502.67 358 L
S
GR
GS
[0.75 0 0 0.75 0 0] CT
0.149 GC
2 setlinecap
1 LJ
0.667 LW
N
507 311.286 M
502.67 311.286 L
S
GR
GS
[0.75 0 0 0.75 0 0] CT
0.149 GC
2 setlinecap
1 LJ
0.667 LW
N
507 264.571 M
502.67 264.571 L
S
GR
GS
[0.75 0 0 0.75 0 0] CT
0.149 GC
2 setlinecap
1 LJ
0.667 LW
N
507 217.857 M
502.67 217.857 L
S
GR
GS
[0.75 0 0 0.75 0 0] CT
0.149 GC
2 setlinecap
1 LJ
0.667 LW
N
507 171.143 M
502.67 171.143 L
S
GR
GS
[0.75 0 0 0.75 0 0] CT
0.149 GC
2 setlinecap
1 LJ
0.667 LW
N
507 124.429 M
502.67 124.429 L
S
GR
GS
[0.75 0 0 0.75 0 0] CT
0.149 GC
2 setlinecap
1 LJ
0.667 LW
N
507 77.714 M
502.67 77.714 L
S
GR
GS
[0.75 0 0 0.75 0 0] CT
0.149 GC
2 setlinecap
1 LJ
0.667 LW
N
507 31 M
502.67 31 L
S
GR
GS
[0.75 0 0 0.75 50.3 268.5] CT
0.149 GC
/Times-Roman 21.333 F
GS
[1 0 0 1 0 0] CT
-18 7.5 moveto 
1 -1 scale
(-3) t 
GR
GR
GS
[0.75 0 0 0.75 50.3 233.46428] CT
0.149 GC
/Times-Roman 21.333 F
GS
[1 0 0 1 0 0] CT
-34 7.5 moveto 
1 -1 scale
(-2.5) t 
GR
GR
GS
[0.75 0 0 0.75 50.3 198.42856] CT
0.149 GC
/Times-Roman 21.333 F
GS
[1 0 0 1 0 0] CT
-18 7.5 moveto 
1 -1 scale
(-2) t 
GR
GR
GS
[0.75 0 0 0.75 50.3 163.39285] CT
0.149 GC
/Times-Roman 21.333 F
GS
[1 0 0 1 0 0] CT
-34 7.5 moveto 
1 -1 scale
(-1.5) t 
GR
GR
GS
[0.75 0 0 0.75 50.3 128.35714] CT
0.149 GC
/Times-Roman 21.333 F
GS
[1 0 0 1 0 0] CT
-18 7.5 moveto 
1 -1 scale
(-1) t 
GR
GR
GS
[0.75 0 0 0.75 50.3 93.32143] CT
0.149 GC
/Times-Roman 21.333 F
GS
[1 0 0 1 0 0] CT
-34 7.5 moveto 
1 -1 scale
(-0.5) t 
GR
GR
GS
[0.75 0 0 0.75 50.3 58.28572] CT
0.149 GC
/Times-Roman 21.333 F
GS
[1 0 0 1 0 0] CT
-11 7.5 moveto 
1 -1 scale
(0) t 
GR
GR
GS
[0.75 0 0 0.75 50.3 23.25] CT
0.149 GC
/Times-Roman 21.333 F
GS
[1 0 0 1 0 0] CT
-27 7.5 moveto 
1 -1 scale
(0.5) t 
GR
GR
GS
[0 -0.75 0.75 0 21.82128 145.87489] CT
0.149 GC
N
-85.316 -6.651 M
-85.316 -7.464 -84.722 -8.081 QT
-84.128 -8.698 -83.3 -8.948 QT
-83.769 -9.307 -84.011 -9.831 QT
-84.253 -10.354 -84.253 -10.948 QT
-84.253 -12.026 -83.566 -12.854 QT
-84.613 -13.901 -84.613 -15.229 QT
-84.613 -15.948 -84.308 -16.581 QT
-84.003 -17.214 -83.449 -17.675 QT
-82.894 -18.136 -82.222 -18.37 QT
-81.55 -18.604 -80.847 -18.604 QT
-79.472 -18.604 -78.394 -17.807 QT
-77.91 -18.323 -77.269 -18.597 QT
-76.628 -18.87 -75.925 -18.87 QT
-75.441 -18.87 -75.121 -18.518 QT
-74.8 -18.167 -74.8 -17.667 QT
-74.8 -17.386 -75.019 -17.175 QT
-75.238 -16.964 -75.519 -16.964 QT
-75.8 -16.964 -76.019 -17.175 QT
-76.238 -17.386 -76.238 -17.667 QT
-76.238 -18.089 -75.956 -18.261 QT
-77.144 -18.261 -77.988 -17.448 QT
-77.581 -17.026 -77.324 -16.425 QT
-77.066 -15.823 -77.066 -15.229 QT
-77.066 -14.261 -77.605 -13.479 QT
-78.144 -12.698 -79.027 -12.261 QT
-79.91 -11.823 -80.847 -11.823 QT
-82.097 -11.823 -83.144 -12.511 QT
-83.472 -12.057 -83.472 -11.511 QT
-83.472 -10.901 -83.074 -10.44 QT
-82.675 -9.979 -82.066 -9.979 QT
-80.191 -9.979 L
-78.816 -9.979 -77.714 -9.737 QT
-76.613 -9.495 -75.863 -8.753 QT
-75.113 -8.011 -75.113 -6.651 QT
-75.113 -5.636 -75.972 -4.972 QT
-76.831 -4.307 -78.011 -4.011 QT
-79.191 -3.714 -80.206 -3.714 QT
-81.222 -3.714 -82.417 -4.011 QT
-83.613 -4.307 -84.464 -4.972 QT
-85.316 -5.636 -85.316 -6.651 QT
cp
-84.019 -6.651 M
-84.019 -5.87 -83.394 -5.354 QT
-82.769 -4.839 -81.878 -4.581 QT
-80.988 -4.323 -80.206 -4.323 QT
-79.425 -4.323 -78.542 -4.581 QT
-77.66 -4.839 -77.035 -5.354 QT
-76.41 -5.87 -76.41 -6.651 QT
-76.41 -7.854 -77.511 -8.206 QT
-78.613 -8.557 -80.191 -8.557 QT
-82.066 -8.557 L
-82.597 -8.557 -83.042 -8.307 QT
-83.488 -8.057 -83.753 -7.604 QT
-84.019 -7.151 -84.019 -6.651 QT
cp
-80.847 -12.448 M
-78.894 -12.448 -78.894 -15.229 QT
-78.894 -16.432 -79.308 -17.214 QT
-79.722 -17.995 -80.847 -17.995 QT
-81.972 -17.995 -82.386 -17.214 QT
-82.8 -16.432 -82.8 -15.229 QT
-82.8 -14.464 -82.644 -13.847 QT
-82.488 -13.229 -82.058 -12.839 QT
-81.628 -12.448 -80.847 -12.448 QT
cp
f
GR
GS
[0 -0.75 0.75 0 21.82128 145.87489] CT
0.149 GC
N
-73.629 -8.448 M
-73.629 -9.261 L
-72.848 -9.261 -72.34 -9.386 QT
-71.832 -9.511 -71.832 -9.979 QT
-71.832 -16.261 L
-71.832 -16.886 -72.02 -17.159 QT
-72.207 -17.432 -72.551 -17.495 QT
-72.895 -17.557 -73.629 -17.557 QT
-73.629 -18.37 L
-70.332 -18.604 L
-70.332 -16.37 L
-69.973 -17.37 -69.286 -17.987 QT
-68.598 -18.604 -67.614 -18.604 QT
-66.942 -18.604 -66.403 -18.206 QT
-65.864 -17.807 -65.864 -17.136 QT
-65.864 -16.729 -66.161 -16.417 QT
-66.457 -16.104 -66.895 -16.104 QT
-67.317 -16.104 -67.622 -16.409 QT
-67.926 -16.714 -67.926 -17.136 QT
-67.926 -17.761 -67.489 -18.011 QT
-67.614 -18.011 L
-68.551 -18.011 -69.137 -17.339 QT
-69.723 -16.667 -69.973 -15.667 QT
-70.223 -14.667 -70.223 -13.761 QT
-70.223 -9.979 L
-70.223 -9.261 -67.989 -9.261 QT
-67.989 -8.448 L
-73.629 -8.448 L
cp
f
GR
GS
[0 -0.75 0.75 0 21.82128 145.87489] CT
0.149 GC
N
-64.11 -10.698 M
-64.11 -12.073 -63.032 -12.932 QT
-61.954 -13.792 -60.446 -14.143 QT
-58.938 -14.495 -57.579 -14.495 QT
-57.579 -15.448 L
-57.579 -16.104 -57.868 -16.729 QT
-58.157 -17.354 -58.712 -17.753 QT
-59.266 -18.151 -59.923 -18.151 QT
-61.454 -18.151 -62.251 -17.464 QT
-61.813 -17.464 -61.524 -17.136 QT
-61.235 -16.807 -61.235 -16.37 QT
-61.235 -15.901 -61.563 -15.581 QT
-61.891 -15.261 -62.329 -15.261 QT
-62.798 -15.261 -63.126 -15.581 QT
-63.454 -15.901 -63.454 -16.37 QT
-63.454 -17.573 -62.352 -18.167 QT
-61.251 -18.761 -59.923 -18.761 QT
-58.985 -18.761 -58.048 -18.362 QT
-57.11 -17.964 -56.509 -17.222 QT
-55.907 -16.479 -55.907 -15.495 QT
-55.907 -10.307 L
-55.907 -9.87 -55.712 -9.487 QT
-55.516 -9.104 -55.11 -9.104 QT
-54.735 -9.104 -54.548 -9.487 QT
-54.36 -9.87 -54.36 -10.307 QT
-54.36 -11.776 L
-53.688 -11.776 L
-53.688 -10.307 L
-53.688 -9.792 -53.962 -9.331 QT
-54.235 -8.87 -54.688 -8.589 QT
-55.141 -8.307 -55.673 -8.307 QT
-56.344 -8.307 -56.829 -8.831 QT
-57.313 -9.354 -57.376 -10.073 QT
-57.798 -9.214 -58.626 -8.698 QT
-59.454 -8.182 -60.407 -8.182 QT
-61.282 -8.182 -62.126 -8.448 QT
-62.969 -8.714 -63.54 -9.268 QT
-64.11 -9.823 -64.11 -10.698 QT
cp
-62.251 -10.698 M
-62.251 -9.901 -61.657 -9.347 QT
-61.063 -8.792 -60.251 -8.792 QT
-59.501 -8.792 -58.899 -9.167 QT
-58.298 -9.542 -57.938 -10.182 QT
-57.579 -10.823 -57.579 -11.526 QT
-57.579 -13.917 L
-58.626 -13.917 -59.719 -13.573 QT
-60.813 -13.229 -61.532 -12.503 QT
-62.251 -11.776 -62.251 -10.698 QT
cp
f
GR
GS
[0 -0.75 0.75 0 21.82128 145.87489] CT
0.149 GC
N
-47.689 -8.182 M
-49.049 -8.182 -50.166 -8.925 QT
-51.283 -9.667 -51.908 -10.862 QT
-52.533 -12.057 -52.533 -13.417 QT
-52.533 -14.807 -51.853 -16.003 QT
-51.174 -17.198 -50.01 -17.901 QT
-48.845 -18.604 -47.439 -18.604 QT
-46.595 -18.604 -45.845 -18.253 QT
-45.095 -17.901 -44.533 -17.276 QT
-44.533 -22.057 L
-44.533 -22.682 -44.72 -22.956 QT
-44.908 -23.229 -45.252 -23.292 QT
-45.595 -23.354 -46.33 -23.354 QT
-46.33 -24.167 L
-42.924 -24.401 L
-42.924 -10.542 L
-42.924 -9.932 -42.736 -9.659 QT
-42.549 -9.386 -42.205 -9.323 QT
-41.861 -9.261 -41.142 -9.261 QT
-41.142 -8.448 L
-44.611 -8.182 L
-44.611 -9.636 L
-45.205 -8.948 -46.025 -8.565 QT
-46.845 -8.182 -47.689 -8.182 QT
cp
-50.033 -10.448 M
-49.642 -9.698 -48.986 -9.245 QT
-48.33 -8.792 -47.549 -8.792 QT
-46.595 -8.792 -45.799 -9.347 QT
-45.002 -9.901 -44.611 -10.776 QT
-44.611 -16.292 L
-44.877 -16.792 -45.283 -17.19 QT
-45.689 -17.589 -46.205 -17.8 QT
-46.72 -18.011 -47.283 -18.011 QT
-48.486 -18.011 -49.22 -17.331 QT
-49.955 -16.651 -50.244 -15.597 QT
-50.533 -14.542 -50.533 -13.386 QT
-50.533 -12.464 -50.439 -11.784 QT
-50.345 -11.104 -50.033 -10.448 QT
cp
f
GR
GS
[0 -0.75 0.75 0 21.82128 145.87489] CT
0.149 GC
N
-39.558 -8.448 M
-39.558 -9.261 L
-38.762 -9.261 -38.262 -9.386 QT
-37.762 -9.511 -37.762 -9.979 QT
-37.762 -16.261 L
-37.762 -17.151 -38.105 -17.354 QT
-38.449 -17.557 -39.449 -17.557 QT
-39.449 -18.37 L
-36.137 -18.604 L
-36.137 -9.979 L
-36.137 -9.511 -35.699 -9.386 QT
-35.262 -9.261 -34.527 -9.261 QT
-34.527 -8.448 L
-39.558 -8.448 L
cp
-38.574 -22.557 M
-38.574 -23.073 -38.191 -23.456 QT
-37.808 -23.839 -37.324 -23.839 QT
-36.996 -23.839 -36.691 -23.667 QT
-36.387 -23.495 -36.215 -23.19 QT
-36.043 -22.886 -36.043 -22.557 QT
-36.043 -22.073 -36.426 -21.69 QT
-36.808 -21.307 -37.324 -21.307 QT
-37.808 -21.307 -38.191 -21.69 QT
-38.574 -22.073 -38.574 -22.557 QT
cp
f
GR
GS
[0 -0.75 0.75 0 21.82128 145.87489] CT
0.149 GC
N
-28.009 -8.182 M
-29.415 -8.182 -30.587 -8.925 QT
-31.759 -9.667 -32.431 -10.893 QT
-33.102 -12.12 -33.102 -13.495 QT
-33.102 -14.839 -32.493 -16.05 QT
-31.884 -17.261 -30.79 -18.011 QT
-29.696 -18.761 -28.337 -18.761 QT
-27.29 -18.761 -26.509 -18.409 QT
-25.727 -18.057 -25.22 -17.425 QT
-24.712 -16.792 -24.454 -15.94 QT
-24.196 -15.089 -24.196 -14.057 QT
-24.196 -13.761 -24.431 -13.761 QT
-31.087 -13.761 L
-31.087 -13.511 L
-31.087 -11.604 -30.321 -10.237 QT
-29.556 -8.87 -27.806 -8.87 QT
-27.102 -8.87 -26.501 -9.182 QT
-25.899 -9.495 -25.462 -10.057 QT
-25.024 -10.62 -24.852 -11.261 QT
-24.837 -11.339 -24.774 -11.401 QT
-24.712 -11.464 -24.634 -11.464 QT
-24.431 -11.464 L
-24.196 -11.464 -24.196 -11.167 QT
-24.524 -9.87 -25.602 -9.026 QT
-26.681 -8.182 -28.009 -8.182 QT
cp
-31.071 -14.339 M
-25.821 -14.339 L
-25.821 -15.198 -26.063 -16.089 QT
-26.306 -16.979 -26.868 -17.565 QT
-27.431 -18.151 -28.337 -18.151 QT
-29.649 -18.151 -30.36 -16.932 QT
-31.071 -15.714 -31.071 -14.339 QT
cp
f
GR
GS
[0 -0.75 0.75 0 21.82128 145.87489] CT
0.149 GC
N
-22.626 -8.448 M
-22.626 -9.261 L
-21.845 -9.261 -21.337 -9.386 QT
-20.829 -9.511 -20.829 -9.979 QT
-20.829 -16.261 L
-20.829 -16.886 -21.017 -17.159 QT
-21.204 -17.432 -21.548 -17.495 QT
-21.892 -17.557 -22.626 -17.557 QT
-22.626 -18.37 L
-19.298 -18.604 L
-19.298 -16.37 L
-18.829 -17.354 -17.923 -17.979 QT
-17.017 -18.604 -15.954 -18.604 QT
-14.36 -18.604 -13.556 -17.847 QT
-12.751 -17.089 -12.751 -15.511 QT
-12.751 -9.979 L
-12.751 -9.511 -12.251 -9.386 QT
-11.751 -9.261 -10.954 -9.261 QT
-10.954 -8.448 L
-16.22 -8.448 L
-16.22 -9.261 L
-15.438 -9.261 -14.931 -9.386 QT
-14.423 -9.511 -14.423 -9.979 QT
-14.423 -15.448 L
-14.423 -16.573 -14.751 -17.292 QT
-15.079 -18.011 -16.095 -18.011 QT
-17.423 -18.011 -18.282 -16.948 QT
-19.142 -15.886 -19.142 -14.526 QT
-19.142 -9.979 L
-19.142 -9.511 -18.642 -9.386 QT
-18.142 -9.261 -17.36 -9.261 QT
-17.36 -8.448 L
-22.626 -8.448 L
cp
f
GR
GS
[0 -0.75 0.75 0 21.82128 145.87489] CT
0.149 GC
N
-8.584 -11.214 M
-8.584 -17.557 L
-10.491 -17.557 L
-10.491 -18.151 L
-8.991 -18.151 -8.28 -19.557 QT
-7.569 -20.964 -7.569 -22.604 QT
-6.913 -22.604 L
-6.913 -18.37 L
-3.663 -18.37 L
-3.663 -17.557 L
-6.913 -17.557 L
-6.913 -11.261 L
-6.913 -10.307 -6.592 -9.589 QT
-6.272 -8.87 -5.444 -8.87 QT
-4.647 -8.87 -4.303 -9.628 QT
-3.959 -10.386 -3.959 -11.261 QT
-3.959 -12.62 L
-3.288 -12.62 L
-3.288 -11.214 L
-3.288 -10.495 -3.553 -9.792 QT
-3.819 -9.089 -4.334 -8.636 QT
-4.85 -8.182 -5.6 -8.182 QT
-6.975 -8.182 -7.78 -9.011 QT
-8.584 -9.839 -8.584 -11.214 QT
cp
f
GR
GS
[0 -0.75 0.75 0 21.82128 145.87489] CT
0.149 GC
N
11.77 -8.182 M
10.395 -8.182 9.215 -8.886 QT
8.036 -9.589 7.348 -10.768 QT
6.661 -11.948 6.661 -13.339 QT
6.661 -14.401 7.036 -15.378 QT
7.411 -16.354 8.114 -17.12 QT
8.817 -17.886 9.747 -18.323 QT
10.676 -18.761 11.77 -18.761 QT
13.192 -18.761 14.348 -18.011 QT
15.504 -17.261 16.184 -16.011 QT
16.864 -14.761 16.864 -13.339 QT
16.864 -11.964 16.176 -10.776 QT
15.489 -9.589 14.317 -8.886 QT
13.145 -8.182 11.77 -8.182 QT
cp
11.77 -8.87 M
13.614 -8.87 14.231 -10.206 QT
14.848 -11.542 14.848 -13.604 QT
14.848 -14.761 14.723 -15.518 QT
14.598 -16.276 14.192 -16.901 QT
13.926 -17.276 13.528 -17.565 QT
13.129 -17.854 12.684 -18.003 QT
12.239 -18.151 11.77 -18.151 QT
11.051 -18.151 10.403 -17.823 QT
9.754 -17.495 9.332 -16.901 QT
8.911 -16.245 8.793 -15.464 QT
8.676 -14.682 8.676 -13.604 QT
8.676 -12.307 8.895 -11.284 QT
9.114 -10.261 9.793 -9.565 QT
10.473 -8.87 11.77 -8.87 QT
cp
f
GR
GS
[0 -0.75 0.75 0 21.82128 145.87489] CT
0.149 GC
N
18.488 -8.448 M
18.488 -9.261 L
19.269 -9.261 19.777 -9.386 QT
20.285 -9.511 20.285 -9.979 QT
20.285 -17.557 L
18.519 -17.557 L
18.519 -18.37 L
20.285 -18.37 L
20.285 -21.12 L
20.285 -21.854 20.589 -22.503 QT
20.894 -23.151 21.417 -23.636 QT
21.941 -24.12 22.621 -24.393 QT
23.3 -24.667 24.035 -24.667 QT
24.8 -24.667 25.425 -24.206 QT
26.05 -23.745 26.05 -22.979 QT
26.05 -22.542 25.753 -22.245 QT
25.456 -21.948 25.019 -21.948 QT
24.581 -21.948 24.269 -22.245 QT
23.956 -22.542 23.956 -22.979 QT
23.956 -23.698 24.581 -23.948 QT
24.206 -24.073 23.925 -24.073 QT
23.238 -24.073 22.761 -23.597 QT
22.285 -23.12 22.05 -22.432 QT
21.816 -21.745 21.816 -21.073 QT
21.816 -18.37 L
24.472 -18.37 L
24.472 -17.557 L
21.894 -17.557 L
21.894 -9.979 L
21.894 -9.511 22.566 -9.386 QT
23.238 -9.261 24.128 -9.261 QT
24.128 -8.448 L
18.488 -8.448 L
cp
f
GR
GS
[0 -0.75 0.75 0 21.82128 145.87489] CT
0.149 GC
N
33.605 -7.948 M
33.449 -7.948 33.449 -8.104 QT
33.449 -8.182 33.527 -8.307 QT
33.699 -8.589 34.035 -8.917 QT
34.371 -9.245 34.527 -9.432 QT
35.105 -10.276 35.449 -10.932 QT
36.027 -12.136 36.449 -13.714 QT
37.074 -16.214 37.59 -17.776 QT
38.105 -19.339 38.933 -20.729 QT
39.59 -21.807 40.543 -22.706 QT
41.496 -23.604 42.66 -24.136 QT
43.824 -24.667 45.027 -24.667 QT
45.168 -24.667 L
45.762 -24.667 46.168 -24.37 QT
46.574 -24.073 46.777 -23.573 QT
46.98 -23.073 46.98 -22.495 QT
46.98 -21.62 46.699 -21.292 QT
45.902 -20.417 44.824 -20.276 QT
44.683 -20.276 L
44.543 -20.276 44.543 -20.432 QT
44.543 -20.448 44.605 -20.776 QT
44.668 -21.104 44.668 -21.323 QT
44.668 -22.073 44.293 -22.62 QT
43.918 -23.167 43.183 -23.167 QT
42.34 -23.167 42.34 -23.026 QT
41.715 -22.589 41.137 -21.573 QT
40.558 -20.557 40.121 -19.37 QT
39.683 -18.182 39.348 -16.987 QT
39.012 -15.792 38.762 -14.745 QT
38.48 -13.62 38.035 -12.581 QT
37.59 -11.542 36.98 -10.62 QT
37.246 -10.698 37.637 -10.698 QT
37.793 -10.698 L
38.59 -10.698 39.387 -10.542 QT
40.183 -10.386 41.293 -10.065 QT
42.402 -9.745 43.144 -9.597 QT
43.887 -9.448 44.699 -9.432 QT
44.949 -9.432 45.105 -9.659 QT
45.262 -9.886 45.418 -10.284 QT
45.574 -10.682 45.668 -10.823 QT
46.027 -11.198 46.527 -11.479 QT
47.027 -11.761 47.543 -11.823 QT
47.668 -11.823 L
47.746 -11.823 47.785 -11.784 QT
47.824 -11.745 47.824 -11.667 QT
47.824 -11.667 47.808 -11.604 QT
47.574 -10.698 46.746 -9.831 QT
45.918 -8.964 44.855 -8.456 QT
43.793 -7.948 42.902 -7.948 QT
42.777 -7.948 L
41.98 -7.948 41.215 -8.089 QT
40.449 -8.229 39.34 -8.55 QT
38.23 -8.87 37.433 -9.034 QT
36.637 -9.198 35.84 -9.214 QT
34.824 -8.089 33.73 -7.948 QT
33.605 -7.948 L
cp
f
GR
GS
[0 -0.75 0.75 0 21.82128 145.87489] CT
0.149 GC
N
51.213 -4.307 M
51.213 -4.401 51.307 -4.495 QT
52.135 -5.292 52.596 -6.339 QT
53.057 -7.386 53.057 -8.542 QT
53.057 -8.823 L
52.682 -8.448 52.135 -8.448 QT
51.603 -8.448 51.236 -8.815 QT
50.869 -9.182 50.869 -9.714 QT
50.869 -10.261 51.236 -10.62 QT
51.603 -10.979 52.135 -10.979 QT
52.947 -10.979 53.299 -10.222 QT
53.65 -9.464 53.65 -8.542 QT
53.65 -7.261 53.135 -6.104 QT
52.619 -4.948 51.697 -4.042 QT
51.603 -3.995 51.541 -3.995 QT
51.432 -3.995 51.322 -4.097 QT
51.213 -4.198 51.213 -4.307 QT
cp
f
GR
GS
[0 -0.75 0.75 0 21.82128 145.87489] CT
0.149 GC
N
62.818 -20.188 M
62.818 -21.078 63.193 -21.953 QT
63.568 -22.828 64.224 -23.524 QT
64.88 -24.219 65.732 -24.633 QT
66.583 -25.047 67.49 -25.047 QT
68.318 -25.047 68.865 -24.547 QT
69.411 -24.047 69.552 -23.235 QT
69.74 -23.922 69.865 -24.578 QT
69.99 -25.235 69.99 -25.891 QT
69.99 -26.625 69.747 -27.266 QT
69.505 -27.906 69.005 -28.297 QT
68.505 -28.688 67.755 -28.688 QT
67.068 -28.688 66.474 -28.375 QT
65.88 -28.063 65.521 -27.469 QT
65.552 -27.469 65.576 -27.477 QT
65.599 -27.485 65.63 -27.485 QT
65.911 -27.485 66.083 -27.32 QT
66.255 -27.156 66.255 -26.891 QT
66.255 -26.531 65.99 -26.266 QT
65.724 -26 65.349 -26 QT
65.083 -26 64.904 -26.156 QT
64.724 -26.313 64.724 -26.578 QT
64.724 -26.828 64.857 -27.156 QT
64.99 -27.485 65.185 -27.781 QT
65.38 -28.078 65.583 -28.281 QT
65.88 -28.578 66.232 -28.766 QT
66.583 -28.953 66.982 -29.047 QT
67.38 -29.141 67.786 -29.141 QT
68.63 -29.141 69.279 -28.797 QT
69.927 -28.453 70.365 -27.875 QT
70.802 -27.297 71.021 -26.563 QT
71.24 -25.828 71.24 -25.016 QT
71.24 -23.906 70.857 -22.555 QT
70.474 -21.203 69.771 -20.031 QT
69.068 -18.86 68.052 -18.094 QT
67.036 -17.328 65.802 -17.328 QT
64.974 -17.328 64.294 -17.688 QT
63.615 -18.047 63.216 -18.711 QT
62.818 -19.375 62.818 -20.188 QT
cp
64.115 -19.578 M
64.115 -18.766 64.576 -18.305 QT
65.036 -17.844 65.849 -17.844 QT
66.693 -17.844 67.31 -18.344 QT
67.927 -18.844 68.318 -19.57 QT
68.708 -20.297 68.99 -21.172 QT
68.99 -21.219 L
68.99 -21.25 69.005 -21.266 QT
69.24 -21.922 69.24 -22.61 QT
69.24 -23.172 69.052 -23.633 QT
68.865 -24.094 68.474 -24.367 QT
68.083 -24.641 67.536 -24.641 QT
66.974 -24.641 66.474 -24.406 QT
65.974 -24.172 65.583 -23.766 QT
65.193 -23.36 64.943 -22.86 QT
64.677 -22.313 64.396 -21.227 QT
64.115 -20.141 64.115 -19.578 QT
cp
f
GR
GS
[0 -0.75 0.75 0 21.82128 145.87489] CT
0.149 GC
N
72.404 -17.328 M
72.311 -17.328 72.311 -17.438 QT
72.311 -17.5 72.358 -17.594 QT
72.483 -17.781 72.717 -18.016 QT
72.951 -18.25 73.045 -18.375 QT
73.451 -18.969 73.686 -19.422 QT
74.092 -20.266 74.389 -21.36 QT
74.826 -23.094 75.186 -24.18 QT
75.545 -25.266 76.123 -26.235 QT
76.576 -26.985 77.24 -27.61 QT
77.904 -28.235 78.709 -28.602 QT
79.514 -28.969 80.358 -28.969 QT
80.451 -28.969 L
80.873 -28.969 81.154 -28.766 QT
81.436 -28.563 81.576 -28.211 QT
81.717 -27.86 81.717 -27.469 QT
81.717 -26.86 81.529 -26.625 QT
80.967 -26.016 80.217 -25.922 QT
80.123 -25.922 L
80.029 -25.922 80.029 -26.031 QT
80.029 -26.047 80.068 -26.274 QT
80.108 -26.5 80.108 -26.656 QT
80.108 -27.172 79.85 -27.555 QT
79.592 -27.938 79.076 -27.938 QT
78.483 -27.938 78.483 -27.828 QT
78.045 -27.531 77.647 -26.82 QT
77.248 -26.11 76.943 -25.289 QT
76.639 -24.469 76.404 -23.633 QT
76.17 -22.797 75.998 -22.078 QT
75.795 -21.281 75.49 -20.563 QT
75.186 -19.844 74.764 -19.203 QT
74.951 -19.266 75.217 -19.266 QT
75.326 -19.266 L
75.873 -19.266 76.428 -19.149 QT
76.983 -19.031 77.756 -18.813 QT
78.529 -18.594 79.045 -18.492 QT
79.561 -18.391 80.139 -18.375 QT
80.311 -18.375 80.42 -18.531 QT
80.529 -18.688 80.631 -18.969 QT
80.733 -19.25 80.811 -19.344 QT
81.045 -19.61 81.397 -19.805 QT
81.748 -20 82.108 -20.047 QT
82.201 -20.047 L
82.248 -20.047 82.279 -20.016 QT
82.311 -19.985 82.311 -19.938 QT
82.311 -19.938 82.295 -19.891 QT
82.139 -19.266 81.561 -18.656 QT
80.983 -18.047 80.24 -17.688 QT
79.498 -17.328 78.889 -17.328 QT
78.795 -17.328 L
78.233 -17.328 77.701 -17.43 QT
77.17 -17.531 76.397 -17.758 QT
75.623 -17.985 75.076 -18.102 QT
74.529 -18.219 73.967 -18.219 QT
73.264 -17.438 72.498 -17.328 QT
72.404 -17.328 L
cp
f
GR
GS
[0 -0.75 0.75 0 21.82128 145.87489] CT
0.149 GC
N
62.177 -14.784 20.963 0.939 re
f
GR
GS
[0 -0.75 0.75 0 21.82128 145.87489] CT
0.149 GC
N
63.198 -2.856 M
63.198 -3.746 63.573 -4.621 QT
63.948 -5.496 64.604 -6.192 QT
65.261 -6.887 66.112 -7.301 QT
66.964 -7.715 67.87 -7.715 QT
68.698 -7.715 69.245 -7.215 QT
69.792 -6.715 69.933 -5.903 QT
70.12 -6.59 70.245 -7.246 QT
70.37 -7.903 70.37 -8.559 QT
70.37 -9.293 70.128 -9.934 QT
69.886 -10.575 69.386 -10.965 QT
68.886 -11.356 68.136 -11.356 QT
67.448 -11.356 66.854 -11.043 QT
66.261 -10.731 65.901 -10.137 QT
65.933 -10.137 65.956 -10.145 QT
65.979 -10.153 66.011 -10.153 QT
66.292 -10.153 66.464 -9.989 QT
66.636 -9.825 66.636 -9.559 QT
66.636 -9.2 66.37 -8.934 QT
66.104 -8.668 65.729 -8.668 QT
65.464 -8.668 65.284 -8.825 QT
65.104 -8.981 65.104 -9.246 QT
65.104 -9.496 65.237 -9.825 QT
65.37 -10.153 65.565 -10.45 QT
65.761 -10.746 65.964 -10.95 QT
66.261 -11.246 66.612 -11.434 QT
66.964 -11.621 67.362 -11.715 QT
67.761 -11.809 68.167 -11.809 QT
69.011 -11.809 69.659 -11.465 QT
70.308 -11.121 70.745 -10.543 QT
71.183 -9.965 71.401 -9.231 QT
71.62 -8.496 71.62 -7.684 QT
71.62 -6.575 71.237 -5.223 QT
70.854 -3.871 70.151 -2.7 QT
69.448 -1.528 68.433 -0.762 QT
67.417 0.004 66.183 0.004 QT
65.354 0.004 64.675 -0.356 QT
63.995 -0.715 63.597 -1.379 QT
63.198 -2.043 63.198 -2.856 QT
cp
64.495 -2.246 M
64.495 -1.434 64.956 -0.973 QT
65.417 -0.512 66.229 -0.512 QT
67.073 -0.512 67.69 -1.012 QT
68.308 -1.512 68.698 -2.239 QT
69.089 -2.965 69.37 -3.84 QT
69.37 -3.887 L
69.37 -3.918 69.386 -3.934 QT
69.62 -4.59 69.62 -5.278 QT
69.62 -5.84 69.433 -6.301 QT
69.245 -6.762 68.854 -7.036 QT
68.464 -7.309 67.917 -7.309 QT
67.354 -7.309 66.854 -7.075 QT
66.354 -6.84 65.964 -6.434 QT
65.573 -6.028 65.323 -5.528 QT
65.058 -4.981 64.776 -3.895 QT
64.495 -2.809 64.495 -2.246 QT
cp
f
GR
GS
[0 -0.75 0.75 0 21.82128 145.87489] CT
0.149 GC
N
75.41 -0.168 M
74.66 -0.168 74.066 -0.536 QT
73.472 -0.903 73.152 -1.512 QT
72.832 -2.121 72.832 -2.887 QT
72.832 -3.981 73.441 -5.043 QT
74.05 -6.106 75.05 -6.77 QT
76.05 -7.434 77.16 -7.434 QT
77.972 -7.434 78.59 -7.004 QT
79.207 -6.575 79.527 -5.871 QT
79.847 -5.168 79.847 -4.356 QT
79.863 -3.293 L
80.41 -4.043 80.785 -4.864 QT
81.16 -5.684 81.363 -6.559 QT
81.394 -6.653 81.488 -6.653 QT
81.675 -6.653 L
81.832 -6.653 81.832 -6.496 QT
81.832 -6.481 81.816 -6.45 QT
81.629 -5.715 81.347 -5.043 QT
81.066 -4.371 80.683 -3.739 QT
80.3 -3.106 79.863 -2.59 QT
79.863 -0.606 80.316 -0.606 QT
80.613 -0.606 80.808 -0.778 QT
81.004 -0.95 81.144 -1.207 QT
81.285 -1.465 81.332 -1.481 QT
81.519 -1.481 L
81.644 -1.481 81.644 -1.325 QT
81.644 -0.918 81.191 -0.543 QT
80.738 -0.168 80.285 -0.168 QT
79.707 -0.168 79.324 -0.551 QT
78.941 -0.934 78.8 -1.528 QT
78.05 -0.887 77.175 -0.528 QT
76.3 -0.168 75.41 -0.168 QT
cp
75.441 -0.606 M
77.16 -0.606 78.722 -2.012 QT
78.722 -2.106 78.707 -2.239 QT
78.691 -2.371 78.691 -2.387 QT
78.691 -4.121 L
78.691 -7.012 77.129 -7.012 QT
76.191 -7.012 75.488 -6.215 QT
74.785 -5.418 74.425 -4.301 QT
74.066 -3.184 74.066 -2.262 QT
74.066 -1.575 74.425 -1.09 QT
74.785 -0.606 75.441 -0.606 QT
cp
f
GR
GS
[0.75 0 0 0.75 55.5 19.5] CT
0.149 GC
N
3.094 -0.609 M
3.094 -0.766 3.188 -0.906 QT
7.563 -5.25 L
3.188 -9.625 L
3.094 -9.719 3.094 -9.891 QT
3.094 -10.047 3.211 -10.18 QT
3.328 -10.313 3.5 -10.313 QT
3.656 -10.313 3.828 -10.188 QT
8.172 -5.828 L
12.5 -10.188 L
12.672 -10.313 12.813 -10.313 QT
12.984 -10.313 13.109 -10.188 QT
13.234 -10.063 13.234 -9.891 QT
13.234 -9.719 13.125 -9.625 QT
8.75 -5.25 L
13.125 -0.906 L
13.234 -0.766 13.234 -0.609 QT
13.234 -0.438 13.109 -0.313 QT
12.984 -0.188 12.813 -0.188 QT
12.656 -0.188 12.5 -0.344 QT
8.172 -4.672 L
3.828 -0.344 L
3.672 -0.188 3.5 -0.188 QT
3.328 -0.188 3.211 -0.32 QT
3.094 -0.453 3.094 -0.609 QT
cp
f
GR
GS
[0.75 0 0 0.75 68.25 19.5] CT
0.149 GC
/Times-Roman 21.333 F
GS
[1 0 0 1 0 0] CT
0 0 moveto 
1 -1 scale
(10) t 
GR
GR
GS
[0.75 0 0 0.75 84.75 12] CT
0.149 GC
/Times-Roman 17.067 F
GS
[1 0 0 1 0 0] CT
0 0 moveto 
1 -1 scale
(-5) t 
GR
GR
GS
[0.75 0 0 0.75 0 0] CT
0 0.447 0.741 RC
1 LJ
2.667 LW
N
74 153.016 M
88.433 223.426 L
102.867 236.235 L
117.3 247.61 L
131.733 257.528 L
146.167 265.916 L
160.6 272.816 L
175.033 278.354 L
189.467 282.694 L
203.9 285.97 L
218.333 288.241 L
232.767 289.454 L
247.2 289.44 L
261.633 287.927 L
276.067 284.57 L
290.5 278.993 L
304.933 270.829 L
319.367 259.768 L
333.8 245.615 L
348.233 228.339 L
362.667 208.134 L
377.1 185.466 L
391.533 161.098 L
405.967 136.082 L
420.4 111.745 L
434.833 89.682 L
449.267 67.146 L
463.7 78.669 L
478.133 65.316 L
492.567 77.714 L
S
GR
GS
[0.75 0 0 0.75 0 0] CT
0.851 0.325 0.098 RC
1 LJ
2.667 LW
N
74 168.654 M
88.433 270.339 L
102.867 284.697 L
117.3 297.163 L
131.733 307.52 L
146.167 315.692 L
160.6 321.747 L
175.033 325.881 L
189.467 328.372 L
203.9 329.522 L
218.333 329.595 L
232.767 328.769 L
247.2 327.105 L
261.633 324.537 L
276.067 320.882 L
290.5 315.868 L
304.933 309.163 L
319.367 300.416 L
333.8 289.305 L
348.233 275.586 L
362.667 259.141 L
377.1 240.025 L
391.533 218.51 L
405.967 195.099 L
420.4 170.519 L
434.833 145.69 L
449.267 121.64 L
463.7 99.339 L
478.133 81.383 L
492.567 77.885 L
S
GR
GS
[0.75 0 0 0.75 0 0] CT
1 GC
N
332 91 M
332 41 L
88 41 L
88 91 L
cp
f
GR
GS
[0.75 0 0 0.75 101.23076 40.77373] CT
N
3.828 4.827 M
2.922 4.827 2.219 4.397 QT
1.516 3.967 1.141 3.241 QT
0.766 2.514 0.766 1.608 QT
0.766 0.311 1.484 -0.947 QT
2.203 -2.205 3.391 -2.994 QT
4.578 -3.783 5.891 -3.783 QT
6.859 -3.783 7.594 -3.283 QT
8.328 -2.783 8.703 -1.939 QT
9.078 -1.095 9.078 -0.142 QT
9.094 1.124 L
9.75 0.233 10.203 -0.736 QT
10.656 -1.705 10.891 -2.751 QT
10.922 -2.861 11.047 -2.861 QT
11.266 -2.861 L
11.438 -2.861 11.438 -2.689 QT
11.438 -2.673 11.422 -2.626 QT
11.203 -1.751 10.867 -0.955 QT
10.531 -0.158 10.078 0.6 QT
9.625 1.358 9.094 1.967 QT
9.094 4.327 9.656 4.327 QT
10 4.327 10.227 4.116 QT
10.453 3.905 10.625 3.6 QT
10.797 3.295 10.844 3.28 QT
11.078 3.28 L
11.219 3.28 11.219 3.467 QT
11.219 3.936 10.68 4.381 QT
10.141 4.827 9.609 4.827 QT
8.922 4.827 8.469 4.381 QT
8.016 3.936 7.844 3.217 QT
6.953 3.983 5.914 4.405 QT
4.875 4.827 3.828 4.827 QT
cp
3.859 4.327 M
5.891 4.327 7.75 2.655 QT
7.75 2.545 7.727 2.381 QT
7.703 2.217 7.703 2.202 QT
7.703 0.139 L
7.703 -3.298 5.859 -3.298 QT
4.734 -3.298 3.906 -2.345 QT
3.078 -1.392 2.656 -0.072 QT
2.234 1.249 2.234 2.342 QT
2.234 3.17 2.656 3.749 QT
3.078 4.327 3.859 4.327 QT
cp
f
GR
GS
[0.75 0 0 0.75 101.23076 40.77373] CT
N
12.892 7.488 M
12.767 7.488 12.767 7.316 QT
12.767 7.285 12.79 7.207 QT
12.814 7.129 12.845 7.082 QT
12.876 7.035 12.923 7.035 QT
14.173 7.035 14.376 6.238 QT
16.142 -0.871 L
15.782 -0.934 15.001 -0.934 QT
14.876 -0.934 14.876 -1.106 QT
14.876 -1.137 14.899 -1.215 QT
14.923 -1.293 14.954 -1.34 QT
14.985 -1.387 15.032 -1.387 QT
17.282 -1.387 L
17.376 -1.387 17.407 -1.309 QT
20.298 5.566 L
21.735 -0.2 L
21.767 -0.34 21.767 -0.387 QT
21.767 -0.934 20.751 -0.934 QT
20.626 -0.934 20.626 -1.106 QT
20.673 -1.278 20.696 -1.332 QT
20.72 -1.387 20.845 -1.387 QT
23.626 -1.387 L
23.767 -1.387 23.767 -1.215 QT
23.751 -1.184 23.735 -1.106 QT
23.72 -1.028 23.681 -0.981 QT
23.642 -0.934 23.595 -0.934 QT
22.345 -0.934 22.142 -0.137 QT
20.282 7.379 L
20.235 7.488 20.142 7.488 QT
19.985 7.488 L
19.907 7.488 19.876 7.394 QT
16.564 -0.465 L
16.532 -0.543 L
16.517 -0.575 16.517 -0.59 QT
14.782 6.3 L
14.782 6.332 14.774 6.379 QT
14.767 6.425 14.751 6.488 QT
14.751 6.816 15.04 6.925 QT
15.329 7.035 15.767 7.035 QT
15.892 7.035 15.892 7.207 QT
15.845 7.379 15.814 7.433 QT
15.782 7.488 15.673 7.488 QT
12.892 7.488 L
cp
f
GR
GS
[0.75 0 0 0.75 101.23076 40.77373] CT
N
32.516 4.608 M
32.516 3.936 L
33.156 3.936 33.578 3.834 QT
34 3.733 34 3.342 QT
34 -2.923 L
32.531 -2.923 L
32.531 -3.58 L
34 -3.58 L
34 -5.861 L
34 -6.47 34.25 -7.001 QT
34.5 -7.533 34.93 -7.931 QT
35.359 -8.33 35.922 -8.556 QT
36.484 -8.783 37.094 -8.783 QT
37.734 -8.783 38.25 -8.408 QT
38.766 -8.033 38.766 -7.392 QT
38.766 -7.033 38.516 -6.791 QT
38.266 -6.548 37.906 -6.548 QT
37.547 -6.548 37.289 -6.791 QT
37.031 -7.033 37.031 -7.392 QT
37.031 -7.986 37.547 -8.189 QT
37.234 -8.298 37 -8.298 QT
36.437 -8.298 36.047 -7.9 QT
35.656 -7.501 35.461 -6.939 QT
35.266 -6.376 35.266 -5.814 QT
35.266 -3.58 L
37.453 -3.58 L
37.453 -2.923 L
35.328 -2.923 L
35.328 3.342 L
35.328 3.733 35.883 3.834 QT
36.437 3.936 37.172 3.936 QT
37.172 4.608 L
32.516 4.608 L
cp
f
GR
GS
[0.75 0 0 0.75 101.23076 40.77373] CT
N
38.257 4.608 M
38.257 3.936 L
38.914 3.936 39.328 3.834 QT
39.742 3.733 39.742 3.342 QT
39.742 -1.845 L
39.742 -2.361 39.593 -2.587 QT
39.445 -2.814 39.156 -2.869 QT
38.867 -2.923 38.257 -2.923 QT
38.257 -3.58 L
40.976 -3.783 L
40.976 -1.939 L
41.289 -2.751 41.851 -3.267 QT
42.414 -3.783 43.226 -3.783 QT
43.789 -3.783 44.234 -3.455 QT
44.679 -3.126 44.679 -2.58 QT
44.679 -2.236 44.437 -1.978 QT
44.195 -1.72 43.835 -1.72 QT
43.476 -1.72 43.226 -1.97 QT
42.976 -2.22 42.976 -2.58 QT
42.976 -3.08 43.335 -3.298 QT
43.226 -3.298 L
42.46 -3.298 41.976 -2.744 QT
41.492 -2.189 41.281 -1.361 QT
41.07 -0.533 41.07 0.217 QT
41.07 3.342 L
41.07 3.936 42.929 3.936 QT
42.929 4.608 L
38.257 4.608 L
cp
f
GR
GS
[0.75 0 0 0.75 101.23076 40.77373] CT
N
50.043 4.827 M
48.902 4.827 47.926 4.241 QT
46.949 3.655 46.387 2.686 QT
45.824 1.717 45.824 0.561 QT
45.824 -0.314 46.137 -1.119 QT
46.449 -1.923 47.027 -2.556 QT
47.605 -3.189 48.371 -3.548 QT
49.137 -3.908 50.043 -3.908 QT
51.215 -3.908 52.176 -3.291 QT
53.137 -2.673 53.691 -1.642 QT
54.246 -0.611 54.246 0.561 QT
54.246 1.702 53.684 2.678 QT
53.121 3.655 52.145 4.241 QT
51.168 4.827 50.043 4.827 QT
cp
50.043 4.264 M
51.559 4.264 52.074 3.163 QT
52.59 2.061 52.59 0.342 QT
52.59 -0.611 52.488 -1.236 QT
52.387 -1.861 52.043 -2.376 QT
51.824 -2.689 51.496 -2.923 QT
51.168 -3.158 50.801 -3.283 QT
50.434 -3.408 50.043 -3.408 QT
49.449 -3.408 48.918 -3.142 QT
48.387 -2.876 48.027 -2.376 QT
47.684 -1.83 47.582 -1.189 QT
47.48 -0.548 47.48 0.342 QT
47.48 1.42 47.668 2.264 QT
47.855 3.108 48.418 3.686 QT
48.98 4.264 50.043 4.264 QT
cp
f
GR
GS
[0.75 0 0 0.75 101.23076 40.77373] CT
N
55.455 4.608 M
55.455 3.936 L
56.112 3.936 56.526 3.834 QT
56.94 3.733 56.94 3.342 QT
56.94 -1.845 L
56.94 -2.361 56.791 -2.587 QT
56.643 -2.814 56.354 -2.869 QT
56.065 -2.923 55.455 -2.923 QT
55.455 -3.58 L
58.221 -3.783 L
58.221 -1.939 L
58.596 -2.751 59.346 -3.267 QT
60.096 -3.783 60.971 -3.783 QT
63.159 -3.783 63.534 -2.001 QT
63.924 -2.798 64.659 -3.291 QT
65.393 -3.783 66.252 -3.783 QT
67.127 -3.783 67.713 -3.509 QT
68.299 -3.236 68.596 -2.666 QT
68.893 -2.095 68.893 -1.22 QT
68.893 3.342 L
68.893 3.733 69.315 3.834 QT
69.737 3.936 70.377 3.936 QT
70.377 4.608 L
66.034 4.608 L
66.034 3.936 L
66.674 3.936 67.096 3.834 QT
67.518 3.733 67.518 3.342 QT
67.518 -1.173 L
67.518 -2.126 67.245 -2.712 QT
66.971 -3.298 66.143 -3.298 QT
65.049 -3.298 64.33 -2.416 QT
63.612 -1.533 63.612 -0.408 QT
63.612 3.342 L
63.612 3.733 64.034 3.834 QT
64.455 3.936 65.096 3.936 QT
65.096 4.608 L
60.752 4.608 L
60.752 3.936 L
61.393 3.936 61.815 3.834 QT
62.237 3.733 62.237 3.342 QT
62.237 -1.173 L
62.237 -2.095 61.963 -2.697 QT
61.69 -3.298 60.862 -3.298 QT
59.752 -3.298 59.041 -2.416 QT
58.33 -1.533 58.33 -0.408 QT
58.33 3.342 L
58.33 3.733 58.752 3.834 QT
59.174 3.936 59.815 3.936 QT
59.815 4.608 L
55.455 4.608 L
cp
f
GR
GS
[0.75 0 0 0.75 101.23076 40.77373] CT
N
78.059 2.749 M
78.059 1.608 78.949 0.897 QT
79.84 0.186 81.082 -0.103 QT
82.324 -0.392 83.449 -0.392 QT
83.449 -1.173 L
83.449 -1.72 83.207 -2.236 QT
82.965 -2.751 82.512 -3.08 QT
82.059 -3.408 81.512 -3.408 QT
80.246 -3.408 79.59 -2.845 QT
79.949 -2.845 80.191 -2.572 QT
80.434 -2.298 80.434 -1.939 QT
80.434 -1.548 80.16 -1.283 QT
79.887 -1.017 79.527 -1.017 QT
79.137 -1.017 78.871 -1.283 QT
78.606 -1.548 78.606 -1.939 QT
78.606 -2.939 79.512 -3.423 QT
80.418 -3.908 81.512 -3.908 QT
82.277 -3.908 83.059 -3.58 QT
83.84 -3.251 84.34 -2.642 QT
84.84 -2.033 84.84 -1.205 QT
84.84 3.061 L
84.84 3.436 84.996 3.749 QT
85.152 4.061 85.481 4.061 QT
85.793 4.061 85.949 3.749 QT
86.106 3.436 86.106 3.061 QT
86.106 1.858 L
86.668 1.858 L
86.668 3.061 L
86.668 3.499 86.441 3.881 QT
86.215 4.264 85.84 4.491 QT
85.465 4.717 85.027 4.717 QT
84.481 4.717 84.074 4.288 QT
83.668 3.858 83.621 3.264 QT
83.262 3.983 82.582 4.405 QT
81.902 4.827 81.121 4.827 QT
80.387 4.827 79.691 4.608 QT
78.996 4.389 78.527 3.936 QT
78.059 3.483 78.059 2.749 QT
cp
79.59 2.749 M
79.59 3.405 80.082 3.866 QT
80.574 4.327 81.246 4.327 QT
81.856 4.327 82.356 4.014 QT
82.856 3.702 83.152 3.178 QT
83.449 2.655 83.449 2.061 QT
83.449 0.092 L
82.59 0.092 81.684 0.374 QT
80.777 0.655 80.184 1.256 QT
79.59 1.858 79.59 2.749 QT
cp
f
GR
GS
[0.75 0 0 0.75 101.23076 40.77373] CT
N
91.534 4.827 M
90.409 4.827 89.479 4.217 QT
88.549 3.608 88.034 2.616 QT
87.518 1.624 87.518 0.514 QT
87.518 -0.642 88.081 -1.634 QT
88.643 -2.626 89.612 -3.205 QT
90.581 -3.783 91.737 -3.783 QT
92.424 -3.783 93.049 -3.494 QT
93.674 -3.205 94.127 -2.689 QT
94.127 -6.642 L
94.127 -7.142 93.979 -7.369 QT
93.831 -7.595 93.541 -7.65 QT
93.252 -7.705 92.659 -7.705 QT
92.659 -8.376 L
95.471 -8.58 L
95.471 2.889 L
95.471 3.389 95.62 3.616 QT
95.768 3.842 96.049 3.889 QT
96.331 3.936 96.94 3.936 QT
96.94 4.608 L
94.081 4.827 L
94.081 3.624 L
93.581 4.186 92.901 4.506 QT
92.221 4.827 91.534 4.827 QT
cp
89.596 2.952 M
89.924 3.577 90.463 3.952 QT
91.002 4.327 91.643 4.327 QT
92.424 4.327 93.088 3.866 QT
93.752 3.405 94.081 2.686 QT
94.081 -1.861 L
93.846 -2.283 93.51 -2.611 QT
93.174 -2.939 92.752 -3.119 QT
92.331 -3.298 91.862 -3.298 QT
90.862 -3.298 90.26 -2.736 QT
89.659 -2.173 89.416 -1.298 QT
89.174 -0.423 89.174 0.53 QT
89.174 1.28 89.252 1.85 QT
89.331 2.42 89.596 2.952 QT
cp
f
GR
GS
[0.75 0 0 0.75 101.23076 40.77373] CT
N
97.935 7.795 M
98.372 8.014 98.919 8.014 QT
99.669 8.014 99.966 7.249 QT
100.263 6.483 100.263 5.592 QT
100.263 -1.845 L
100.263 -2.361 100.075 -2.587 QT
99.888 -2.814 99.568 -2.869 QT
99.247 -2.923 98.622 -2.923 QT
98.622 -3.58 L
101.591 -3.783 L
101.591 5.67 L
101.591 6.405 101.224 7.061 QT
100.857 7.717 100.239 8.108 QT
99.622 8.499 98.888 8.499 QT
98.06 8.499 97.396 8.092 QT
96.732 7.686 96.732 6.952 QT
96.732 6.577 96.997 6.303 QT
97.263 6.03 97.638 6.03 QT
98.013 6.03 98.278 6.303 QT
98.544 6.577 98.544 6.952 QT
98.544 7.233 98.38 7.475 QT
98.216 7.717 97.935 7.795 QT
cp
99.497 -7.048 M
99.497 -7.47 99.81 -7.783 QT
100.122 -8.095 100.544 -8.095 QT
100.81 -8.095 101.06 -7.962 QT
101.31 -7.83 101.45 -7.58 QT
101.591 -7.33 101.591 -7.048 QT
101.591 -6.642 101.286 -6.33 QT
100.982 -6.017 100.544 -6.017 QT
100.122 -6.017 99.81 -6.33 QT
99.497 -6.642 99.497 -7.048 QT
cp
f
GR
GS
[0.75 0 0 0.75 101.23076 40.77373] CT
N
108.176 4.827 M
107.036 4.827 106.059 4.241 QT
105.083 3.655 104.52 2.686 QT
103.958 1.717 103.958 0.561 QT
103.958 -0.314 104.27 -1.119 QT
104.583 -1.923 105.161 -2.556 QT
105.739 -3.189 106.505 -3.548 QT
107.27 -3.908 108.176 -3.908 QT
109.348 -3.908 110.309 -3.291 QT
111.27 -2.673 111.825 -1.642 QT
112.38 -0.611 112.38 0.561 QT
112.38 1.702 111.817 2.678 QT
111.255 3.655 110.278 4.241 QT
109.301 4.827 108.176 4.827 QT
cp
108.176 4.264 M
109.692 4.264 110.208 3.163 QT
110.723 2.061 110.723 0.342 QT
110.723 -0.611 110.622 -1.236 QT
110.52 -1.861 110.176 -2.376 QT
109.958 -2.689 109.63 -2.923 QT
109.301 -3.158 108.934 -3.283 QT
108.567 -3.408 108.176 -3.408 QT
107.583 -3.408 107.051 -3.142 QT
106.52 -2.876 106.161 -2.376 QT
105.817 -1.83 105.715 -1.189 QT
105.614 -0.548 105.614 0.342 QT
105.614 1.42 105.801 2.264 QT
105.989 3.108 106.551 3.686 QT
107.114 4.264 108.176 4.264 QT
cp
f
GR
GS
[0.75 0 0 0.75 101.23076 40.77373] CT
N
113.605 4.608 M
113.605 3.936 L
114.261 3.936 114.675 3.834 QT
115.089 3.733 115.089 3.342 QT
115.089 -1.845 L
115.089 -2.58 114.808 -2.751 QT
114.526 -2.923 113.698 -2.923 QT
113.698 -3.58 L
116.433 -3.783 L
116.433 3.342 L
116.433 3.733 116.792 3.834 QT
117.151 3.936 117.761 3.936 QT
117.761 4.608 L
113.605 4.608 L
cp
114.417 -7.048 M
114.417 -7.47 114.73 -7.783 QT
115.042 -8.095 115.464 -8.095 QT
115.73 -8.095 115.98 -7.962 QT
116.23 -7.83 116.37 -7.58 QT
116.511 -7.33 116.511 -7.048 QT
116.511 -6.642 116.191 -6.33 QT
115.87 -6.017 115.464 -6.017 QT
115.042 -6.017 114.73 -6.33 QT
114.417 -6.642 114.417 -7.048 QT
cp
f
GR
GS
[0.75 0 0 0.75 101.23076 40.77373] CT
N
118.922 4.608 M
118.922 3.936 L
119.579 3.936 119.993 3.834 QT
120.407 3.733 120.407 3.342 QT
120.407 -1.845 L
120.407 -2.361 120.258 -2.587 QT
120.11 -2.814 119.821 -2.869 QT
119.532 -2.923 118.922 -2.923 QT
118.922 -3.58 L
121.688 -3.783 L
121.688 -1.939 L
122.063 -2.751 122.813 -3.267 QT
123.563 -3.783 124.438 -3.783 QT
125.75 -3.783 126.414 -3.158 QT
127.079 -2.533 127.079 -1.22 QT
127.079 3.342 L
127.079 3.733 127.5 3.834 QT
127.922 3.936 128.563 3.936 QT
128.563 4.608 L
124.219 4.608 L
124.219 3.936 L
124.86 3.936 125.282 3.834 QT
125.704 3.733 125.704 3.342 QT
125.704 -1.173 L
125.704 -2.095 125.43 -2.697 QT
125.157 -3.298 124.329 -3.298 QT
123.219 -3.298 122.508 -2.416 QT
121.797 -1.533 121.797 -0.408 QT
121.797 3.342 L
121.797 3.733 122.219 3.834 QT
122.641 3.936 123.282 3.936 QT
123.282 4.608 L
118.922 4.608 L
cp
f
GR
GS
[0.75 0 0 0.75 101.23076 40.77373] CT
N
130.431 2.327 M
130.431 -2.923 L
128.853 -2.923 L
128.853 -3.408 L
130.103 -3.408 130.688 -4.564 QT
131.274 -5.72 131.274 -7.08 QT
131.821 -7.08 L
131.821 -3.58 L
134.493 -3.58 L
134.493 -2.923 L
131.821 -2.923 L
131.821 2.295 L
131.821 3.077 132.079 3.67 QT
132.337 4.264 133.024 4.264 QT
133.681 4.264 133.97 3.639 QT
134.259 3.014 134.259 2.295 QT
134.259 1.17 L
134.806 1.17 L
134.806 2.327 L
134.806 2.92 134.587 3.499 QT
134.368 4.077 133.938 4.452 QT
133.509 4.827 132.899 4.827 QT
131.759 4.827 131.095 4.139 QT
130.431 3.452 130.431 2.327 QT
cp
f
GR
GS
[0.75 0 0 0.75 0 0] CT
0 0.447 0.741 RC
1 LJ
2.667 LW
N
91.998 54.365 M
131.976 54.365 L
S
GR
GS
[0.75 0 0 0.75 101.23076 58.22627] CT
N
/f-1846716447{3.828 4.827 M
2.922 4.827 2.219 4.397 QT
1.516 3.967 1.141 3.241 QT
0.766 2.514 0.766 1.608 QT
0.766 0.311 1.484 -0.947 QT
2.203 -2.205 3.391 -2.994 QT
4.578 -3.783 5.891 -3.783 QT
6.859 -3.783 7.594 -3.283 QT
8.328 -2.783 8.703 -1.939 QT
9.078 -1.095 9.078 -0.142 QT
9.094 1.124 L
9.75 0.233 10.203 -0.736 QT
10.656 -1.705 10.891 -2.751 QT
10.922 -2.861 11.047 -2.861 QT
11.266 -2.861 L
11.438 -2.861 11.438 -2.689 QT
11.438 -2.673 11.422 -2.626 QT
11.203 -1.751 10.867 -0.955 QT
10.531 -0.158 10.078 0.6 QT
9.625 1.358 9.094 1.967 QT
9.094 4.327 9.656 4.327 QT
10 4.327 10.227 4.116 QT
10.453 3.905 10.625 3.6 QT
10.797 3.295 10.844 3.28 QT
11.078 3.28 L
11.219 3.28 11.219 3.467 QT
11.219 3.936 10.68 4.381 QT
10.141 4.827 9.609 4.827 QT
8.922 4.827 8.469 4.381 QT
8.016 3.936 7.844 3.217 QT
6.953 3.983 5.914 4.405 QT
4.875 4.827 3.828 4.827 QT
cp
3.859 4.327 M
5.891 4.327 7.75 2.655 QT
7.75 2.545 7.727 2.381 QT
7.703 2.217 7.703 2.202 QT
7.703 0.139 L
7.703 -3.298 5.859 -3.298 QT
4.734 -3.298 3.906 -2.345 QT
3.078 -1.392 2.656 -0.072 QT
2.234 1.249 2.234 2.342 QT
2.234 3.17 2.656 3.749 QT
3.078 4.327 3.859 4.327 QT
cp}def
f-1846716447
f
GR
GS
[0.75 0 0 0.75 101.23076 58.22627] CT
N
/f-2138336119{12.892 7.488 M
12.767 7.488 12.767 7.316 QT
12.767 7.285 12.79 7.207 QT
12.814 7.129 12.845 7.082 QT
12.876 7.035 12.923 7.035 QT
14.173 7.035 14.376 6.238 QT
16.142 -0.871 L
15.782 -0.934 15.001 -0.934 QT
14.876 -0.934 14.876 -1.106 QT
14.876 -1.137 14.899 -1.215 QT
14.923 -1.293 14.954 -1.34 QT
14.985 -1.387 15.032 -1.387 QT
17.282 -1.387 L
17.376 -1.387 17.407 -1.309 QT
20.298 5.566 L
21.735 -0.2 L
21.767 -0.34 21.767 -0.387 QT
21.767 -0.934 20.751 -0.934 QT
20.626 -0.934 20.626 -1.106 QT
20.673 -1.278 20.696 -1.332 QT
20.72 -1.387 20.845 -1.387 QT
23.626 -1.387 L
23.767 -1.387 23.767 -1.215 QT
23.751 -1.184 23.735 -1.106 QT
23.72 -1.028 23.681 -0.981 QT
23.642 -0.934 23.595 -0.934 QT
22.345 -0.934 22.142 -0.137 QT
20.282 7.379 L
20.235 7.488 20.142 7.488 QT
19.985 7.488 L
19.907 7.488 19.876 7.394 QT
16.564 -0.465 L
16.532 -0.543 L
16.517 -0.575 16.517 -0.59 QT
14.782 6.3 L
14.782 6.332 14.774 6.379 QT
14.767 6.425 14.751 6.488 QT
14.751 6.816 15.04 6.925 QT
15.329 7.035 15.767 7.035 QT
15.892 7.035 15.892 7.207 QT
15.845 7.379 15.814 7.433 QT
15.782 7.488 15.673 7.488 QT
12.892 7.488 L
cp}def
f-2138336119
f
GR
GS
[0.75 0 0 0.75 101.23076 58.22627] CT
N
/f-695312782{32.516 4.608 M
32.516 3.936 L
33.156 3.936 33.578 3.834 QT
34 3.733 34 3.342 QT
34 -2.923 L
32.531 -2.923 L
32.531 -3.58 L
34 -3.58 L
34 -5.861 L
34 -6.47 34.25 -7.001 QT
34.5 -7.533 34.93 -7.931 QT
35.359 -8.33 35.922 -8.556 QT
36.484 -8.783 37.094 -8.783 QT
37.734 -8.783 38.25 -8.408 QT
38.766 -8.033 38.766 -7.392 QT
38.766 -7.033 38.516 -6.791 QT
38.266 -6.548 37.906 -6.548 QT
37.547 -6.548 37.289 -6.791 QT
37.031 -7.033 37.031 -7.392 QT
37.031 -7.986 37.547 -8.189 QT
37.234 -8.298 37 -8.298 QT
36.437 -8.298 36.047 -7.9 QT
35.656 -7.501 35.461 -6.939 QT
35.266 -6.376 35.266 -5.814 QT
35.266 -3.58 L
37.453 -3.58 L
37.453 -2.923 L
35.328 -2.923 L
35.328 3.342 L
35.328 3.733 35.883 3.834 QT
36.437 3.936 37.172 3.936 QT
37.172 4.608 L
32.516 4.608 L
cp}def
f-695312782
f
GR
GS
[0.75 0 0 0.75 101.23076 58.22627] CT
N
/f1587029958{38.257 4.608 M
38.257 3.936 L
38.914 3.936 39.328 3.834 QT
39.742 3.733 39.742 3.342 QT
39.742 -1.845 L
39.742 -2.361 39.593 -2.587 QT
39.445 -2.814 39.156 -2.869 QT
38.867 -2.923 38.257 -2.923 QT
38.257 -3.58 L
40.976 -3.783 L
40.976 -1.939 L
41.289 -2.751 41.851 -3.267 QT
42.414 -3.783 43.226 -3.783 QT
43.789 -3.783 44.234 -3.455 QT
44.679 -3.126 44.679 -2.58 QT
44.679 -2.236 44.437 -1.978 QT
44.195 -1.72 43.835 -1.72 QT
43.476 -1.72 43.226 -1.97 QT
42.976 -2.22 42.976 -2.58 QT
42.976 -3.08 43.335 -3.298 QT
43.226 -3.298 L
42.46 -3.298 41.976 -2.744 QT
41.492 -2.189 41.281 -1.361 QT
41.07 -0.533 41.07 0.217 QT
41.07 3.342 L
41.07 3.936 42.929 3.936 QT
42.929 4.608 L
38.257 4.608 L
cp}def
f1587029958
f
GR
GS
[0.75 0 0 0.75 101.23076 58.22627] CT
N
/f1705041251{50.043 4.827 M
48.902 4.827 47.926 4.241 QT
46.949 3.655 46.387 2.686 QT
45.824 1.717 45.824 0.561 QT
45.824 -0.314 46.137 -1.119 QT
46.449 -1.923 47.027 -2.556 QT
47.605 -3.189 48.371 -3.548 QT
49.137 -3.908 50.043 -3.908 QT
51.215 -3.908 52.176 -3.291 QT
53.137 -2.673 53.691 -1.642 QT
54.246 -0.611 54.246 0.561 QT
54.246 1.702 53.684 2.678 QT
53.121 3.655 52.145 4.241 QT
51.168 4.827 50.043 4.827 QT
cp
50.043 4.264 M
51.559 4.264 52.074 3.163 QT
52.59 2.061 52.59 0.342 QT
52.59 -0.611 52.488 -1.236 QT
52.387 -1.861 52.043 -2.376 QT
51.824 -2.689 51.496 -2.923 QT
51.168 -3.158 50.801 -3.283 QT
50.434 -3.408 50.043 -3.408 QT
49.449 -3.408 48.918 -3.142 QT
48.387 -2.876 48.027 -2.376 QT
47.684 -1.83 47.582 -1.189 QT
47.48 -0.548 47.48 0.342 QT
47.48 1.42 47.668 2.264 QT
47.855 3.108 48.418 3.686 QT
48.98 4.264 50.043 4.264 QT
cp}def
f1705041251
f
GR
GS
[0.75 0 0 0.75 101.23076 58.22627] CT
N
/f-1301752678{55.455 4.608 M
55.455 3.936 L
56.112 3.936 56.526 3.834 QT
56.94 3.733 56.94 3.342 QT
56.94 -1.845 L
56.94 -2.361 56.791 -2.587 QT
56.643 -2.814 56.354 -2.869 QT
56.065 -2.923 55.455 -2.923 QT
55.455 -3.58 L
58.221 -3.783 L
58.221 -1.939 L
58.596 -2.751 59.346 -3.267 QT
60.096 -3.783 60.971 -3.783 QT
63.159 -3.783 63.534 -2.001 QT
63.924 -2.798 64.659 -3.291 QT
65.393 -3.783 66.252 -3.783 QT
67.127 -3.783 67.713 -3.509 QT
68.299 -3.236 68.596 -2.666 QT
68.893 -2.095 68.893 -1.22 QT
68.893 3.342 L
68.893 3.733 69.315 3.834 QT
69.737 3.936 70.377 3.936 QT
70.377 4.608 L
66.034 4.608 L
66.034 3.936 L
66.674 3.936 67.096 3.834 QT
67.518 3.733 67.518 3.342 QT
67.518 -1.173 L
67.518 -2.126 67.245 -2.712 QT
66.971 -3.298 66.143 -3.298 QT
65.049 -3.298 64.33 -2.416 QT
63.612 -1.533 63.612 -0.408 QT
63.612 3.342 L
63.612 3.733 64.034 3.834 QT
64.455 3.936 65.096 3.936 QT
65.096 4.608 L
60.752 4.608 L
60.752 3.936 L
61.393 3.936 61.815 3.834 QT
62.237 3.733 62.237 3.342 QT
62.237 -1.173 L
62.237 -2.095 61.963 -2.697 QT
61.69 -3.298 60.862 -3.298 QT
59.752 -3.298 59.041 -2.416 QT
58.33 -1.533 58.33 -0.408 QT
58.33 3.342 L
58.33 3.733 58.752 3.834 QT
59.174 3.936 59.815 3.936 QT
59.815 4.608 L
55.455 4.608 L
cp}def
f-1301752678
f
GR
GS
[0.75 0 0 0.75 101.23076 58.22627] CT
N
/f795600214{77.918 4.67 M
77.918 1.561 L
77.918 1.42 78.09 1.42 QT
78.324 1.42 L
78.434 1.42 78.465 1.561 QT
78.996 4.327 81.027 4.327 QT
81.934 4.327 82.543 3.913 QT
83.152 3.499 83.152 2.655 QT
83.152 2.045 82.676 1.608 QT
82.199 1.17 81.559 1.014 QT
80.277 0.764 L
79.637 0.624 79.113 0.334 QT
78.59 0.045 78.254 -0.431 QT
77.918 -0.908 77.918 -1.533 QT
77.918 -2.376 78.363 -2.908 QT
78.809 -3.439 79.512 -3.673 QT
80.215 -3.908 81.027 -3.908 QT
82.012 -3.908 82.731 -3.392 QT
83.277 -3.861 L
83.277 -3.908 83.371 -3.908 QT
83.512 -3.908 L
83.559 -3.908 83.606 -3.861 QT
83.652 -3.814 83.652 -3.751 QT
83.652 -1.267 L
83.652 -1.095 83.512 -1.095 QT
83.277 -1.095 L
83.106 -1.095 83.106 -1.267 QT
83.106 -2.251 82.559 -2.861 QT
82.012 -3.47 81.012 -3.47 QT
80.152 -3.47 79.527 -3.15 QT
78.902 -2.83 78.902 -2.064 QT
78.902 -1.533 79.356 -1.197 QT
79.809 -0.861 80.418 -0.705 QT
81.699 -0.47 L
82.356 -0.314 82.91 0.038 QT
83.465 0.389 83.801 0.928 QT
84.137 1.467 84.137 2.139 QT
84.137 2.827 83.895 3.334 QT
83.652 3.842 83.231 4.17 QT
82.809 4.499 82.238 4.663 QT
81.668 4.827 81.027 4.827 QT
79.84 4.827 78.996 4.03 QT
78.309 4.78 L
78.309 4.827 78.199 4.827 QT
78.09 4.827 L
77.918 4.827 77.918 4.67 QT
cp}def
f795600214
f
GR
GS
[0.75 0 0 0.75 101.23076 58.22627] CT
N
/f1835998724{85.429 4.608 M
85.429 3.936 L
86.085 3.936 86.499 3.834 QT
86.913 3.733 86.913 3.342 QT
86.913 -6.642 L
86.913 -7.142 86.765 -7.369 QT
86.616 -7.595 86.327 -7.65 QT
86.038 -7.705 85.429 -7.705 QT
85.429 -8.376 L
88.257 -8.58 L
88.257 -2.048 L
88.648 -2.83 89.366 -3.306 QT
90.085 -3.783 90.944 -3.783 QT
92.257 -3.783 92.921 -3.158 QT
93.585 -2.533 93.585 -1.22 QT
93.585 3.342 L
93.585 3.733 94.007 3.834 QT
94.429 3.936 95.069 3.936 QT
95.069 4.608 L
90.726 4.608 L
90.726 3.936 L
91.366 3.936 91.788 3.834 QT
92.21 3.733 92.21 3.342 QT
92.21 -1.173 L
92.21 -2.095 91.937 -2.697 QT
91.663 -3.298 90.835 -3.298 QT
89.726 -3.298 89.015 -2.416 QT
88.304 -1.533 88.304 -0.408 QT
88.304 3.342 L
88.304 3.733 88.726 3.834 QT
89.148 3.936 89.788 3.936 QT
89.788 4.608 L
85.429 4.608 L
cp}def
f1835998724
f
GR
GS
[0.75 0 0 0.75 101.23076 58.22627] CT
N
/f1849386571{96.299 2.749 M
96.299 1.608 97.189 0.897 QT
98.08 0.186 99.322 -0.103 QT
100.564 -0.392 101.689 -0.392 QT
101.689 -1.173 L
101.689 -1.72 101.447 -2.236 QT
101.205 -2.751 100.752 -3.08 QT
100.299 -3.408 99.752 -3.408 QT
98.486 -3.408 97.83 -2.845 QT
98.189 -2.845 98.431 -2.572 QT
98.674 -2.298 98.674 -1.939 QT
98.674 -1.548 98.4 -1.283 QT
98.127 -1.017 97.767 -1.017 QT
97.377 -1.017 97.111 -1.283 QT
96.846 -1.548 96.846 -1.939 QT
96.846 -2.939 97.752 -3.423 QT
98.658 -3.908 99.752 -3.908 QT
100.517 -3.908 101.299 -3.58 QT
102.08 -3.251 102.58 -2.642 QT
103.08 -2.033 103.08 -1.205 QT
103.08 3.061 L
103.08 3.436 103.236 3.749 QT
103.392 4.061 103.721 4.061 QT
104.033 4.061 104.189 3.749 QT
104.346 3.436 104.346 3.061 QT
104.346 1.858 L
104.908 1.858 L
104.908 3.061 L
104.908 3.499 104.681 3.881 QT
104.455 4.264 104.08 4.491 QT
103.705 4.717 103.267 4.717 QT
102.721 4.717 102.314 4.288 QT
101.908 3.858 101.861 3.264 QT
101.502 3.983 100.822 4.405 QT
100.142 4.827 99.361 4.827 QT
98.627 4.827 97.931 4.608 QT
97.236 4.389 96.767 3.936 QT
96.299 3.483 96.299 2.749 QT
cp
97.83 2.749 M
97.83 3.405 98.322 3.866 QT
98.814 4.327 99.486 4.327 QT
100.096 4.327 100.596 4.014 QT
101.096 3.702 101.392 3.178 QT
101.689 2.655 101.689 2.061 QT
101.689 0.092 L
100.83 0.092 99.924 0.374 QT
99.017 0.655 98.424 1.256 QT
97.83 1.858 97.83 2.749 QT
cp}def
f1849386571
f
GR
GS
[0.75 0 0 0.75 101.23076 58.22627] CT
N
/f493795185{105.617 4.608 M
105.617 3.936 L
106.274 3.936 106.688 3.834 QT
107.102 3.733 107.102 3.342 QT
107.102 -6.642 L
107.102 -7.142 106.953 -7.369 QT
106.805 -7.595 106.516 -7.65 QT
106.227 -7.705 105.617 -7.705 QT
105.617 -8.376 L
108.43 -8.58 L
108.43 0.436 L
110.992 -1.798 L
111.367 -2.158 111.367 -2.455 QT
111.367 -2.689 111.211 -2.806 QT
111.055 -2.923 110.836 -2.923 QT
110.836 -3.58 L
114.399 -3.58 L
114.399 -2.923 L
113.117 -2.923 111.821 -1.798 QT
110.461 -0.611 L
112.883 2.811 L
113.383 3.53 113.727 3.733 QT
114.071 3.936 114.852 3.936 QT
114.852 4.608 L
111.055 4.608 L
111.055 3.936 L
111.711 3.936 111.711 3.545 QT
111.711 3.249 111.367 2.811 QT
109.539 0.217 L
108.383 1.217 L
108.383 3.342 L
108.383 3.733 108.805 3.834 QT
109.227 3.936 109.867 3.936 QT
109.867 4.608 L
105.617 4.608 L
cp}def
f493795185
f
GR
GS
[0.75 0 0 0.75 101.23076 58.22627] CT
N
/f-1789128383{119.467 4.827 M
118.311 4.827 117.342 4.217 QT
116.374 3.608 115.819 2.592 QT
115.264 1.577 115.264 0.436 QT
115.264 -0.673 115.772 -1.673 QT
116.28 -2.673 117.178 -3.291 QT
118.077 -3.908 119.202 -3.908 QT
120.061 -3.908 120.71 -3.619 QT
121.358 -3.33 121.772 -2.806 QT
122.186 -2.283 122.405 -1.58 QT
122.624 -0.876 122.624 -0.033 QT
122.624 0.217 122.421 0.217 QT
116.921 0.217 L
116.921 0.42 L
116.921 1.999 117.553 3.131 QT
118.186 4.264 119.639 4.264 QT
120.217 4.264 120.71 4.006 QT
121.202 3.749 121.569 3.28 QT
121.936 2.811 122.077 2.295 QT
122.092 2.217 122.139 2.17 QT
122.186 2.124 122.264 2.124 QT
122.421 2.124 L
122.624 2.124 122.624 2.358 QT
122.342 3.436 121.452 4.131 QT
120.561 4.827 119.467 4.827 QT
cp
116.936 -0.251 M
121.28 -0.251 L
121.28 -0.97 121.077 -1.705 QT
120.874 -2.439 120.413 -2.923 QT
119.952 -3.408 119.202 -3.408 QT
118.124 -3.408 117.53 -2.4 QT
116.936 -1.392 116.936 -0.251 QT
cp}def
f-1789128383
f
GR
GS
[0.75 0 0 0.75 101.23076 58.22627] CT
N
/f-656182100{131.604 2.327 M
131.604 -2.923 L
130.026 -2.923 L
130.026 -3.408 L
131.276 -3.408 131.862 -4.564 QT
132.448 -5.72 132.448 -7.08 QT
132.995 -7.08 L
132.995 -3.58 L
135.666 -3.58 L
135.666 -2.923 L
132.995 -2.923 L
132.995 2.295 L
132.995 3.077 133.252 3.67 QT
133.51 4.264 134.198 4.264 QT
134.854 4.264 135.143 3.639 QT
135.432 3.014 135.432 2.295 QT
135.432 1.17 L
135.979 1.17 L
135.979 2.327 L
135.979 2.92 135.76 3.499 QT
135.541 4.077 135.112 4.452 QT
134.682 4.827 134.073 4.827 QT
132.932 4.827 132.268 4.139 QT
131.604 3.452 131.604 2.327 QT
cp}def
f-656182100
f
GR
GS
[0.75 0 0 0.75 101.23076 58.22627] CT
N
/f-545754467{137.696 4.608 M
137.696 3.936 L
138.352 3.936 138.766 3.834 QT
139.18 3.733 139.18 3.342 QT
139.18 -6.642 L
139.18 -7.142 139.032 -7.369 QT
138.883 -7.595 138.594 -7.65 QT
138.305 -7.705 137.696 -7.705 QT
137.696 -8.376 L
140.524 -8.58 L
140.524 -2.048 L
140.914 -2.83 141.633 -3.306 QT
142.352 -3.783 143.211 -3.783 QT
144.524 -3.783 145.188 -3.158 QT
145.852 -2.533 145.852 -1.22 QT
145.852 3.342 L
145.852 3.733 146.274 3.834 QT
146.696 3.936 147.336 3.936 QT
147.336 4.608 L
142.992 4.608 L
142.992 3.936 L
143.633 3.936 144.055 3.834 QT
144.477 3.733 144.477 3.342 QT
144.477 -1.173 L
144.477 -2.095 144.203 -2.697 QT
143.93 -3.298 143.102 -3.298 QT
141.992 -3.298 141.282 -2.416 QT
140.571 -1.533 140.571 -0.408 QT
140.571 3.342 L
140.571 3.733 140.992 3.834 QT
141.414 3.936 142.055 3.936 QT
142.055 4.608 L
137.696 4.608 L
cp}def
f-545754467
f
GR
GS
[0.75 0 0 0.75 101.23076 58.22627] CT
N
/f1051251484{152.534 4.827 M
151.378 4.827 150.409 4.217 QT
149.44 3.608 148.886 2.592 QT
148.331 1.577 148.331 0.436 QT
148.331 -0.673 148.839 -1.673 QT
149.347 -2.673 150.245 -3.291 QT
151.144 -3.908 152.269 -3.908 QT
153.128 -3.908 153.776 -3.619 QT
154.425 -3.33 154.839 -2.806 QT
155.253 -2.283 155.472 -1.58 QT
155.69 -0.876 155.69 -0.033 QT
155.69 0.217 155.487 0.217 QT
149.987 0.217 L
149.987 0.42 L
149.987 1.999 150.62 3.131 QT
151.253 4.264 152.706 4.264 QT
153.284 4.264 153.776 4.006 QT
154.269 3.749 154.636 3.28 QT
155.003 2.811 155.144 2.295 QT
155.159 2.217 155.206 2.17 QT
155.253 2.124 155.331 2.124 QT
155.487 2.124 L
155.69 2.124 155.69 2.358 QT
155.409 3.436 154.519 4.131 QT
153.628 4.827 152.534 4.827 QT
cp
150.003 -0.251 M
154.347 -0.251 L
154.347 -0.97 154.144 -1.705 QT
153.94 -2.439 153.479 -2.923 QT
153.019 -3.408 152.269 -3.408 QT
151.19 -3.408 150.597 -2.4 QT
150.003 -1.392 150.003 -0.251 QT
cp}def
f1051251484
f
GR
GS
[0.75 0 0 0.75 101.23076 58.22627] CT
N
/f-801864943{164.702 4.608 M
164.702 -6.642 L
164.702 -7.142 164.553 -7.369 QT
164.405 -7.595 164.116 -7.65 QT
163.827 -7.705 163.217 -7.705 QT
163.217 -8.376 L
166.03 -8.58 L
166.03 -2.626 L
166.358 -2.986 166.78 -3.251 QT
167.202 -3.517 167.678 -3.65 QT
168.155 -3.783 168.655 -3.783 QT
169.514 -3.783 170.241 -3.439 QT
170.967 -3.095 171.507 -2.494 QT
172.046 -1.892 172.35 -1.111 QT
172.655 -0.33 172.655 0.514 QT
172.655 1.655 172.092 2.647 QT
171.53 3.639 170.561 4.233 QT
169.592 4.827 168.436 4.827 QT
167.702 4.827 167.03 4.452 QT
166.358 4.077 165.905 3.467 QT
165.264 4.608 L
164.702 4.608 L
cp
166.092 2.749 M
166.405 3.436 166.999 3.881 QT
167.592 4.327 168.311 4.327 QT
169.296 4.327 169.905 3.756 QT
170.514 3.186 170.757 2.327 QT
170.999 1.467 170.999 0.514 QT
170.999 -1.095 170.577 -1.939 QT
170.389 -2.298 170.069 -2.619 QT
169.749 -2.939 169.358 -3.119 QT
168.967 -3.298 168.53 -3.298 QT
167.764 -3.298 167.116 -2.892 QT
166.467 -2.486 166.092 -1.814 QT
166.092 2.749 L
cp}def
f-801864943
f
GR
GS
[0.75 0 0 0.75 101.23076 58.22627] CT
N
/f-312598558{178.683 4.827 M
177.543 4.827 176.566 4.241 QT
175.589 3.655 175.027 2.686 QT
174.464 1.717 174.464 0.561 QT
174.464 -0.314 174.777 -1.119 QT
175.089 -1.923 175.668 -2.556 QT
176.246 -3.189 177.011 -3.548 QT
177.777 -3.908 178.683 -3.908 QT
179.855 -3.908 180.816 -3.291 QT
181.777 -2.673 182.332 -1.642 QT
182.886 -0.611 182.886 0.561 QT
182.886 1.702 182.324 2.678 QT
181.761 3.655 180.785 4.241 QT
179.808 4.827 178.683 4.827 QT
cp
178.683 4.264 M
180.199 4.264 180.714 3.163 QT
181.23 2.061 181.23 0.342 QT
181.23 -0.611 181.128 -1.236 QT
181.027 -1.861 180.683 -2.376 QT
180.464 -2.689 180.136 -2.923 QT
179.808 -3.158 179.441 -3.283 QT
179.074 -3.408 178.683 -3.408 QT
178.089 -3.408 177.558 -3.142 QT
177.027 -2.876 176.668 -2.376 QT
176.324 -1.83 176.222 -1.189 QT
176.121 -0.548 176.121 0.342 QT
176.121 1.42 176.308 2.264 QT
176.496 3.108 177.058 3.686 QT
177.621 4.264 178.683 4.264 QT
cp}def
f-312598558
f
GR
GS
[0.75 0 0 0.75 101.23076 58.22627] CT
N
/f-49459580{183.234 4.608 M
183.234 3.936 L
183.953 3.936 184.594 3.655 QT
185.234 3.374 185.687 2.811 QT
187.406 0.624 L
185.156 -2.298 L
184.828 -2.72 184.437 -2.822 QT
184.047 -2.923 183.328 -2.923 QT
183.328 -3.58 L
187.281 -3.58 L
187.281 -2.923 L
187.031 -2.923 186.812 -2.806 QT
186.594 -2.689 186.594 -2.486 QT
186.594 -2.408 186.64 -2.298 QT
188.172 -0.33 L
189.312 -1.798 L
189.547 -2.08 189.547 -2.345 QT
189.547 -2.58 189.39 -2.751 QT
189.234 -2.923 188.984 -2.923 QT
188.984 -3.58 L
192.484 -3.58 L
192.484 -2.923 L
191.75 -2.923 191.101 -2.634 QT
190.453 -2.345 190.015 -1.798 QT
188.515 0.124 L
190.937 3.342 L
191.297 3.749 191.687 3.842 QT
192.078 3.936 192.812 3.936 QT
192.812 4.608 L
188.859 4.608 L
188.859 3.936 L
189.094 3.936 189.305 3.827 QT
189.515 3.717 189.515 3.499 QT
189.515 3.42 189.453 3.342 QT
187.75 1.077 L
186.39 2.811 L
186.172 3.061 186.172 3.374 QT
186.172 3.608 186.328 3.772 QT
186.484 3.936 186.703 3.936 QT
186.703 4.608 L
183.234 4.608 L
cp}def
f-49459580
f
GR
GS
[0.75 0 0 0.75 0 0] CT
0.851 0.325 0.098 RC
1 LJ
2.667 LW
N
91.998 77.635 M
131.976 77.635 L
S
GR
GS
[0.75 0 0 0.75 0 0] CT
0.149 GC
10.0 ML
0.667 LW
N
88 91 M
88 41 L
332 41 L
332 91 L
cp
S
GR
%%Trailer
%%Pages: 1
%%EOF
