%!PS-Adobe-3.0 EPSF-3.0
%%Creator: (MATLAB, The Mathworks, Inc. Version 9.6.0.1072779 \(R2019a\). Operating System: Windows 10)
%%Title: (D:/YUTAO ZHENG/1_Course in Cambridge/Lab work/07_reconstruction/code/1DNS/ui_comp_withBCs.eps)
%%CreationDate: 2020-10-21T16:02:06
%%Pages: (atend)
%%BoundingBox: 0 0 420 315
%%LanguageLevel: 3
%%EndComments
%%BeginProlog
%%BeginResource: procset (Apache XML Graphics Std ProcSet) 1.2 0
%%Version: 1.2 0
%%Copyright: (Copyright 2001-2003,2010 The Apache Software Foundation. License terms: http://www.apache.org/licenses/LICENSE-2.0)
/bd{bind def}bind def
/ld{load def}bd
/GR/grestore ld
/GS/gsave ld
/RM/rmoveto ld
/C/curveto ld
/t/show ld
/L/lineto ld
/ML/setmiterlimit ld
/CT/concat ld
/f/fill ld
/N/newpath ld
/S/stroke ld
/CC/setcmykcolor ld
/A/ashow ld
/cp/closepath ld
/RC/setrgbcolor ld
/LJ/setlinejoin ld
/GC/setgray ld
/LW/setlinewidth ld
/M/moveto ld
/re {4 2 roll M
1 index 0 rlineto
0 exch rlineto
neg 0 rlineto
cp } bd
/_ctm matrix def
/_tm matrix def
/BT { _ctm currentmatrix pop matrix _tm copy pop 0 0 moveto } bd
/ET { _ctm setmatrix } bd
/iTm { _ctm setmatrix _tm concat } bd
/Tm { _tm astore pop iTm 0 0 moveto } bd
/ux 0.0 def
/uy 0.0 def
/F {
  /Tp exch def
  /Tf exch def
  Tf findfont Tp scalefont setfont
  /cf Tf def  /cs Tp def
} bd
/ULS {currentpoint /uy exch def /ux exch def} bd
/ULE {
  /Tcx currentpoint pop def
  gsave
  newpath
  cf findfont cs scalefont dup
  /FontMatrix get 0 get /Ts exch def /FontInfo get dup
  /UnderlinePosition get Ts mul /To exch def
  /UnderlineThickness get Ts mul /Tt exch def
  ux uy To add moveto  Tcx uy To add lineto
  Tt setlinewidth stroke
  grestore
} bd
/OLE {
  /Tcx currentpoint pop def
  gsave
  newpath
  cf findfont cs scalefont dup
  /FontMatrix get 0 get /Ts exch def /FontInfo get dup
  /UnderlinePosition get Ts mul /To exch def
  /UnderlineThickness get Ts mul /Tt exch def
  ux uy To add cs add moveto Tcx uy To add cs add lineto
  Tt setlinewidth stroke
  grestore
} bd
/SOE {
  /Tcx currentpoint pop def
  gsave
  newpath
  cf findfont cs scalefont dup
  /FontMatrix get 0 get /Ts exch def /FontInfo get dup
  /UnderlinePosition get Ts mul /To exch def
  /UnderlineThickness get Ts mul /Tt exch def
  ux uy To add cs 10 mul 26 idiv add moveto Tcx uy To add cs 10 mul 26 idiv add lineto
  Tt setlinewidth stroke
  grestore
} bd
/QT {
/Y22 exch store
/X22 exch store
/Y21 exch store
/X21 exch store
currentpoint
/Y21 load 2 mul add 3 div exch
/X21 load 2 mul add 3 div exch
/X21 load 2 mul /X22 load add 3 div
/Y21 load 2 mul /Y22 load add 3 div
/X22 load /Y22 load curveto
} bd
/SSPD {
dup length /d exch dict def
{
/v exch def
/k exch def
currentpagedevice k known {
/cpdv currentpagedevice k get def
v cpdv ne {
/upd false def
/nullv v type /nulltype eq def
/nullcpdv cpdv type /nulltype eq def
nullv nullcpdv or
{
/upd true def
} {
/sametype v type cpdv type eq def
sametype {
v type /arraytype eq {
/vlen v length def
/cpdvlen cpdv length def
vlen cpdvlen eq {
0 1 vlen 1 sub {
/i exch def
/obj v i get def
/cpdobj cpdv i get def
obj cpdobj ne {
/upd true def
exit
} if
} for
} {
/upd true def
} ifelse
} {
v type /dicttype eq {
v {
/dv exch def
/dk exch def
/cpddv cpdv dk get def
dv cpddv ne {
/upd true def
exit
} if
} forall
} {
/upd true def
} ifelse
} ifelse
} if
} ifelse
upd true eq {
d k v put
} if
} if
} if
} forall
d length 0 gt {
d setpagedevice
} if
} bd
/RE { % /NewFontName [NewEncodingArray] /FontName RE -
  findfont dup length dict begin
  {
    1 index /FID ne
    {def} {pop pop} ifelse
  } forall
  /Encoding exch def
  /FontName 1 index def
  currentdict definefont pop
  end
} bind def
%%EndResource
%%BeginResource: procset (Apache XML Graphics EPS ProcSet) 1.0 0
%%Version: 1.0 0
%%Copyright: (Copyright 2002-2003 The Apache Software Foundation. License terms: http://www.apache.org/licenses/LICENSE-2.0)
/BeginEPSF { %def
/b4_Inc_state save def         % Save state for cleanup
/dict_count countdictstack def % Count objects on dict stack
/op_count count 1 sub def      % Count objects on operand stack
userdict begin                 % Push userdict on dict stack
/showpage { } def              % Redefine showpage, { } = null proc
0 setgray 0 setlinecap         % Prepare graphics state
1 setlinewidth 0 setlinejoin
10 setmiterlimit [ ] 0 setdash newpath
/languagelevel where           % If level not equal to 1 then
{pop languagelevel             % set strokeadjust and
1 ne                           % overprint to their defaults.
{false setstrokeadjust false setoverprint
} if
} if
} bd
/EndEPSF { %def
count op_count sub {pop} repeat            % Clean up stacks
countdictstack dict_count sub {end} repeat
b4_Inc_state restore
} bd
%%EndResource
%FOPBeginFontDict
%%IncludeResource: font Courier-Oblique
%%IncludeResource: font Courier-BoldOblique
%%IncludeResource: font Courier-Bold
%%IncludeResource: font ZapfDingbats
%%IncludeResource: font Symbol
%%IncludeResource: font Helvetica
%%IncludeResource: font Helvetica-Oblique
%%IncludeResource: font Helvetica-Bold
%%IncludeResource: font Helvetica-BoldOblique
%%IncludeResource: font Times-Roman
%%IncludeResource: font Times-Italic
%%IncludeResource: font Times-Bold
%%IncludeResource: font Times-BoldItalic
%%IncludeResource: font Courier
%FOPEndFontDict
%%BeginResource: encoding WinAnsiEncoding
/WinAnsiEncoding [
/.notdef /.notdef /.notdef /.notdef /.notdef
/.notdef /.notdef /.notdef /.notdef /.notdef
/.notdef /.notdef /.notdef /.notdef /.notdef
/.notdef /.notdef /.notdef /.notdef /.notdef
/.notdef /.notdef /.notdef /.notdef /.notdef
/.notdef /.notdef /.notdef /.notdef /.notdef
/.notdef /.notdef /space /exclam /quotedbl
/numbersign /dollar /percent /ampersand /quotesingle
/parenleft /parenright /asterisk /plus /comma
/hyphen /period /slash /zero /one
/two /three /four /five /six
/seven /eight /nine /colon /semicolon
/less /equal /greater /question /at
/A /B /C /D /E
/F /G /H /I /J
/K /L /M /N /O
/P /Q /R /S /T
/U /V /W /X /Y
/Z /bracketleft /backslash /bracketright /asciicircum
/underscore /quoteleft /a /b /c
/d /e /f /g /h
/i /j /k /l /m
/n /o /p /q /r
/s /t /u /v /w
/x /y /z /braceleft /bar
/braceright /asciitilde /bullet /Euro /bullet
/quotesinglbase /florin /quotedblbase /ellipsis /dagger
/daggerdbl /circumflex /perthousand /Scaron /guilsinglleft
/OE /bullet /Zcaron /bullet /bullet
/quoteleft /quoteright /quotedblleft /quotedblright /bullet
/endash /emdash /asciitilde /trademark /scaron
/guilsinglright /oe /bullet /zcaron /Ydieresis
/space /exclamdown /cent /sterling /currency
/yen /brokenbar /section /dieresis /copyright
/ordfeminine /guillemotleft /logicalnot /sfthyphen /registered
/macron /degree /plusminus /twosuperior /threesuperior
/acute /mu /paragraph /middot /cedilla
/onesuperior /ordmasculine /guillemotright /onequarter /onehalf
/threequarters /questiondown /Agrave /Aacute /Acircumflex
/Atilde /Adieresis /Aring /AE /Ccedilla
/Egrave /Eacute /Ecircumflex /Edieresis /Igrave
/Iacute /Icircumflex /Idieresis /Eth /Ntilde
/Ograve /Oacute /Ocircumflex /Otilde /Odieresis
/multiply /Oslash /Ugrave /Uacute /Ucircumflex
/Udieresis /Yacute /Thorn /germandbls /agrave
/aacute /acircumflex /atilde /adieresis /aring
/ae /ccedilla /egrave /eacute /ecircumflex
/edieresis /igrave /iacute /icircumflex /idieresis
/eth /ntilde /ograve /oacute /ocircumflex
/otilde /odieresis /divide /oslash /ugrave
/uacute /ucircumflex /udieresis /yacute /thorn
/ydieresis
] def
%%EndResource
%FOPBeginFontReencode
/Courier-Oblique findfont
dup length dict begin
  {1 index /FID ne {def} {pop pop} ifelse} forall
  /Encoding WinAnsiEncoding def
  currentdict
end
/Courier-Oblique exch definefont pop
/Courier-BoldOblique findfont
dup length dict begin
  {1 index /FID ne {def} {pop pop} ifelse} forall
  /Encoding WinAnsiEncoding def
  currentdict
end
/Courier-BoldOblique exch definefont pop
/Courier-Bold findfont
dup length dict begin
  {1 index /FID ne {def} {pop pop} ifelse} forall
  /Encoding WinAnsiEncoding def
  currentdict
end
/Courier-Bold exch definefont pop
/Helvetica findfont
dup length dict begin
  {1 index /FID ne {def} {pop pop} ifelse} forall
  /Encoding WinAnsiEncoding def
  currentdict
end
/Helvetica exch definefont pop
/Helvetica-Oblique findfont
dup length dict begin
  {1 index /FID ne {def} {pop pop} ifelse} forall
  /Encoding WinAnsiEncoding def
  currentdict
end
/Helvetica-Oblique exch definefont pop
/Helvetica-Bold findfont
dup length dict begin
  {1 index /FID ne {def} {pop pop} ifelse} forall
  /Encoding WinAnsiEncoding def
  currentdict
end
/Helvetica-Bold exch definefont pop
/Helvetica-BoldOblique findfont
dup length dict begin
  {1 index /FID ne {def} {pop pop} ifelse} forall
  /Encoding WinAnsiEncoding def
  currentdict
end
/Helvetica-BoldOblique exch definefont pop
/Times-Roman findfont
dup length dict begin
  {1 index /FID ne {def} {pop pop} ifelse} forall
  /Encoding WinAnsiEncoding def
  currentdict
end
/Times-Roman exch definefont pop
/Times-Italic findfont
dup length dict begin
  {1 index /FID ne {def} {pop pop} ifelse} forall
  /Encoding WinAnsiEncoding def
  currentdict
end
/Times-Italic exch definefont pop
/Times-Bold findfont
dup length dict begin
  {1 index /FID ne {def} {pop pop} ifelse} forall
  /Encoding WinAnsiEncoding def
  currentdict
end
/Times-Bold exch definefont pop
/Times-BoldItalic findfont
dup length dict begin
  {1 index /FID ne {def} {pop pop} ifelse} forall
  /Encoding WinAnsiEncoding def
  currentdict
end
/Times-BoldItalic exch definefont pop
/Courier findfont
dup length dict begin
  {1 index /FID ne {def} {pop pop} ifelse} forall
  /Encoding WinAnsiEncoding def
  currentdict
end
/Courier exch definefont pop
%FOPEndFontReencode
%%EndProlog
%%Page: 1 1
%%PageBoundingBox: 0 0 420 315
%%BeginPageSetup
[1 0 0 -1 0 315] CT
%%EndPageSetup
GS
[0.75 0 0 0.75 0 0] CT
1 GC
N
0 0 560 420 re
f
GR
GS
[0.75 0 0 0.75 0 0] CT
1 GC
N
0 0 560 420 re
f
GR
GS
[0.75 0 0 0.75 0 0] CT
1 GC
N
73 358 M
507 358 L
507 33 L
73 33 L
cp
f
GR
GS
[0.75 0 0 0.75 0 0] CT
0.873 GC
1 LJ
0.667 LW
N
73 358 M
73 33 L
S
GR
GS
[0.75 0 0 0.75 0 0] CT
0.873 GC
1 LJ
0.667 LW
N
159.8 358 M
159.8 33 L
S
GR
GS
[0.75 0 0 0.75 0 0] CT
0.873 GC
1 LJ
0.667 LW
N
246.6 358 M
246.6 33 L
S
GR
GS
[0.75 0 0 0.75 0 0] CT
0.873 GC
1 LJ
0.667 LW
N
333.4 358 M
333.4 33 L
S
GR
GS
[0.75 0 0 0.75 0 0] CT
0.873 GC
1 LJ
0.667 LW
N
420.2 358 M
420.2 33 L
S
GR
GS
[0.75 0 0 0.75 0 0] CT
0.873 GC
1 LJ
0.667 LW
N
507 358 M
507 33 L
S
GR
GS
[0.75 0 0 0.75 0 0] CT
0.873 GC
1 LJ
0.667 LW
N
507 358 M
73 358 L
S
GR
GS
[0.75 0 0 0.75 0 0] CT
0.873 GC
1 LJ
0.667 LW
N
507 195.5 M
73 195.5 L
S
GR
GS
[0.75 0 0 0.75 0 0] CT
0.873 GC
1 LJ
0.667 LW
N
507 33 M
73 33 L
S
GR
GS
[0.75 0 0 0.75 0 0] CT
0.149 GC
2 setlinecap
1 LJ
0.667 LW
N
73 358 M
507 358 L
S
GR
GS
[0.75 0 0 0.75 0 0] CT
0.149 GC
2 setlinecap
1 LJ
0.667 LW
N
73 33 M
507 33 L
S
GR
GS
[0.75 0 0 0.75 0 0] CT
0.149 GC
2 setlinecap
1 LJ
0.667 LW
N
73 358 M
73 353.66 L
S
GR
GS
[0.75 0 0 0.75 0 0] CT
0.149 GC
2 setlinecap
1 LJ
0.667 LW
N
159.8 358 M
159.8 353.66 L
S
GR
GS
[0.75 0 0 0.75 0 0] CT
0.149 GC
2 setlinecap
1 LJ
0.667 LW
N
246.6 358 M
246.6 353.66 L
S
GR
GS
[0.75 0 0 0.75 0 0] CT
0.149 GC
2 setlinecap
1 LJ
0.667 LW
N
333.4 358 M
333.4 353.66 L
S
GR
GS
[0.75 0 0 0.75 0 0] CT
0.149 GC
2 setlinecap
1 LJ
0.667 LW
N
420.2 358 M
420.2 353.66 L
S
GR
GS
[0.75 0 0 0.75 0 0] CT
0.149 GC
2 setlinecap
1 LJ
0.667 LW
N
507 358 M
507 353.66 L
S
GR
GS
[0.75 0 0 0.75 0 0] CT
0.149 GC
2 setlinecap
1 LJ
0.667 LW
N
73 33 M
73 37.34 L
S
GR
GS
[0.75 0 0 0.75 0 0] CT
0.149 GC
2 setlinecap
1 LJ
0.667 LW
N
159.8 33 M
159.8 37.34 L
S
GR
GS
[0.75 0 0 0.75 0 0] CT
0.149 GC
2 setlinecap
1 LJ
0.667 LW
N
246.6 33 M
246.6 37.34 L
S
GR
GS
[0.75 0 0 0.75 0 0] CT
0.149 GC
2 setlinecap
1 LJ
0.667 LW
N
333.4 33 M
333.4 37.34 L
S
GR
GS
[0.75 0 0 0.75 0 0] CT
0.149 GC
2 setlinecap
1 LJ
0.667 LW
N
420.2 33 M
420.2 37.34 L
S
GR
GS
[0.75 0 0 0.75 0 0] CT
0.149 GC
2 setlinecap
1 LJ
0.667 LW
N
507 33 M
507 37.34 L
S
GR
GS
[0.75 0 0 0.75 54.75 273.70001] CT
0.149 GC
/Times-Roman 21.333 F
GS
[1 0 0 1 0 0] CT
-5.5 20 moveto 
1 -1 scale
(0) t 
GR
GR
GS
[0.75 0 0 0.75 119.85 273.70001] CT
0.149 GC
/Times-Roman 21.333 F
GS
[1 0 0 1 0 0] CT
-13.5 20 moveto 
1 -1 scale
(0.2) t 
GR
GR
GS
[0.75 0 0 0.75 184.95 273.70001] CT
0.149 GC
/Times-Roman 21.333 F
GS
[1 0 0 1 0 0] CT
-13.5 20 moveto 
1 -1 scale
(0.4) t 
GR
GR
GS
[0.75 0 0 0.75 250.05002 273.70001] CT
0.149 GC
/Times-Roman 21.333 F
GS
[1 0 0 1 0 0] CT
-13.5 20 moveto 
1 -1 scale
(0.6) t 
GR
GR
GS
[0.75 0 0 0.75 315.15001 273.70001] CT
0.149 GC
/Times-Roman 21.333 F
GS
[1 0 0 1 0 0] CT
-13.5 20 moveto 
1 -1 scale
(0.8) t 
GR
GR
GS
[0.75 0 0 0.75 380.25 273.70001] CT
0.149 GC
/Times-Roman 21.333 F
GS
[1 0 0 1 0 0] CT
-5.5 20 moveto 
1 -1 scale
(1) t 
GR
GR
GS
[0.75 0 0 0.75 217.50016 294.2] CT
0.149 GC
N
-23.454 19.056 M
-23.048 19.368 -22.314 19.368 QT
-21.595 19.368 -21.04 18.673 QT
-20.486 17.978 -20.282 17.165 QT
-19.236 13.087 L
-19.001 11.978 -19.001 11.571 QT
-19.001 10.993 -19.321 10.571 QT
-19.642 10.149 -20.204 10.149 QT
-20.939 10.149 -21.579 10.603 QT
-22.22 11.056 -22.657 11.759 QT
-23.095 12.462 -23.267 13.181 QT
-23.314 13.321 -23.454 13.321 QT
-23.736 13.321 L
-23.907 13.321 -23.907 13.103 QT
-23.907 13.04 L
-23.689 12.181 -23.15 11.368 QT
-22.611 10.556 -21.829 10.056 QT
-21.048 9.556 -20.157 9.556 QT
-19.314 9.556 -18.642 10.001 QT
-17.97 10.446 -17.689 11.228 QT
-17.282 10.509 -16.673 10.032 QT
-16.064 9.556 -15.329 9.556 QT
-14.845 9.556 -14.329 9.728 QT
-13.814 9.899 -13.486 10.259 QT
-13.157 10.618 -13.157 11.149 QT
-13.157 11.743 -13.532 12.165 QT
-13.907 12.587 -14.486 12.587 QT
-14.861 12.587 -15.111 12.345 QT
-15.361 12.103 -15.361 11.743 QT
-15.361 11.259 -15.025 10.899 QT
-14.689 10.54 -14.236 10.462 QT
-14.642 10.149 -15.376 10.149 QT
-16.126 10.149 -16.665 10.829 QT
-17.204 11.509 -17.439 12.353 QT
-18.439 16.415 L
-18.689 17.337 -18.689 17.931 QT
-18.689 18.524 -18.361 18.946 QT
-18.032 19.368 -17.486 19.368 QT
-16.407 19.368 -15.556 18.415 QT
-14.704 17.462 -14.439 16.337 QT
-14.392 16.196 -14.251 16.196 QT
-13.97 16.196 L
-13.892 16.196 -13.829 16.259 QT
-13.767 16.321 -13.767 16.399 QT
-13.767 16.415 -13.798 16.462 QT
-14.126 17.837 -15.165 18.907 QT
-16.204 19.978 -17.517 19.978 QT
-18.361 19.978 -19.04 19.517 QT
-19.72 19.056 -20.001 18.29 QT
-20.361 18.962 -21.001 19.47 QT
-21.642 19.978 -22.361 19.978 QT
-22.845 19.978 -23.368 19.798 QT
-23.892 19.618 -24.22 19.259 QT
-24.548 18.899 -24.548 18.353 QT
-24.548 17.821 -24.173 17.376 QT
-23.798 16.931 -23.236 16.931 QT
-22.845 16.931 -22.587 17.157 QT
-22.329 17.384 -22.329 17.759 QT
-22.329 18.243 -22.65 18.603 QT
-22.97 18.962 -23.454 19.056 QT
cp
f
GR
GS
[0.75 0 0 0.75 217.50016 294.2] CT
0.149 GC
N
-10.542 25.009 M
-10.542 24.931 -10.527 24.915 QT
-2.527 2.743 L
-2.48 2.603 -2.371 2.532 QT
-2.261 2.462 -2.121 2.462 QT
-1.917 2.462 -1.785 2.587 QT
-1.652 2.712 -1.652 2.915 QT
-1.652 3.009 L
-9.652 25.181 L
-9.777 25.462 -10.089 25.462 QT
-10.277 25.462 -10.41 25.329 QT
-10.542 25.196 -10.542 25.009 QT
cp
f
GR
GS
[0.75 0 0 0.75 217.50016 294.2] CT
0.149 GC
N
0.972 19.712 M
0.753 19.712 0.753 19.415 QT
0.753 19.353 0.793 19.212 QT
0.832 19.071 0.894 18.985 QT
0.957 18.899 1.035 18.899 QT
2.441 18.899 2.988 18.743 QT
3.3 18.649 3.425 18.134 QT
6.582 5.493 L
6.628 5.274 6.628 5.181 QT
6.628 4.931 6.347 4.899 QT
5.925 4.806 4.707 4.806 QT
4.472 4.806 4.472 4.509 QT
4.55 4.212 4.597 4.103 QT
4.644 3.993 4.863 3.993 QT
11.66 3.993 L
11.847 3.993 11.847 4.306 QT
11.816 4.54 11.777 4.673 QT
11.738 4.806 11.55 4.806 QT
9.863 4.806 9.285 4.915 QT
8.722 5.024 8.582 5.603 QT
5.441 18.212 L
5.347 18.493 5.347 18.728 QT
5.347 18.899 6.128 18.899 QT
8.253 18.899 L
10.066 18.899 11.191 18.181 QT
12.316 17.462 12.855 16.563 QT
13.394 15.665 13.761 14.688 QT
14.128 13.712 14.285 13.681 QT
14.488 13.681 L
14.722 13.681 14.722 13.978 QT
12.691 19.556 L
12.66 19.712 12.472 19.712 QT
0.972 19.712 L
cp
f
GR
GS
[0.75 0 0 0.75 217.50016 294.2] CT
0.149 GC
N
19.864 23.591 M
17.911 23.591 17.2 21.974 QT
16.489 20.357 16.489 18.123 QT
16.489 16.732 16.747 15.505 QT
17.005 14.279 17.755 13.427 QT
18.505 12.576 19.864 12.576 QT
20.927 12.576 21.599 13.091 QT
22.271 13.607 22.622 14.419 QT
22.974 15.232 23.099 16.169 QT
23.224 17.107 23.224 18.123 QT
23.224 19.498 22.974 20.701 QT
22.724 21.904 21.982 22.748 QT
21.239 23.591 19.864 23.591 QT
cp
19.864 23.169 M
20.755 23.169 21.193 22.255 QT
21.63 21.341 21.732 20.232 QT
21.833 19.123 21.833 17.873 QT
21.833 16.669 21.732 15.654 QT
21.63 14.638 21.2 13.81 QT
20.771 12.982 19.864 12.982 QT
18.958 12.982 18.521 13.81 QT
18.083 14.638 17.982 15.654 QT
17.88 16.669 17.88 17.873 QT
17.88 18.763 17.927 19.552 QT
17.974 20.341 18.161 21.177 QT
18.349 22.013 18.763 22.591 QT
19.177 23.169 19.864 23.169 QT
cp
f
GR
GS
[0.75 0 0 0.75 0 0] CT
0.149 GC
2 setlinecap
1 LJ
0.667 LW
N
73 358 M
73 33 L
S
GR
GS
[0.75 0 0 0.75 0 0] CT
0.149 GC
2 setlinecap
1 LJ
0.667 LW
N
507 358 M
507 33 L
S
GR
GS
[0.75 0 0 0.75 0 0] CT
0.149 GC
2 setlinecap
1 LJ
0.667 LW
N
73 358 M
77.34 358 L
S
GR
GS
[0.75 0 0 0.75 0 0] CT
0.149 GC
2 setlinecap
1 LJ
0.667 LW
N
73 195.5 M
77.34 195.5 L
S
GR
GS
[0.75 0 0 0.75 0 0] CT
0.149 GC
2 setlinecap
1 LJ
0.667 LW
N
73 33 M
77.34 33 L
S
GR
GS
[0.75 0 0 0.75 0 0] CT
0.149 GC
2 setlinecap
1 LJ
0.667 LW
N
507 358 M
502.66 358 L
S
GR
GS
[0.75 0 0 0.75 0 0] CT
0.149 GC
2 setlinecap
1 LJ
0.667 LW
N
507 195.5 M
502.66 195.5 L
S
GR
GS
[0.75 0 0 0.75 0 0] CT
0.149 GC
2 setlinecap
1 LJ
0.667 LW
N
507 33 M
502.66 33 L
S
GR
GS
[0.75 0 0 0.75 49.55 268.5] CT
0.149 GC
/Times-Roman 21.333 F
GS
[1 0 0 1 0 0] CT
-34 7.5 moveto 
1 -1 scale
(-0.5) t 
GR
GR
GS
[0.75 0 0 0.75 49.55 146.625] CT
0.149 GC
/Times-Roman 21.333 F
GS
[1 0 0 1 0 0] CT
-11 7.5 moveto 
1 -1 scale
(0) t 
GR
GR
GS
[0.75 0 0 0.75 49.55 24.75] CT
0.149 GC
/Times-Roman 21.333 F
GS
[1 0 0 1 0 0] CT
-27 7.5 moveto 
1 -1 scale
(0.5) t 
GR
GR
GS
[0 -0.75 0.75 0 21.05 146.62489] CT
0.149 GC
N
-21.556 -10.948 M
-21.556 -11.698 -21.353 -12.495 QT
-21.15 -13.292 -20.783 -14.261 QT
-20.416 -15.229 -20.15 -15.948 QT
-19.853 -16.792 -19.853 -17.339 QT
-19.853 -18.011 -20.353 -18.011 QT
-21.259 -18.011 -21.853 -17.073 QT
-22.447 -16.136 -22.728 -14.979 QT
-22.775 -14.839 -22.916 -14.839 QT
-23.181 -14.839 L
-23.369 -14.839 -23.369 -15.057 QT
-23.369 -15.12 L
-23.009 -16.495 -22.244 -17.55 QT
-21.478 -18.604 -20.306 -18.604 QT
-19.494 -18.604 -18.923 -18.065 QT
-18.353 -17.526 -18.353 -16.698 QT
-18.353 -16.276 -18.541 -15.807 QT
-18.65 -15.526 -19.009 -14.581 QT
-19.369 -13.636 -19.556 -13.018 QT
-19.744 -12.401 -19.869 -11.807 QT
-19.994 -11.214 -19.994 -10.62 QT
-19.994 -9.854 -19.666 -9.323 QT
-19.337 -8.792 -18.619 -8.792 QT
-17.15 -8.792 -16.025 -10.62 QT
-16.009 -10.698 -15.994 -10.784 QT
-15.978 -10.87 -15.962 -10.948 QT
-14.306 -17.62 L
-14.228 -17.932 -13.947 -18.151 QT
-13.666 -18.37 -13.353 -18.37 QT
-13.072 -18.37 -12.861 -18.19 QT
-12.65 -18.011 -12.65 -17.714 QT
-12.65 -17.573 -12.666 -17.526 QT
-14.337 -10.901 L
-14.494 -10.229 -14.494 -9.792 QT
-14.494 -8.792 -13.837 -8.792 QT
-13.087 -8.792 -12.72 -9.706 QT
-12.353 -10.62 -12.103 -11.823 QT
-12.056 -11.964 -11.916 -11.964 QT
-11.634 -11.964 L
-11.556 -11.964 -11.494 -11.886 QT
-11.431 -11.807 -11.431 -11.745 QT
-11.681 -10.745 -11.916 -10.042 QT
-12.15 -9.339 -12.642 -8.761 QT
-13.134 -8.182 -13.869 -8.182 QT
-14.603 -8.182 -15.181 -8.589 QT
-15.759 -8.995 -15.962 -9.667 QT
-16.494 -8.995 -17.189 -8.589 QT
-17.884 -8.182 -18.666 -8.182 QT
-19.978 -8.182 -20.767 -8.909 QT
-21.556 -9.636 -21.556 -10.948 QT
cp
f
GR
GS
[0 -0.75 0.75 0 21.05 146.62489] CT
0.149 GC
N
-9.263 -3.151 M
-9.263 -3.229 -9.248 -3.245 QT
-1.248 -25.417 L
-1.201 -25.557 -1.091 -25.628 QT
-0.982 -25.698 -0.841 -25.698 QT
-0.638 -25.698 -0.505 -25.573 QT
-0.373 -25.448 -0.373 -25.245 QT
-0.373 -25.151 L
-8.373 -2.979 L
-8.498 -2.698 -8.81 -2.698 QT
-8.998 -2.698 -9.13 -2.831 QT
-9.263 -2.964 -9.263 -3.151 QT
cp
f
GR
GS
[0 -0.75 0.75 0 21.05 146.62489] CT
0.149 GC
N
3.611 -10.948 M
3.611 -11.698 3.814 -12.495 QT
4.017 -13.292 4.384 -14.261 QT
4.751 -15.229 5.017 -15.948 QT
5.314 -16.792 5.314 -17.339 QT
5.314 -18.011 4.814 -18.011 QT
3.908 -18.011 3.314 -17.073 QT
2.72 -16.136 2.439 -14.979 QT
2.392 -14.839 2.251 -14.839 QT
1.986 -14.839 L
1.798 -14.839 1.798 -15.057 QT
1.798 -15.12 L
2.158 -16.495 2.923 -17.55 QT
3.689 -18.604 4.861 -18.604 QT
5.673 -18.604 6.244 -18.065 QT
6.814 -17.526 6.814 -16.698 QT
6.814 -16.276 6.626 -15.807 QT
6.517 -15.526 6.158 -14.581 QT
5.798 -13.636 5.611 -13.018 QT
5.423 -12.401 5.298 -11.807 QT
5.173 -11.214 5.173 -10.62 QT
5.173 -9.854 5.501 -9.323 QT
5.83 -8.792 6.548 -8.792 QT
8.017 -8.792 9.142 -10.62 QT
9.158 -10.698 9.173 -10.784 QT
9.189 -10.87 9.205 -10.948 QT
10.861 -17.62 L
10.939 -17.932 11.22 -18.151 QT
11.501 -18.37 11.814 -18.37 QT
12.095 -18.37 12.306 -18.19 QT
12.517 -18.011 12.517 -17.714 QT
12.517 -17.573 12.501 -17.526 QT
10.83 -10.901 L
10.673 -10.229 10.673 -9.792 QT
10.673 -8.792 11.33 -8.792 QT
12.08 -8.792 12.447 -9.706 QT
12.814 -10.62 13.064 -11.823 QT
13.111 -11.964 13.251 -11.964 QT
13.533 -11.964 L
13.611 -11.964 13.673 -11.886 QT
13.736 -11.807 13.736 -11.745 QT
13.486 -10.745 13.251 -10.042 QT
13.017 -9.339 12.525 -8.761 QT
12.033 -8.182 11.298 -8.182 QT
10.564 -8.182 9.986 -8.589 QT
9.408 -8.995 9.205 -9.667 QT
8.673 -8.995 7.978 -8.589 QT
7.283 -8.182 6.501 -8.182 QT
5.189 -8.182 4.4 -8.909 QT
3.611 -9.636 3.611 -10.948 QT
cp
f
GR
GS
[0 -0.75 0.75 0 21.05 146.62489] CT
0.149 GC
N
18.607 -4.569 M
16.654 -4.569 15.943 -6.186 QT
15.232 -7.803 15.232 -10.037 QT
15.232 -11.428 15.49 -12.655 QT
15.748 -13.881 16.498 -14.733 QT
17.248 -15.584 18.607 -15.584 QT
19.67 -15.584 20.341 -15.069 QT
21.013 -14.553 21.365 -13.741 QT
21.716 -12.928 21.841 -11.991 QT
21.966 -11.053 21.966 -10.037 QT
21.966 -8.662 21.716 -7.459 QT
21.466 -6.256 20.724 -5.412 QT
19.982 -4.569 18.607 -4.569 QT
cp
18.607 -4.991 M
19.498 -4.991 19.935 -5.905 QT
20.373 -6.819 20.474 -7.928 QT
20.576 -9.037 20.576 -10.287 QT
20.576 -11.491 20.474 -12.506 QT
20.373 -13.522 19.943 -14.35 QT
19.513 -15.178 18.607 -15.178 QT
17.701 -15.178 17.263 -14.35 QT
16.826 -13.522 16.724 -12.506 QT
16.623 -11.491 16.623 -10.287 QT
16.623 -9.397 16.67 -8.608 QT
16.716 -7.819 16.904 -6.983 QT
17.091 -6.147 17.505 -5.569 QT
17.92 -4.991 18.607 -4.991 QT
cp
f
GR
GS
[0.75 0 0 0.75 217.50021 21.46012] CT
/Times-Bold 23.467 F
GS
[1 0 0 1 0 0] CT
-62.5 -5 moveto 
1 -1 scale
(Final results) t 
GR
GR
GS
[0.75 0 0 0.75 0 0] CT
0 0.447 0.741 RC
1 LJ
2.667 LW
N
73 111.964 M
87 112.392 L
101 113.674 L
115 115.795 L
129 118.734 L
143 122.46 L
157 126.936 L
171 132.116 L
185 137.946 L
199 144.367 L
213 151.312 L
227 158.711 L
241 166.487 L
255 174.561 L
269 182.85 L
283 191.269 L
297 199.731 L
311 208.15 L
325 216.439 L
339 224.513 L
353 232.289 L
367 239.688 L
381 246.633 L
395 253.054 L
409 258.884 L
423 264.064 L
437 268.54 L
451 272.266 L
465 275.205 L
479 277.326 L
493 278.608 L
507 279.036 L
S
GR
GS
[0.75 0 0 0.75 65.25 84.29411] CT
0.851 0.325 0.098 RC
10.0 ML
N
4 0 M
4 -2.209 2.209 -4 0 -4 C
-2.209 -4 -4 -2.209 -4 0 C
-4 2.209 -2.209 4 0 4 C
2.209 4 4 2.209 4 0 C
cp
S
GR
GS
[0.75 0 0 0.75 75.75 85.11186] CT
0.851 0.325 0.098 RC
10.0 ML
N
4 0 M
4 -2.209 2.209 -4 0 -4 C
-2.209 -4 -4 -2.209 -4 0 C
-4 2.209 -2.209 4 0 4 C
2.209 4 4 2.209 4 0 C
cp
S
GR
GS
[0.75 0 0 0.75 86.25 86.10931] CT
0.851 0.325 0.098 RC
10.0 ML
N
4 0 M
4 -2.209 2.209 -4 0 -4 C
-2.209 -4 -4 -2.209 -4 0 C
-4 2.209 -2.209 4 0 4 C
2.209 4 4 2.209 4 0 C
cp
S
GR
GS
[0.75 0 0 0.75 96.75 87.52545] CT
0.851 0.325 0.098 RC
10.0 ML
N
4 0 M
4 -2.209 2.209 -4 0 -4 C
-2.209 -4 -4 -2.209 -4 0 C
-4 2.209 -2.209 4 0 4 C
2.209 4 4 2.209 4 0 C
cp
S
GR
GS
[0.75 0 0 0.75 107.25 89.36138] CT
0.851 0.325 0.098 RC
10.0 ML
N
4 0 M
4 -2.209 2.209 -4 0 -4 C
-2.209 -4 -4 -2.209 -4 0 C
-4 2.209 -2.209 4 0 4 C
2.209 4 4 2.209 4 0 C
cp
S
GR
GS
[0.75 0 0 0.75 117.75 91.63816] CT
0.851 0.325 0.098 RC
10.0 ML
N
4 0 M
4 -2.209 2.209 -4 0 -4 C
-2.209 -4 -4 -2.209 -4 0 C
-4 2.209 -2.209 4 0 4 C
2.209 4 4 2.209 4 0 C
cp
S
GR
GS
[0.75 0 0 0.75 128.25 94.39225] CT
0.851 0.325 0.098 RC
10.0 ML
N
4 0 M
4 -2.209 2.209 -4 0 -4 C
-2.209 -4 -4 -2.209 -4 0 C
-4 2.209 -2.209 4 0 4 C
2.209 4 4 2.209 4 0 C
cp
S
GR
GS
[0.75 0 0 0.75 138.75 97.67295] CT
0.851 0.325 0.098 RC
10.0 ML
N
4 0 M
4 -2.209 2.209 -4 0 -4 C
-2.209 -4 -4 -2.209 -4 0 C
-4 2.209 -2.209 4 0 4 C
2.209 4 4 2.209 4 0 C
cp
S
GR
GS
[0.75 0 0 0.75 149.25 101.54228] CT
0.851 0.325 0.098 RC
10.0 ML
N
4 0 M
4 -2.209 2.209 -4 0 -4 C
-2.209 -4 -4 -2.209 -4 0 C
-4 2.209 -2.209 4 0 4 C
2.209 4 4 2.209 4 0 C
cp
S
GR
GS
[0.75 0 0 0.75 159.75 106.0752] CT
0.851 0.325 0.098 RC
10.0 ML
N
4 0 M
4 -2.209 2.209 -4 0 -4 C
-2.209 -4 -4 -2.209 -4 0 C
-4 2.209 -2.209 4 0 4 C
2.209 4 4 2.209 4 0 C
cp
S
GR
GS
[0.75 0 0 0.75 170.25 111.35898] CT
0.851 0.325 0.098 RC
10.0 ML
N
4 0 M
4 -2.209 2.209 -4 0 -4 C
-2.209 -4 -4 -2.209 -4 0 C
-4 2.209 -2.209 4 0 4 C
2.209 4 4 2.209 4 0 C
cp
S
GR
GS
[0.75 0 0 0.75 180.75 117.48945] CT
0.851 0.325 0.098 RC
10.0 ML
N
4 0 M
4 -2.209 2.209 -4 0 -4 C
-2.209 -4 -4 -2.209 -4 0 C
-4 2.209 -2.209 4 0 4 C
2.209 4 4 2.209 4 0 C
cp
S
GR
GS
[0.75 0 0 0.75 191.25 124.56052] CT
0.851 0.325 0.098 RC
10.0 ML
N
4 0 M
4 -2.209 2.209 -4 0 -4 C
-2.209 -4 -4 -2.209 -4 0 C
-4 2.209 -2.209 4 0 4 C
2.209 4 4 2.209 4 0 C
cp
S
GR
GS
[0.75 0 0 0.75 201.75 132.64117] CT
0.851 0.325 0.098 RC
10.0 ML
N
4 0 M
4 -2.209 2.209 -4 0 -4 C
-2.209 -4 -4 -2.209 -4 0 C
-4 2.209 -2.209 4 0 4 C
2.209 4 4 2.209 4 0 C
cp
S
GR
GS
[0.75 0 0 0.75 212.25 141.73311] CT
0.851 0.325 0.098 RC
10.0 ML
N
4 0 M
4 -2.209 2.209 -4 0 -4 C
-2.209 -4 -4 -2.209 -4 0 C
-4 2.209 -2.209 4 0 4 C
2.209 4 4 2.209 4 0 C
cp
S
GR
GS
[0.75 0 0 0.75 222.75 151.70695] CT
0.851 0.325 0.098 RC
10.0 ML
N
4 0 M
4 -2.209 2.209 -4 0 -4 C
-2.209 -4 -4 -2.209 -4 0 C
-4 2.209 -2.209 4 0 4 C
2.209 4 4 2.209 4 0 C
cp
S
GR
GS
[0.75 0 0 0.75 233.25 162.23431] CT
0.851 0.325 0.098 RC
10.0 ML
N
4 0 M
4 -2.209 2.209 -4 0 -4 C
-2.209 -4 -4 -2.209 -4 0 C
-4 2.209 -2.209 4 0 4 C
2.209 4 4 2.209 4 0 C
cp
S
GR
GS
[0.75 0 0 0.75 243.75 172.76468] CT
0.851 0.325 0.098 RC
10.0 ML
N
4 0 M
4 -2.209 2.209 -4 0 -4 C
-2.209 -4 -4 -2.209 -4 0 C
-4 2.209 -2.209 4 0 4 C
2.209 4 4 2.209 4 0 C
cp
S
GR
GS
[0.75 0 0 0.75 254.25 182.60543] CT
0.851 0.325 0.098 RC
10.0 ML
N
4 0 M
4 -2.209 2.209 -4 0 -4 C
-2.209 -4 -4 -2.209 -4 0 C
-4 2.209 -2.209 4 0 4 C
2.209 4 4 2.209 4 0 C
cp
S
GR
GS
[0.75 0 0 0.75 264.75 191.09105] CT
0.851 0.325 0.098 RC
10.0 ML
N
4 0 M
4 -2.209 2.209 -4 0 -4 C
-2.209 -4 -4 -2.209 -4 0 C
-4 2.209 -2.209 4 0 4 C
2.209 4 4 2.209 4 0 C
cp
S
GR
GS
[0.75 0 0 0.75 275.25 197.70845] CT
0.851 0.325 0.098 RC
10.0 ML
N
4 0 M
4 -2.209 2.209 -4 0 -4 C
-2.209 -4 -4 -2.209 -4 0 C
-4 2.209 -2.209 4 0 4 C
2.209 4 4 2.209 4 0 C
cp
S
GR
GS
[0.75 0 0 0.75 285.75 202.06322] CT
0.851 0.325 0.098 RC
10.0 ML
N
4 0 M
4 -2.209 2.209 -4 0 -4 C
-2.209 -4 -4 -2.209 -4 0 C
-4 2.209 -2.209 4 0 4 C
2.209 4 4 2.209 4 0 C
cp
S
GR
GS
[0.75 0 0 0.75 296.25 203.82598] CT
0.851 0.325 0.098 RC
10.0 ML
N
4 0 M
4 -2.209 2.209 -4 0 -4 C
-2.209 -4 -4 -2.209 -4 0 C
-4 2.209 -2.209 4 0 4 C
2.209 4 4 2.209 4 0 C
cp
S
GR
GS
[0.75 0 0 0.75 306.75 202.94962] CT
0.851 0.325 0.098 RC
10.0 ML
N
4 0 M
4 -2.209 2.209 -4 0 -4 C
-2.209 -4 -4 -2.209 -4 0 C
-4 2.209 -2.209 4 0 4 C
2.209 4 4 2.209 4 0 C
cp
S
GR
GS
[0.75 0 0 0.75 317.25 200.09926] CT
0.851 0.325 0.098 RC
10.0 ML
N
4 0 M
4 -2.209 2.209 -4 0 -4 C
-2.209 -4 -4 -2.209 -4 0 C
-4 2.209 -2.209 4 0 4 C
2.209 4 4 2.209 4 0 C
cp
S
GR
GS
[0.75 0 0 0.75 327.75 196.99294] CT
0.851 0.325 0.098 RC
10.0 ML
N
4 0 M
4 -2.209 2.209 -4 0 -4 C
-2.209 -4 -4 -2.209 -4 0 C
-4 2.209 -2.209 4 0 4 C
2.209 4 4 2.209 4 0 C
cp
S
GR
GS
[0.75 0 0 0.75 338.25 196.80412] CT
0.851 0.325 0.098 RC
10.0 ML
N
4 0 M
4 -2.209 2.209 -4 0 -4 C
-2.209 -4 -4 -2.209 -4 0 C
-4 2.209 -2.209 4 0 4 C
2.209 4 4 2.209 4 0 C
cp
S
GR
GS
[0.75 0 0 0.75 348.75 203.71841] CT
0.851 0.325 0.098 RC
10.0 ML
N
4 0 M
4 -2.209 2.209 -4 0 -4 C
-2.209 -4 -4 -2.209 -4 0 C
-4 2.209 -2.209 4 0 4 C
2.209 4 4 2.209 4 0 C
cp
S
GR
GS
[0.75 0 0 0.75 359.25 215.15286] CT
0.851 0.325 0.098 RC
10.0 ML
N
4 0 M
4 -2.209 2.209 -4 0 -4 C
-2.209 -4 -4 -2.209 -4 0 C
-4 2.209 -2.209 4 0 4 C
2.209 4 4 2.209 4 0 C
cp
S
GR
GS
[0.75 0 0 0.75 369.75 214.5222] CT
0.851 0.325 0.098 RC
10.0 ML
N
4 0 M
4 -2.209 2.209 -4 0 -4 C
-2.209 -4 -4 -2.209 -4 0 C
-4 2.209 -2.209 4 0 4 C
2.209 4 4 2.209 4 0 C
cp
S
GR
GS
[0.75 0 0 0.75 0 0] CT
0.929 0.694 0.125 RC
1 LJ
2.667 LW
N
87 112.392 M
101 113.845 L
115 115.808 L
129 118.733 L
143 122.46 L
157 126.936 L
171 132.116 L
185 137.946 L
199 144.365 L
213 151.318 L
227 158.692 L
241 166.536 L
255 174.466 L
269 183.001 L
283 191.067 L
297 199.963 L
311 207.983 L
325 216.345 L
339 224.896 L
353 232.095 L
367 239.234 L
381 247.093 L
395 253.628 L
409 257.974 L
423 263.666 L
437 269.777 L
451 271.979 L
465 273.916 L
479 280.389 L
493 276.789 L
S
GR
GS
[0.75 0 0 0.75 0 0] CT
1 GC
N
496 115 M
496 44 L
199 44 L
199 115 L
cp
f
GR
GS
[0.75 0 0 0.75 184.5 42.75] CT
/Times-Roman 19.2 F
GS
[1 0 0 1 0 0] CT
0 7 moveto 
1 -1 scale
(Initial velocity from DNS result) t 
GR
GR
GS
[0.75 0 0 0.75 0 0] CT
0 0.447 0.741 RC
1 LJ
2.667 LW
N
203 57 M
243 57 L
S
GR
GS
[0.75 0 0 0.75 184.5 59.625] CT
/Times-Roman 19.2 F
GS
[1 0 0 1 0 0] CT
0 7 moveto 
1 -1 scale
(Measurement points) t 
GR
GR
GS
[0.75 0 0 0.75 167.25 59.625] CT
0.851 0.325 0.098 RC
10.0 ML
N
4 0 M
4 -2.209 2.209 -4 0 -4 C
-2.209 -4 -4 -2.209 -4 0 C
-4 2.209 -2.209 4 0 4 C
2.209 4 4 2.209 4 0 C
cp
S
GR
GS
[0.75 0 0 0.75 184.5 76.5] CT
/Times-Roman 19.2 F
GS
[1 0 0 1 0 0] CT
0 7 moveto 
1 -1 scale
(Prediction) t 
GR
GR
GS
[0.75 0 0 0.75 0 0] CT
0.929 0.694 0.125 RC
1 LJ
2.667 LW
N
203 102 M
243 102 L
S
GR
GS
[0.75 0 0 0.75 0 0] CT
0.149 GC
10.0 ML
0.667 LW
N
199 115 M
199 44 L
496 44 L
496 115 L
cp
S
GR
%%Trailer
%%Pages: 1
%%EOF
